<svg xmlns="http://www.w3.org/2000/svg" xmlns:xlink="http://www.w3.org/1999/xlink" viewBox="0 0 373.648 374.453">
  <defs>
    <style>
      .cls-1 {
        fill: #fff;
      }

      .cls-2 {
        fill: #151245;
        font-size: 50px;
        font-family: Roboto-Bold, Roboto;
        font-weight: 700;
      }

      .cls-3 {
        fill: #bababa;
      }

      .cls-4 {
        fill: #999;
      }

      .cls-5 {
        filter: url(#Rectangle_45);
      }
    </style>
    <filter id="Rectangle_45" x="0" y="172.467" width="373.648" height="201.986" filterUnits="userSpaceOnUse">
      <feOffset dx="6" dy="5" input="SourceAlpha"/>
      <feGaussianBlur stdDeviation="2" result="blur"/>
      <feFlood flood-opacity="0.161"/>
      <feComposite operator="in" in2="blur"/>
      <feComposite in="SourceGraphic"/>
    </filter>
  </defs>
  <g id="Groupe_178" data-name="Groupe 178" transform="translate(-5206.196 -7954.109)">
    <circle id="Ellipse_192" data-name="Ellipse 192" class="cls-1" cx="133.772" cy="133.772" r="133.772" transform="translate(5233.091 7954.109)"/>
    <g class="cls-5" transform="matrix(1, 0, 0, 1, 5206.2, 7954.11)">
      <rect id="Rectangle_45-2" data-name="Rectangle 45" class="cls-1" width="344.508" height="115.447" transform="translate(0 250.96) rotate(-13)"/>
    </g>
    <text id="Scorpion" class="cls-2" transform="translate(5283.162 8218.87) rotate(-13)"><tspan x="0" y="52">Scorpion</tspan></text>
    <g id="Calque_1_2_" transform="translate(5308.719 7984.173)">
      <g id="Groupe_142" data-name="Groupe 142" transform="translate(0 0.011)">
        <path id="Tracé_458" data-name="Tracé 458" class="cls-3" d="M88.869,84.067h13.289l6.281,5.62c.6.529,1.124.992,1.719,1.521.463.6,1.322.793,1.983,1.19,1.388.727,2.843,1.388,4.3,2.05-.793-1.388-1.653-2.711-2.512-4.033a7.818,7.818,0,0,0-1.454-1.851c-.6-.463-1.124-.992-1.719-1.521l-6.81-6.082-.463-.463H89.6l-7.272-3.306c-.661-.331-1.256-.6-1.917-.926-.066,0-.132-.066-.2-.066a52.324,52.324,0,0,0-2.05-7.6l.529.132,2.578.661L91.646,72.1l.6.132.529-.264,12.165-5.223h1.917a6.382,6.382,0,0,0,1.124,0,7.224,7.224,0,0,0,1.124-.331,40.473,40.473,0,0,0,4.562-1.454c-1.521-.529-3.041-.992-4.562-1.454a7.224,7.224,0,0,0-1.124-.331c-.4-.066-.727.066-1.124,0h-2.578l-.331.132L91.977,68.729l-7.934-2.05C89.464,64.564,96.8,60,98.786,50.085c0,0,17.52-2.116,13.95-19.305L105.6,10.418S99.513-1.02,94.489.434L95.216,8.3l3.24,2.116-.331,2.512,1.785,1.785-1.058,2.512v4.3l2.116.727-2.116,2.512-3.57-4.3.331-2.512L93.5,17.624l1.454-3.24H92.836l.727-4.3-2.512.331V7.178s-5.025,7.867-2.843,14.28c0,0,.066,7.4-1.454,11.57a14.49,14.49,0,0,0-.992,5.553c.132,2.645.992,5.884,4.231,7.206,0,0-2.512,4.628-6.413,4.628,0,0-4.3-6.082-10.71-7.14v7.14s-8.2-7.14-13.95-7.14c-5.686,0-13.95,7.14-13.95,7.14v-7.14c-6.413,1.058-10.71,7.14-10.71,7.14-3.9,0-6.413-4.628-6.413-4.628,3.24-1.322,4.165-4.562,4.231-7.206a14.49,14.49,0,0,0-.992-5.553c-1.521-4.1-1.454-11.57-1.454-11.57,2.116-6.413-2.843-14.28-2.843-14.28v3.24l-2.512-.331.727,4.3H22.888l1.454,3.24-2.116.331.331,2.512-3.57,4.3-2.116-2.512,2.116-.727v-4.3L17.93,14.715l1.785-1.785-.331-2.512L22.624,8.3,23.351.434c-5.025-1.454-11.107,9.983-11.107,9.983L5.1,30.78C1.534,47.9,19.054,50.085,19.054,50.085,21.037,60,28.508,64.63,33.863,66.746l-7.8,2.05L14.1,63.639l-.331-.132H11.186a6.381,6.381,0,0,0-1.124,0,7.224,7.224,0,0,0-1.124.331,35.639,35.639,0,0,0-4.5,1.454c1.521.529,3.041.992,4.562,1.454a7.224,7.224,0,0,0,1.124.331,6.381,6.381,0,0,1,1.124,0H13.17L25.335,72.3l.529.264.6-.132,10.38-2.711,2.578-.661.331-.066a50.164,50.164,0,0,0-2.05,7.6h-.066a17.129,17.129,0,0,1-1.917.926l-7.272,3.306H14.558l-.463.463-6.81,6.082c-.6.529-1.124.992-1.719,1.521-.661.4-.926,1.19-1.454,1.851C3.253,92,2.393,93.389,1.6,94.778c1.454-.661,2.909-1.322,4.3-2.05.661-.4,1.521-.6,1.983-1.19C8.41,91.009,9,90.547,9.6,90.018L15.88,84.4H29.169l.331-.132,7.471-3.438a45.367,45.367,0,0,0,.2,10.843l-1.058.992-2.248,2.182-9.322,8.33-7.008,4.562-.529.331-.2.6-2.711,8.4-.331,1.058c-.066.331-.264.661-.331,1.058-.066.727-.132,1.521-.2,2.248-.132,1.521-.132,3.041-.2,4.562.859-1.256,1.719-2.512,2.512-3.835.4-.661.793-1.256,1.19-1.917.132-.331.2-.727.331-1.058l.331-1.058,2.512-7.8,6.611-4.3.132-.066.132-.132,9.124-8.727,1.719-1.653A50.8,50.8,0,0,0,41.8,106.612,6.662,6.662,0,0,0,41,108.133l-.727,1.521-1.521,3.107-5.95,12.231-8.4,8.727-.463.529v9.388a6.8,6.8,0,0,1-.066,1.124,6.68,6.68,0,0,0,.2,1.124l.463,2.182c.331,1.454.661,2.909,1.124,4.363.4-1.454.793-2.909,1.124-4.363l.463-2.182a5.676,5.676,0,0,0,.2-1.124c0-.331-.066-.727-.066-1.124V135.57l8.066-8.462.2-.2.132-.2,6.082-12.429,1.521-3.107.529-1.058a60.634,60.634,0,0,0,10.512,12.561c-2.314,2.248-3.835,6.149-3.835,10.71,0,4.628,1.653,8.661,4.033,10.909-2.446,2.182-4.033,6.215-4.033,10.909,0,4.958,1.851,9.256,4.562,11.305-2.05,2.116-3.24,6.016-2.777,10.248s2.38,7.735,4.892,9.388a13.42,13.42,0,0,0,.926,7.008c2.116,5.223,6.545,8.4,9.917,7.074a13.409,13.409,0,0,0,5.223,4.892c4.231,2.314,8.859,2.314,11.173.264,2.314,1.983,6.876,1.983,11.107-.264,3.5-1.851,5.752-4.76,6.281-7.471a7.854,7.854,0,1,0,3.5-14.875,8.046,8.046,0,0,0-2.512.463c-3.107-3.372-7.4-10.049-2.975-18.578,0,0-11.239,12.033-1.124,21.817a7.594,7.594,0,0,0-1.256,4.231,8.1,8.1,0,0,0,.132,1.256,12.894,12.894,0,0,0-8.264,1.521,13.291,13.291,0,0,0-4.826,4.231,14.074,14.074,0,0,0-4.76-4.165,12.738,12.738,0,0,0-8.33-1.587,14.705,14.705,0,0,0-.926-3.636,13.961,13.961,0,0,0-4.43-5.95,15.55,15.55,0,0,0,.859-7.14c-.4-3.835-2.049-7.14-4.165-8.925,2.512-2.182,4.3-6.281,4.3-11.107,0-4.628-1.653-8.661-4.033-10.909,2.446-2.182,4.033-6.215,4.033-10.909,0-4.5-1.521-8.462-3.835-10.71a59.9,59.9,0,0,0,10.644-12.694l.6,1.256,1.521,3.107,6.082,12.429.132.2.2.2,8.066,8.462V143.7a6.8,6.8,0,0,1-.066,1.124,8.087,8.087,0,0,0,.2,1.124l.463,2.182c.331,1.454.727,2.909,1.124,4.363.4-1.454.793-2.909,1.124-4.363l.463-2.182a5.676,5.676,0,0,0,.2-1.124c0-.4-.066-.727-.066-1.124v-9.388l-.463-.529-8.529-8.859-5.95-12.231L77.5,109.587l-.727-1.521a5.64,5.64,0,0,0-.859-1.653h0a47.675,47.675,0,0,0,4.165-11.173l1.851,1.785,9.124,8.727.132.132.132.066,6.611,4.3,2.512,7.8.331,1.058a6.5,6.5,0,0,0,.331,1.058,18.659,18.659,0,0,0,1.19,1.917c.793,1.322,1.653,2.578,2.512,3.835q0-2.281-.2-4.562c-.066-.727-.066-1.521-.2-2.248-.066-.331-.264-.661-.331-1.058l-.331-1.058-2.711-8.4-.2-.6-.529-.331L93.3,103.108l-9.124-8.595-2.248-2.182L80.8,91.208c0-.066-.066-.132-.066-.2a43.831,43.831,0,0,0,.132-10.644l7.669,3.5Z" transform="translate(-0.542 -0.111)"/>
        <path id="Tracé_459" data-name="Tracé 459" d="M88.327,83.967h13.289l8,7.14h0a4.2,4.2,0,0,0,1.454.926l1.587.793,3.173,1.521v.066l-1.851-2.975a11.26,11.26,0,0,0-.992-1.454c-.331-.463-.6-1.058-1.124-1.322h0l-8.991-8H88.988l-4.562-2.116-2.314-1.058a23.749,23.749,0,0,1-2.248-1.124h0l-.2-.066H79.6v-.066a51.719,51.719,0,0,0-2.05-7.6l-.066-.132h.132l14.016,3.636h-.066l12.694-5.487h1.917a6.369,6.369,0,0,0,1.124,0h0l1.388-.4,1.388-.463,2.843-.926v.2l-2.843-.859-1.388-.463-1.388-.4h0a6.369,6.369,0,0,1-1.124,0H103.6L91.3,68.629H91.17l-7.934-2.05-.4-.066.331-.132a25.884,25.884,0,0,0,9.586-6.347A19.543,19.543,0,0,0,96,55.274a22.847,22.847,0,0,0,1.851-5.421v-.132h.132a19.963,19.963,0,0,0,6.347-2.116,15.294,15.294,0,0,0,5.157-4.231A12.326,12.326,0,0,0,112,37.225a18.875,18.875,0,0,0-.331-6.677h0l-7.14-20.363h0a38.747,38.747,0,0,0-4.43-6.479,13.054,13.054,0,0,0-2.843-2.578,4.439,4.439,0,0,0-3.57-.859l.132-.2.727,7.867L94.476,7.8l3.24,2.116.066.066v.132l-.331,2.512-.066-.132,1.785,1.785.066.066-.066.132-1.058,2.512v4.231l-.132-.2,2.116.727.264.066-.2.2-2.116,2.512-.132.2-.132-.2-3.57-4.3-.066-.066V20.1l.331-2.512.132.2-2.116-.331-.264-.066.066-.2,1.454-3.24.2.264H91.633l.066-.2.727-4.3.2.2-2.512.331h-.2V6.813l.331.132a22.038,22.038,0,0,0-1.653,3.306,31.193,31.193,0,0,0-1.19,3.5,22.967,22.967,0,0,0-.529,3.636,11.269,11.269,0,0,0,.529,3.636h0a54.344,54.344,0,0,1-.4,6.545c-.132,1.058-.331,2.182-.529,3.24-.264,1.058-.661,2.116-.992,3.107a13.274,13.274,0,0,0-.529,3.173,10.172,10.172,0,0,0,.331,3.173,7.762,7.762,0,0,0,1.322,2.909,6.55,6.55,0,0,0,2.512,1.917l.2.066-.132.2A9.982,9.982,0,0,1,88,47.076,11.014,11.014,0,0,1,86.476,48.6a10.109,10.109,0,0,1-1.785,1.124,7.559,7.559,0,0,1-2.116.463h-.132l-.066-.066A25.122,25.122,0,0,0,80.2,47.671a24.317,24.317,0,0,0-2.512-2.05,14.913,14.913,0,0,0-2.843-1.587,12.918,12.918,0,0,0-3.107-.926l.264-.2v7.6l-.331-.264a44,44,0,0,0-6.479-4.562,22.213,22.213,0,0,0-3.57-1.719,11,11,0,0,0-3.768-.793,11.977,11.977,0,0,0-3.768.793,25.274,25.274,0,0,0-3.57,1.719,44,44,0,0,0-6.479,4.562l-.4.331v-7.6l.264.2a12.918,12.918,0,0,0-3.107.926,23.952,23.952,0,0,0-2.843,1.587,24.318,24.318,0,0,0-2.512,2.05,19.218,19.218,0,0,0-2.182,2.446l-.066.132h-.132a4.7,4.7,0,0,1-2.116-.463,7.705,7.705,0,0,1-1.851-1.124,11.014,11.014,0,0,1-1.521-1.521,9.982,9.982,0,0,1-1.19-1.719l-.132-.2.264-.132a5.963,5.963,0,0,0,2.512-1.917A7.964,7.964,0,0,0,30.346,40.4a12.95,12.95,0,0,0,.331-3.173,17.671,17.671,0,0,0-.529-3.173,13.847,13.847,0,0,0-.529-1.521,14.358,14.358,0,0,1-.463-1.587c-.264-1.058-.4-2.182-.6-3.24a54.345,54.345,0,0,1-.4-6.545h0v-.066a13.432,13.432,0,0,0,.529-3.636,16.644,16.644,0,0,0-.529-3.636,31.193,31.193,0,0,0-1.19-3.5,30.827,30.827,0,0,0-1.653-3.306l.463-.132v3.5l-.264-.066-2.512-.331.264-.264L24,14.02l.066.264h-2.38l.2-.331,1.454,3.24.132.264-.331.066-2.116.331.2-.264.331,2.512v.132l-.066.066-3.57,4.3-.2.2-.2-.2L15.4,22.085l-.264-.264.331-.132,2.116-.727-.2.264V16.995L16.33,14.482l-.066-.132.132-.132,1.785-1.785-.066.2-.331-2.512V9.987l.132-.066L21.156,7.8l-.132.2L21.751.136l.2.264a4.294,4.294,0,0,0-3.5.859A17.578,17.578,0,0,0,15.6,3.838a35.2,35.2,0,0,0-2.38,3.107,34.28,34.28,0,0,0-2.05,3.306v-.066L4.033,30.548v-.066A20.557,20.557,0,0,0,3.7,37.159a13.717,13.717,0,0,0,2.512,6.082,15.764,15.764,0,0,0,5.157,4.165,21.616,21.616,0,0,0,6.347,2.05h.2l.066.2a22.847,22.847,0,0,0,1.851,5.421,21.181,21.181,0,0,0,3.24,4.694,24.709,24.709,0,0,0,9.586,6.281l.793.331-.859.2-7.8,2.049h-.066l-.066-.066-12.3-5.289H9.851a6.332,6.332,0,0,0-1.124,0h0l-1.388.4-1.388.463-2.777.859v-.529l2.843.859,1.388.463,1.388.4h3.173L24.726,71.6h-.2l13.818-3.57.529-.132-.2.529a48.6,48.6,0,0,0-1.983,7.537V76.1l-.132.066c-.066,0-.066,0-.132.066l.066-.066c-.793.4-1.521.793-2.314,1.124l-2.314,1.058L27.3,80.463H13.289l.2-.066L4.5,88.4h0A3.229,3.229,0,0,0,3.5,89.653c-.331.529-.661.992-.992,1.521L.661,94.149l-.4-.463,3.173-1.521,1.587-.793a4.131,4.131,0,0,0,1.388-.859h0l8-7.206.066-.066H27.767l7.8-3.57.529-.264-.066.6a41.451,41.451,0,0,0,.2,10.71v.2l-.132.132L23.735,102.876h0L16.2,107.768l.132-.2-3.173,10.049h0a3.846,3.846,0,0,0-.331,1.058h0l-.132,1.719a14.943,14.943,0,0,0-.066,1.719l-.132,3.372-.6-.2,1.851-2.843a10.871,10.871,0,0,0,.926-1.454l.859-1.454h0a1.32,1.32,0,0,0,.132-.6c.066-.2.132-.463.2-.661l.4-1.256.793-2.446,1.587-4.958.066-.132.066-.066,6.81-4.43-.066.066L36.428,94.545l.4-.4.132.529a47.914,47.914,0,0,0,4.165,11.107l.066.2-.132.132a2.658,2.658,0,0,0-.529,1.058l-.6,1.19-1.124,2.314L36.561,115.3l-4.5,9.256v.132l-8.859,9.256.066-.2v9.19a7.186,7.186,0,0,1-.066,1.19,2.911,2.911,0,0,0,.132,1.058l.463,2.248,1.124,4.43H24.4l1.058-4.1c.2-.661.331-1.388.463-2.05.066-.331.132-.727.2-1.058,0-.2.066-.264,0-.463v-9.124l.066-.066,8.264-8.595-.066.066,8.2-16.859.2-.463.264.4a61.347,61.347,0,0,0,10.446,12.5l.2.2-.2.2a12.7,12.7,0,0,0-2.909,4.892,18.537,18.537,0,0,0-.859,5.686,18.291,18.291,0,0,0,.926,5.686,11.559,11.559,0,0,0,3.041,4.826l.2.2-.2.2a12.194,12.194,0,0,0-3.107,5.091,16.658,16.658,0,0,0-.859,5.95,17.8,17.8,0,0,0,1.058,5.884,11.454,11.454,0,0,0,3.372,4.892l.2.2-.2.2a10.241,10.241,0,0,0-2.38,4.694,16.159,16.159,0,0,0-.331,5.355,15.391,15.391,0,0,0,1.454,5.157,10.573,10.573,0,0,0,3.306,4.1l.132.066v.132a11.413,11.413,0,0,0,.331,4.958,14.221,14.221,0,0,0,2.05,4.562,11.8,11.8,0,0,0,3.5,3.5,5.408,5.408,0,0,0,4.694.661l.2-.066.132.2a13.032,13.032,0,0,0,3.107,3.5,14.629,14.629,0,0,0,4.1,2.248c.727.264,1.521.463,2.248.661a13.669,13.669,0,0,0,2.314.2,6.759,6.759,0,0,0,4.3-1.454l.132-.132.132.132a7.191,7.191,0,0,0,4.958,1.388,14.158,14.158,0,0,0,5.157-1.322,15.48,15.48,0,0,0,4.363-3.107,9.561,9.561,0,0,0,2.578-4.562l.066-.331.264.132a7.538,7.538,0,0,0,7.206-.2A7.62,7.62,0,0,0,112,190.541,7.474,7.474,0,0,0,109.02,184a7.393,7.393,0,0,0-7.074-1.124l-.132.066-.132-.132a22.338,22.338,0,0,1-2.975-4.1,17.5,17.5,0,0,1-1.719-4.826,14.63,14.63,0,0,1,0-5.091,18.3,18.3,0,0,1,1.719-4.826l.331.264a25.23,25.23,0,0,0-3.372,4.958,17.4,17.4,0,0,0-1.851,5.686,11.871,11.871,0,0,0,.661,5.884,13.823,13.823,0,0,0,3.372,4.892l.132.132-.066.132a8.836,8.836,0,0,0-1.058,2.578,7.355,7.355,0,0,0,0,2.777v.264l-.264-.066a9.958,9.958,0,0,0-3.7,0,17.019,17.019,0,0,0-3.57,1.058,13.4,13.4,0,0,0-5.686,4.628l-.2.264-.2-.264a13.9,13.9,0,0,0-5.686-4.628,13.538,13.538,0,0,0-3.5-1.124,9.61,9.61,0,0,0-3.636,0l-.2.066v-.2a14.314,14.314,0,0,0-1.719-5.223,11.448,11.448,0,0,0-3.57-4.165l-.132-.066.066-.132a15.969,15.969,0,0,0,.661-8.462,14.581,14.581,0,0,0-1.388-4.033,10.672,10.672,0,0,0-2.578-3.372l-.2-.132.2-.132a12.215,12.215,0,0,0,3.24-4.892,17.455,17.455,0,0,0,.992-5.884,17.952,17.952,0,0,0-.926-5.884,12.843,12.843,0,0,0-3.107-5.025l-.132-.132.132-.132a12.5,12.5,0,0,0,3.041-4.892,16.918,16.918,0,0,0,.926-5.752,18.957,18.957,0,0,0-.859-5.752,12.166,12.166,0,0,0-2.909-4.958l-.132-.132.132-.132a59.041,59.041,0,0,0,10.578-12.694l.132-.264.132.264,8.33,16.991v-.066l8.264,8.661.066.066v8.529a5.653,5.653,0,0,0,0,1.058c.066.331.132.661.2,1.058.132.661.264,1.388.463,2.049l1.058,4.1h-.264l1.124-4.43.463-2.248a3.275,3.275,0,0,0,.132-1.124,6.369,6.369,0,0,1,0-1.124v-9.19l.066.066-8.859-9.256h0l-4.5-9.322-2.248-4.628-1.124-2.314a9.367,9.367,0,0,1-.529-1.19,2.758,2.758,0,0,0-.6-1.058h0a47.308,47.308,0,0,0,4.165-11.173l.066-.132.132.132,11.041,10.644h0l6.744,4.43h0l1.587,4.958.793,2.512c.264.793.529,1.653.793,2.512h0l.859,1.454c.264.463.6.992.926,1.454l1.851,2.843h-.066l-.132-3.438a14.941,14.941,0,0,0-.066-1.719l-.132-1.719h0c-.066-.331-.264-.661-.331-1.058h0L99.9,107.57h0l-7.537-4.892h0L80.2,91.107h0l-.066-.2h0a44.07,44.07,0,0,0,.132-10.644h0Zm0,0-8-3.636h0A44.071,44.071,0,0,1,80.2,90.975h0l.066.2h0l12.429,11.9h0l7.537,4.892h0l3.24,10.049h0c.066.331.264.661.331,1.058h0l.132,1.719a14.942,14.942,0,0,1,.066,1.719l.132,3.438v.2l-.132-.132-1.851-2.843a10.871,10.871,0,0,1-.926-1.454l-.859-1.454h0c-.264-.859-.529-1.653-.793-2.512l-.793-2.446-1.587-4.958v.066l-6.744-4.363h0L79.336,95.4l.132-.066A47.308,47.308,0,0,1,75.3,106.512v-.066h0v-.066a2.808,2.808,0,0,1,.661,1.124,9.366,9.366,0,0,0,.529,1.19l1.124,2.314,2.248,4.628,4.562,9.256h0l8.859,9.256.066.066v10.38a3.661,3.661,0,0,1-.132,1.19l-.463,2.248-1.124,4.5-.132.529-.132-.529-1.058-4.165c-.2-.661-.331-1.388-.463-2.05-.066-.331-.132-.661-.2-1.058a5.641,5.641,0,0,1,0-1.058v-8.462l.066.132-8.264-8.595h0l-8.33-16.991h.331a61.366,61.366,0,0,1-10.644,12.76v-.264a12.062,12.062,0,0,1,2.975,5.091,19.812,19.812,0,0,1,.859,5.884,17.354,17.354,0,0,1-.992,5.818,12.843,12.843,0,0,1-3.107,5.025v-.264a12.3,12.3,0,0,1,3.173,5.157,18.463,18.463,0,0,1,.926,6.016,16.966,16.966,0,0,1-1.058,6.016,12.362,12.362,0,0,1-3.306,5.091v-.264a11.406,11.406,0,0,1,2.645,3.5,15.445,15.445,0,0,1,1.388,4.165,16.143,16.143,0,0,1-.661,8.661l-.066-.2a13.623,13.623,0,0,1,3.7,4.3,15.412,15.412,0,0,1,1.785,5.421l-.264-.2a10.678,10.678,0,0,1,3.835,0,14.46,14.46,0,0,1,3.636,1.124,14.076,14.076,0,0,1,5.818,4.76h-.331a14.265,14.265,0,0,1,5.884-4.76A14.461,14.461,0,0,1,93.286,192a12.431,12.431,0,0,1,3.835,0l-.264.264a10.811,10.811,0,0,1-.132-1.454,5.507,5.507,0,0,1,.2-1.454,8.74,8.74,0,0,1,1.124-2.711v.264a14.164,14.164,0,0,1-3.438-5.091,12.691,12.691,0,0,1-.727-6.082,17.628,17.628,0,0,1,1.851-5.818,22.23,22.23,0,0,1,3.438-5.091l1.058-1.19-.727,1.454a19.824,19.824,0,0,0-1.653,4.694,12.52,12.52,0,0,0,0,4.958,15.31,15.31,0,0,0,1.653,4.694,21.528,21.528,0,0,0,2.909,4.033l-.264-.066a8.067,8.067,0,0,1,6.677,14.611,7.964,7.964,0,0,1-7.6.2l.331-.132a9.671,9.671,0,0,1-2.645,4.826,15.4,15.4,0,0,1-4.5,3.173,13.364,13.364,0,0,1-5.289,1.388,7.667,7.667,0,0,1-5.289-1.521h.331a7.227,7.227,0,0,1-4.562,1.587,15.261,15.261,0,0,1-2.446-.2,15.557,15.557,0,0,1-6.545-3.041,13.2,13.2,0,0,1-3.24-3.636l.331.132a5.2,5.2,0,0,1-2.645.264,7.807,7.807,0,0,1-2.446-.926,12.939,12.939,0,0,1-3.7-3.636,17.154,17.154,0,0,1-2.116-4.76,13.529,13.529,0,0,1-.331-5.157l.132.264a10.528,10.528,0,0,1-3.5-4.3,16.508,16.508,0,0,1-1.454-5.355,15.756,15.756,0,0,1,.331-5.553,11.778,11.778,0,0,1,2.512-4.958v.4a11.782,11.782,0,0,1-3.5-5.091,17.392,17.392,0,0,1-1.124-6.082,19.476,19.476,0,0,1,.859-6.149,12.9,12.9,0,0,1,3.24-5.289v.4a12.271,12.271,0,0,1-3.173-5.025,18.027,18.027,0,0,1-.992-5.884,19.812,19.812,0,0,1,.859-5.884,12.431,12.431,0,0,1,3.041-5.157v.4a58.681,58.681,0,0,1-10.578-12.628h.463l-8.2,16.859v.066h0l-8.264,8.661.066-.2v9.586c-.066.4-.132.727-.2,1.058-.132.661-.264,1.388-.463,2.05l-1.058,4.165-.264,1.124-.264-1.124-1.124-4.5-.463-2.248a3.468,3.468,0,0,1-.132-1.19,6.381,6.381,0,0,0,0-1.124v-9.322l.066-.066,8.859-9.256-.066.066,4.5-9.256,2.248-4.628,1.124-2.314c.2-.4.4-.793.529-1.124a3.044,3.044,0,0,1,.661-1.19l-.066.331a49.105,49.105,0,0,1-4.231-11.239l.529.132L26.445,106.512h0l-6.744,4.43.132-.2L18.247,115.7l-.793,2.446-.4,1.256-.2.6a2.519,2.519,0,0,1-.2.661h0l-.859,1.454a10.871,10.871,0,0,1-.926,1.454l-1.851,2.843-.6.926.066-1.124.132-3.438a14.943,14.943,0,0,1,.066-1.719l.132-1.719h0a6.819,6.819,0,0,1,.331-1.058h0l3.173-10.049.066-.132.066-.066L24,103.14l-.066.066,12.3-11.834-.066.264a43.05,43.05,0,0,1-.2-10.909l.463.331-7.8,3.57H15.206l.2-.066-8,7.14h0A4.764,4.764,0,0,1,5.818,92.76c-.463.264-1.058.529-1.587.793L.992,95.074,0,95.537l.6-.926L2.512,91.57c.331-.529.661-.992.926-1.454a4.811,4.811,0,0,1,1.19-1.454H4.562l8.991-8,.066-.066H27.5l4.562-2.116,2.314-1.058A23.75,23.75,0,0,0,36.627,76.3l.066-.066h0l-.132.2a49.594,49.594,0,0,1,2.05-7.6l.331.4-13.818,3.57h-.066l-.066-.066L12.3,67.241H10.181a3.186,3.186,0,0,1-.793,0h0c-.463-.132-.992-.264-1.454-.4l-1.388-.463L3.7,65.456l-.859-.264.859-.264L6.545,64l1.388-.463c.463-.132.992-.264,1.454-.4h0c.463-.066.793.066,1.124,0h2.777l12.3,5.289h-.2l7.8-2.049v.529A25.976,25.976,0,0,1,23.4,60.5a24.33,24.33,0,0,1-3.372-4.826,24.03,24.03,0,0,1-1.917-5.553l.264.2A20.54,20.54,0,0,1,11.834,48.2a16.9,16.9,0,0,1-5.355-4.3,13.867,13.867,0,0,1-2.645-6.347,20,20,0,0,1,.331-6.876h0l7.14-20.363h0c.661-1.19,1.322-2.314,2.05-3.372A22.547,22.547,0,0,1,15.8,3.772a16.687,16.687,0,0,1,2.975-2.711A4.754,4.754,0,0,1,20.627.2a3.833,3.833,0,0,1,2.116,0l.2.066v.2l-.727,7.867v.132l-.132.066-3.24,2.116.132-.264.331,2.512v.132l-.066.066-1.785,1.785.066-.264,1.058,2.512v4.628l-.2.066-2.116.727.132-.4,2.116,2.512h-.4l3.57-4.3-.066.2-.331-2.512-.066-.264.264-.066,2.116-.331-.2.331-1.454-3.24-.132-.331H24.33l-.264.264-.727-4.3-.066-.331.331.066,2.512.331-.264.264V6.35l.463.727a32.325,32.325,0,0,1,1.719,3.372,25.119,25.119,0,0,1,1.19,3.57,24.611,24.611,0,0,1,.529,3.768,14.406,14.406,0,0,1-.529,3.768V21.49a54.345,54.345,0,0,0,.4,6.545c.132,1.058.331,2.182.529,3.173a10.219,10.219,0,0,0,.463,1.521,14.878,14.878,0,0,1,.529,1.587,11.153,11.153,0,0,1,.529,3.306,11.028,11.028,0,0,1-.331,3.306,8.488,8.488,0,0,1-1.388,3.041,6.441,6.441,0,0,1-2.711,2.05l.132-.331a9.5,9.5,0,0,0,1.19,1.653A15.1,15.1,0,0,0,30.015,48.8a9.249,9.249,0,0,0,1.719,1.058,4.742,4.742,0,0,0,1.917.4l-.2.066a19.784,19.784,0,0,1,4.76-4.628,18.229,18.229,0,0,1,2.909-1.653,17.667,17.667,0,0,1,3.173-.992l.264-.066v7.4l-.4-.2a45.034,45.034,0,0,1,6.545-4.628,26.016,26.016,0,0,1,3.636-1.719,11.523,11.523,0,0,1,3.967-.859,11.523,11.523,0,0,1,3.967.859,26.017,26.017,0,0,1,3.636,1.719,45.034,45.034,0,0,1,6.545,4.628l-.331.132v-7.4l.264.066a12.679,12.679,0,0,1,3.173.992,18.229,18.229,0,0,1,2.909,1.653,19.784,19.784,0,0,1,4.76,4.628l-.2-.066a4.742,4.742,0,0,0,1.917-.4,6.707,6.707,0,0,0,1.719-1.058,10.08,10.08,0,0,0,1.454-1.454,9.5,9.5,0,0,0,1.19-1.653l.132.264a6.243,6.243,0,0,1-2.645-2.05A7.5,7.5,0,0,1,85.418,40.8a13.689,13.689,0,0,1-.331-3.306,17.438,17.438,0,0,1,.529-3.24c.331-1.058.727-2.05.992-3.107a25.468,25.468,0,0,0,.529-3.24,54.345,54.345,0,0,0,.4-6.545v.066A12.082,12.082,0,0,1,87,17.656a18.48,18.48,0,0,1,.529-3.768,28.248,28.248,0,0,1,1.19-3.57,20.209,20.209,0,0,1,1.719-3.372l.331-.6v3.9l-.2-.2,2.512-.331.264-.066-.066.264-.727,4.3-.2-.2h2.38l-.132.264-1.454,3.24-.132-.264,2.116.331h.2v.2L95,20.3l-.066-.132,3.57,4.3h-.264l2.116-2.512.066.264L98.31,21.49l-.132-.066v-4.43l1.058-2.512.066.2L97.517,12.9l-.066-.066v-.066l.331-2.512.066.2-3.24-2.116-.066-.066V8.2L93.814.334V.2l.132-.066a4.3,4.3,0,0,1,2.05,0A9.424,9.424,0,0,1,97.847,1a16.094,16.094,0,0,1,2.975,2.645,28.368,28.368,0,0,1,2.38,3.173,35.253,35.253,0,0,1,2.05,3.372h0l7.14,20.363h0a21.465,21.465,0,0,1,.331,6.81,13.233,13.233,0,0,1-2.645,6.281,15.958,15.958,0,0,1-5.289,4.3,20.708,20.708,0,0,1-6.479,2.116l.132-.132a20.05,20.05,0,0,1-1.917,5.487,21.571,21.571,0,0,1-3.306,4.826,25.338,25.338,0,0,1-9.653,6.347v-.264L91.5,68.365h-.066l12.3-5.289h2.645a6.369,6.369,0,0,1,1.124,0h0c.463.132.992.264,1.454.4l1.388.463,2.843.926.264.066-.264.066-2.843.926-1.388.463c-.463.132-.926.264-1.454.4h0a6.369,6.369,0,0,0-1.124,0h-1.851L91.765,72.2h0L77.749,68.563l.066-.066a61.507,61.507,0,0,1,2.049,7.6l-.066-.066.2.066h0c.727.4,1.521.793,2.248,1.124l2.314,1.058L89.12,80.4H103l8.991,8h0a3.865,3.865,0,0,1,1.124,1.388c.331.463.661.992.926,1.454l1.851,2.975.066.066-.066-.066-3.173-1.521-1.587-.793a3.667,3.667,0,0,1-1.454-.926h0l-8-7.14h0Z" transform="translate(0 -0.011)"/>
      </g>
      <path id="Tracé_460" data-name="Tracé 460" d="M83.106,93.9c-.793,6.215.793,12.429,1.719,18.644,1.785,11.371,1.653,23.6-1.256,34.775-3.306-13.09-3.835-28.3-2.512-41.717C81.519,101.569,82.643,97.8,83.106,93.9Z" transform="translate(-27.24 -31.816)"/>
      <path id="Tracé_461" data-name="Tracé 461" d="M91.348,106.268a19.752,19.752,0,0,0,5.95-2.843c.529-.331,1.058-.661,1.587-.926a26.071,26.071,0,0,1-12.561,7.14,4.1,4.1,0,0,1-2.182.132c-1.983-.529-2.314-2.711-.4-3.306C85.993,105.74,88.968,106.863,91.348,106.268Z" transform="translate(-27.946 -34.73)"/>
      <path id="Tracé_462" data-name="Tracé 462" d="M90.2,116.789c1.388-.6,2.711-1.256,4.033-1.983,1.454-.793,3.041-1.785,3.7-3.306-.6,3.372-3.438,5.884-6.281,7.8a16.418,16.418,0,0,1-3.967,2.116c-1.587.6-4.694-.066-3.438-2.314C85.176,117.582,88.68,117.45,90.2,116.789Z" transform="translate(-28.451 -37.78)"/>
      <path id="Tracé_463" data-name="Tracé 463" d="M92.191,130.489c2.843-1.388,5.752-2.843,7.8-5.289-1.388,3.372-4.562,5.62-7.669,7.537a23.307,23.307,0,0,1-4.958,2.512c-.926.331-2.248.4-2.645-.529-.661-1.587.926-2.05,1.917-2.314A32.419,32.419,0,0,0,92.191,130.489Z" transform="translate(-28.656 -42.423)"/>
      <path id="Tracé_464" data-name="Tracé 464" d="M91.077,145.223c3.041-1.058,6.347-2.38,7.867-5.223a11.347,11.347,0,0,1-4.033,6.149,20.348,20.348,0,0,1-6.611,3.438,3.734,3.734,0,0,1-2.38.264,2.008,2.008,0,0,1-1.322-1.983C84.664,145.62,89.358,145.818,91.077,145.223Z" transform="translate(-28.666 -47.438)"/>
      <path id="Tracé_465" data-name="Tracé 465" d="M68.437,108.568a19.752,19.752,0,0,1-5.95-2.843c-.529-.331-1.058-.661-1.587-.926a26.071,26.071,0,0,0,12.561,7.14,4.1,4.1,0,0,0,2.182.132c1.983-.529,2.314-2.711.4-3.306C73.792,108.04,70.883,109.163,68.437,108.568Z" transform="translate(-20.637 -35.51)"/>
      <path id="Tracé_466" data-name="Tracé 466" d="M70.935,119.189c-1.388-.6-2.711-1.256-4.033-1.983-1.454-.793-3.041-1.785-3.7-3.306.6,3.372,3.438,5.884,6.281,7.8a16.418,16.418,0,0,0,3.967,2.116c1.587.6,4.694-.066,3.438-2.314C75.96,119.916,72.456,119.85,70.935,119.189Z" transform="translate(-21.417 -38.594)"/>
      <path id="Tracé_467" data-name="Tracé 467" d="M68.1,132.889c-2.843-1.388-5.752-2.843-7.8-5.289,1.388,3.372,4.562,5.62,7.669,7.537a23.306,23.306,0,0,0,4.958,2.512c.926.331,2.248.4,2.645-.529.661-1.587-.926-2.05-1.917-2.314A32.422,32.422,0,0,1,68.1,132.889Z" transform="translate(-20.434 -43.236)"/>
      <path id="Tracé_468" data-name="Tracé 468" d="M69.767,147.623c-3.041-1.058-6.347-2.38-7.867-5.223a11.347,11.347,0,0,0,4.033,6.149,20.348,20.348,0,0,0,6.611,3.438,3.734,3.734,0,0,0,2.38.264,2.008,2.008,0,0,0,1.322-1.983C76.18,148.02,71.486,148.218,69.767,147.623Z" transform="translate(-20.976 -48.251)"/>
      <path id="Tracé_469" data-name="Tracé 469" class="cls-4" d="M46.446,72.983c.2.264.4.6.727.661a1.237,1.237,0,0,0,.926-.331,17.727,17.727,0,0,1,3.57-2.049A4.769,4.769,0,0,1,55.7,71.4c1.19.661,1.983,2.116,3.372,2.446a4.641,4.641,0,0,0,2.512-.264c2.512-.859,4.76-2.446,7.272-3.24,5.025-1.521,10.512.2,14.942,3.041,1.719,1.124,3.438,2.38,5.487,2.446a2.173,2.173,0,0,0,1.124-.264c1.388-.926.331-3.768,1.851-4.363.992-.4,1.851.727,2.645,1.454a6.059,6.059,0,0,0,10.446-3.835,2.527,2.527,0,0,0-1.322-2.645c-1.19,1.388-1.983,3.372-3.7,4.1-2.116.859-4.033-.859-5.686-2.446-2.182-1.983-5.223-4.231-8.2-4.363a29.83,29.83,0,0,1,.264,7.669c-3.173-2.248-6.016-5.157-9.719-6.413a14.49,14.49,0,0,0-9.586.529,27.873,27.873,0,0,0-8.2,5.355,48.7,48.7,0,0,0,.2-7.6c0,.2-3.768,1.851-4.1,2.049-1.388.793-2.777,1.653-4.1,2.578-.859.6-2.711,2.711-3.768,2.843-1.124.132-2.182-1.454-3.438-1.256A24.573,24.573,0,0,0,46.446,72.983Z" transform="translate(-14.91 -21.345)"/>
      <path id="Tracé_470" data-name="Tracé 470" d="M123.585,191.543l7.537,7.867-.066,9.19,1.785,7.6.6-17.388-8.793-8.793L121.8,188.7l1.058,2.05Z" transform="translate(-41.274 -63.941)"/>
      <path id="Tracé_471" data-name="Tracé 471" d="M147.1,166.6l1.785.4,5.025,15.272-3.636-5.752Z" transform="translate(-49.848 -56.452)"/>
      <path id="Tracé_472" data-name="Tracé 472" d="M147.905,125.882l8,7.14,6.281,3.306L148.5,123.7l-11.9,2.182Z" transform="translate(-46.29 -41.915)"/>
      <path id="Tracé_473" data-name="Tracé 473" d="M141.94,103.981l9.52-4.1,3.041.066,5.62-1.719-9.057-.529L138.7,105.369Z" transform="translate(-47.001 -33.104)"/>
      <path id="Tracé_474" data-name="Tracé 474" d="M47.983,187.293l-8.264,8.661v9.19L38,212.747V195.491L52.28,178.5Z" transform="translate(-12.877 -60.485)"/>
      <path id="Tracé_475" data-name="Tracé 475" d="M32.752,159.8l-6.942,4.5L22.7,174.213,19,179.964l.4-6.81,3.57-11.041Z" transform="translate(-6.439 -54.148)"/>
      <path id="Tracé_476" data-name="Tracé 476" d="M1.2,135.684,5.167,129.8l8.991-8H27.976l-8.132,3.438h-4.43l-8.4,7.537Z" transform="translate(-0.407 -41.271)"/>
      <path id="Tracé_477" data-name="Tracé 477" d="M26.787,105.335l-12.76-5.487-3.041.066L5.3,98.2l8.793-.6,13.024,5.752L28.109,105Z" transform="translate(-1.796 -33.07)"/>
      <path id="Tracé_478" data-name="Tracé 478" d="M159.825,24.7s6.942,15.14,5.355,22.148-10.38,10.38-10.38,10.38S166.105,42.418,159.825,24.7Z" transform="translate(-52.457 -8.366)"/>
      <path id="Tracé_479" data-name="Tracé 479" d="M15.651,60.755S5.8,58.9,5.8,46.805A53.269,53.269,0,0,1,8.841,35.5C8.775,35.5,7.717,51.5,15.651,60.755Z" transform="translate(-1.965 -12.026)"/>
    </g>
  </g>
</svg>
