<?xml version="1.0" encoding="utf-8"?>
<!-- Generator: Adobe Illustrator 22.1.0, SVG Export Plug-In . SVG Version: 6.00 Build 0)  -->
<svg version="1.0" id="Calque_1" xmlns="http://www.w3.org/2000/svg" xmlns:xlink="http://www.w3.org/1999/xlink" x="0px" y="0px"
	 viewBox="0 0 500 500" enable-background="new 0 0 500 500" xml:space="preserve">
<circle fill="#F9F9FA" cx="246.1" cy="238.3" r="211.7"/>
<g>
	<path fill="#010101" d="M309.5,259.1c-2.7,6.3-1.7,14.1,2.8,19.2c2.5,2.9,5.9,4.8,9.4,6.3c3.5,1.5,7.2,2.5,11,2.4
		c8.7-0.4,16.4-8,17.4-16.7C352.6,246.7,318.9,237.3,309.5,259.1z"/>
	<path fill="#241F20" d="M331.9,287.3c-3.1,0-6.5-0.8-10.3-2.4c-4.2-1.8-7.3-3.9-9.5-6.4c-4.5-5.2-5.6-13-2.8-19.5l0,0
		c4.8-11.3,15.9-14,24.7-11.7c9.1,2.4,17.7,10.5,16.3,23c-1,9-8.9,16.6-17.6,17C332.4,287.3,332.2,287.3,331.9,287.3z M309.8,259.2
		c-2.7,6.3-1.6,13.9,2.7,18.9c2.1,2.5,5.2,4.5,9.3,6.3c4.1,1.7,7.6,2.5,10.8,2.4c8.5-0.4,16.1-7.7,17.1-16.4
		c1.3-12.2-7-20.1-15.9-22.4C325.3,245.6,314.5,248.2,309.8,259.2L309.8,259.2z"/>
</g>
<g>
	<path fill="#010101" d="M170.6,252.6c-2.7,6.3-1.7,14.1,2.8,19.2c2.5,2.9,5.9,4.8,9.4,6.3c3.5,1.5,7.2,2.5,11,2.4
		c8.7-0.4,16.4-8,17.4-16.7C213.7,240.3,180,230.8,170.6,252.6z"/>
	<path fill="#241F20" d="M193,280.8c-3.1,0-6.5-0.8-10.3-2.4c-4.2-1.8-7.3-3.9-9.5-6.4c-4.5-5.2-5.6-13-2.8-19.5l0,0
		c4.8-11.3,15.9-14,24.7-11.7c9.1,2.4,17.7,10.5,16.3,23c-1,9-8.9,16.6-17.6,17C193.5,280.8,193.2,280.8,193,280.8z M170.9,252.7
		c-2.7,6.3-1.6,13.9,2.7,18.9c2.1,2.5,5.2,4.5,9.3,6.3c4.1,1.7,7.6,2.5,10.8,2.4c8.5-0.4,16.1-7.7,17.1-16.4
		c1.3-12.2-7-20.1-15.9-22.4C186.3,239.1,175.6,241.8,170.9,252.7L170.9,252.7z"/>
</g>
<path fill="#241F20" d="M158,209.2l-0.2,6l-0.1,6l0,6l0,6c0.1,8,0.4,16,0.9,23.9c0.9,15.9,2.6,31.8,5.1,47.6
	c0.6,3.9,1.4,7.8,2.4,11.6c1.1,3.8,2.3,7.5,4.1,11l0.7,1.3c0.2,0.4,0.5,0.8,0.7,1.3c0.5,0.8,1.1,1.6,1.6,2.4c1.2,1.6,2.4,3,3.8,4.4
	c2.8,2.7,6.1,4.8,9.5,6.8c3.4,1.9,7,3.7,10.6,5.5l5.4,2.7c1.8,0.9,3.6,1.8,5.4,2.6c7.2,3.4,14.5,6.5,22,9.1
	c7.5,2.6,15.2,4.4,23.1,5.3c7.8,0.9,15.8,0.5,23.5-1.2c7.7-1.6,15.2-4.4,22.5-7.6c3.7-1.6,7.3-3.2,10.9-4.9
	c3.6-1.7,7.2-3.3,10.6-5.3c3.4-2,6.6-4.3,9.2-7.2c1.3-1.4,2.5-3,3.6-4.6c1.1-1.6,2-3.4,2.8-5.2c3.3-7.2,5-15,6.7-22.8
	c1.7-7.8,3.1-15.7,4.3-23.6c0.6-4,1.1-7.9,1.6-11.9c0.5-4,0.9-7.9,1.2-11.9c-0.8,16-2.9,31.9-5.9,47.6c-0.8,3.9-1.6,7.8-2.6,11.7
	c-1,3.9-2.2,7.8-3.9,11.5c-0.8,1.9-1.8,3.7-2.9,5.4c-1.1,1.7-2.3,3.4-3.7,4.9c-2.7,3.1-6.1,5.5-9.5,7.6c-3.5,2.1-7.1,3.8-10.7,5.5
	c-3.6,1.7-7.2,3.4-10.9,5c-7.3,3.2-14.9,6.1-22.9,7.8c-7.9,1.8-16.2,2.2-24.2,1.3c-8.1-0.8-16-2.7-23.6-5.3
	c-7.6-2.6-15-5.8-22.3-9.3c-1.8-0.9-3.6-1.7-5.4-2.6l-5.4-2.7c-3.6-1.8-7.2-3.6-10.7-5.6c-3.5-2-6.9-4.3-9.9-7.2
	c-1.5-1.4-2.8-3-4-4.7c-0.6-0.9-1.2-1.7-1.7-2.6c-0.3-0.4-0.5-0.9-0.8-1.3l-0.7-1.4c-0.5-0.9-0.9-1.9-1.3-2.8
	c-0.4-1-0.8-1.9-1.1-2.8l-0.5-1.4c-0.2-0.5-0.3-1-0.5-1.5c-0.3-1-0.6-1.9-0.8-2.9c-1-3.9-1.7-7.9-2.3-11.9
	c-2.3-15.9-3.7-31.8-4.4-47.8c-0.3-8-0.4-16-0.4-24l0.1-6l0.2-6l0.3-6L158,209.2z"/>
<path fill="#241F20" d="M233.2,117.2c-0.1-0.5-0.2-1,0-1.5c0.2-0.5,0.5-0.9,0.9-1.2c0.8-0.6,1.8-1,2.9-1.2c1-0.2,2.1-0.3,3.1-0.1
	c1,0.2,2.1,0.3,3.1,0.5c4.1,0.8,8.1,2,11.9,3.6c3.8,1.6,7.5,3.6,11,5.9c3.4,2.3,6.7,5,9.6,8l-0.8,0.8l-19.4-21.3l-1.8-2l2.6,0.7
	c8.8,2.4,17.4,6,25.4,10.4c4,2.2,7.9,4.7,11.6,7.4c3.7,2.7,7.3,5.6,10.6,8.7l-1.5,1.4l-18.7-25.1l-2.6-3.5l4,1.8
	c6.8,3.2,13.4,6.8,19.7,10.9c6.3,4.1,12.4,8.5,18.1,13.4l-1.9,1.3c-2.9-7.8-7.2-15.1-12.7-21.4l-6.5-7.5l8,5.9
	c13,9.5,24.5,21.1,34,34.1l-1.8,0.8c-0.7-4.4-1.7-8.8-2.9-13.1c-1.2-4.3-2.6-8.6-4.2-12.8l1.6-0.8l17.1,30.8l-1.2,0.3
	c0.1-3.7,0.1-7.4-0.1-11.1c-0.2-3.7-0.6-7.4-1.1-11l0.9-0.2l7.2,27.5l-0.3-0.1c2.9-2.9,6.5-5.1,10.3-6.5c-3.8,1.5-7.3,3.8-10.1,6.8
	l-0.2,0.2l-0.1-0.3l-7.8-27.4l0.9-0.2c0.6,3.7,1,7.4,1.3,11.1c0.3,3.7,0.4,7.4,0.3,11.2l0,2.4l-1.2-2.1l-17.5-30.5l1.6-0.8
	c1.7,4.2,3.2,8.5,4.4,12.9c1.3,4.4,2.2,8.8,3,13.3l0.7,4.3l-2.6-3.5c-9.4-12.8-20.8-24.1-33.7-33.4l1.5-1.7c5.6,6.5,10.1,14,13.2,22
	l1.6,4.3l-3.5-3c-5.7-4.8-11.6-9.2-17.8-13.3c-6.2-4-12.7-7.6-19.4-10.8l1.4-1.7l18.5,25.2l-1.5,1.4c-3.3-3.1-6.8-6-10.4-8.6
	c-3.6-2.7-7.4-5.1-11.3-7.4c-7.8-4.5-16.2-8-24.9-10.6l0.8-1.2l19.1,21.5l-0.8,0.8c-2.8-3-5.9-5.7-9.3-8c-3.4-2.4-7-4.4-10.7-6
	c-3.8-1.7-7.7-2.9-11.7-3.8c-1-0.2-2-0.4-3-0.6c-1-0.2-2-0.1-3,0c-1,0.2-2,0.5-2.8,1.1c-0.4,0.3-0.7,0.7-0.9,1.2
	C233,116.2,233,116.7,233.2,117.2z"/>
<path fill="#241F20" d="M212.1,83.6c1.6-4.3,3.8-8.4,6.5-12.1c2.7-3.7,5.9-7.1,9.5-10c3.6-2.9,7.5-5.4,11.7-7.4
	c4.2-2,8.7-3.4,13.3-4.1l2.5-0.4l-2.1,1.5l-15,10.9l-0.9-1.2c4.1-3.5,9.1-5.7,14.3-6.8c5.2-1.1,10.6-1.1,15.8-0.3
	c5.2,0.8,10.3,2.4,15.2,4.4c4.9,2,9.6,4.3,14.2,6.7l6.7,3.5l-7.4-1.5l-16.2-3.3l0.3-2.1c8.6,0.8,17.2,2.8,25.3,5.8
	c8.1,3,15.9,7.1,22.9,12.2l6.6,4.7l-7.6-2.6c-5.5-1.9-9.8-6.8-11-12.5l-0.5-2.3l2.1,1.1c11.6,5.8,21.5,14.8,28.4,25.7l-1.9,1
	l-5.1-11.5l1.8-1c3.9,6.3,7.4,12.9,10.3,19.7c2.9,6.8,5.2,13.9,7,21.1l-1.6,0.3l-0.6-10.8l-0.2-3.2l1.6,2.8
	c3.4,5.9,6.5,12.1,9.2,18.3c2.7,6.3,5.1,12.7,7.1,19.2l-0.9,0.2l-1-7.3l0.7-0.1c0.5,4.9,0.7,9.9,0.6,14.9c-0.1,5-0.5,9.9-1.2,14.8
	c0.6-4.9,0.8-9.9,0.8-14.8c0-4.9-0.3-9.9-0.9-14.8l0.7-0.1l1.2,7.3l-0.9,0.2c-2.1-6.5-4.7-12.8-7.4-19c-2.8-6.2-5.9-12.2-9.4-18.1
	l1.4-0.4l0.7,10.8l-1.6,0.3c-1.8-7.1-4.2-14-7.1-20.7c-2.9-6.7-6.3-13.2-10.2-19.4l1.8-1l5.2,11.5l-1.9,1
	c-6.8-10.6-16.4-19.2-27.7-24.8l1.6-1.3c1,4.9,4.8,9.1,9.5,10.7l-1.1,2.1c-6.9-4.9-14.4-9-22.3-12c-7.9-3-16.3-5-24.7-5.8l0.3-2.1
	l16.1,3.4l-0.7,2c-4.6-2.4-9.2-4.8-14-6.7c-4.8-2-9.7-3.6-14.7-4.4c-5-0.8-10.2-0.9-15.2,0.1c-5,1-9.8,3-13.7,6.3l-0.9-1.2L252.8,50
	l0.5,1.1c-4.5,0.7-8.9,1.9-13.1,3.8c-4.2,1.8-8.1,4.2-11.7,7c-3.6,2.8-6.8,6.1-9.6,9.8C216.2,75.3,213.8,79.3,212.1,83.6z"/>
<path fill="#241F20" d="M369.1,181.7c-0.4,1.6-0.8,3.1-1.2,4.7c-0.4,1.6-0.7,3.1-1.1,4.7c-0.3,1.6-0.6,3.1-0.9,4.7
	c-0.2,1.6-0.5,3.2-0.7,4.7l-2.2-0.3c0.2-2,0.3-4,0-6c-0.2-2-0.6-3.9-1.3-5.8l2.2-0.4c0,1.9-0.1,3.8-0.2,5.7
	c-0.1,1.9-0.3,3.8-0.5,5.7c-0.2,1.9-0.4,3.8-0.8,5.7c-0.3,1.9-0.7,3.8-1.1,5.6c0-1.9,0-3.8,0.1-5.7l0.1-5.7c0-1.9,0-3.8,0-5.7
	c0-1.9,0-3.8,0-5.7l0-6.5l2.3,6.1c0.8,2,1.3,4.2,1.5,6.4c0.2,2.2,0.2,4.4-0.2,6.5l-2.2-0.3c0.3-1.6,0.6-3.2,1-4.8
	c0.4-1.6,0.8-3.2,1.3-4.7c0.5-1.6,1-3.1,1.7-4.6C367.7,184.6,368.3,183.2,369.1,181.7z"/>
<path fill="#241F20" d="M158.5,121.4c-1.2-0.3-2.5-0.2-3.6,0.2c-1.2,0.4-2.2,1-3.2,1.7c-1.9,1.5-3.4,3.6-4.3,5.8
	c-0.9,2.3-1.4,4.7-1.8,7.1c-0.4,2.4-0.9,4.9-1.7,7.3l-1.2-0.4c0.9-3.3,2.2-6.4,3.8-9.4c1.7-2.9,3.8-5.7,6.1-8.1l1.9-1.9l-0.3,2.6
	c-0.4,3.2-1.6,6.2-3.2,8.9c-1.5,2.7-3.2,5.2-4.7,7.9c-0.7,1.3-1.4,2.6-1.8,4c-0.3,0.7-0.4,1.4-0.6,2.1c-0.1,0.3-0.1,0.7-0.2,1
	c0,0.3-0.1,0.7-0.1,1c-0.1,1.4,0.1,2.8,0.6,4c0.5,1.2,1.3,2.2,2.4,2.7l-1.6,0.8l2.1-9.1l1-4.5l0.1-0.6c0-0.1,0-0.2,0.1-0.3
	c0-0.1,0.1-0.2,0.1-0.4c0.2-0.5,0.4-0.9,0.7-1.3c0.3-0.4,0.6-0.8,1.3-1.2c0.1-0.1,0.3-0.2,0.5-0.2c0.2,0,0.4-0.1,0.7-0.1
	c0.5,0,0.9,0.2,1.2,0.4l0.5,0.3l0,0.6c0,3.1-0.5,6.1-1.2,9c-0.7,2.9-1.7,5.7-2.6,8.5c-0.9,2.8-1.9,5.5-2.5,8.3
	c-0.7,2.8-1.1,5.6-0.9,8.4l-1.9-0.5c2.1-3.2,3.6-6.8,4.2-10.6l1.8,0.2c-0.5,4.7-1,9.3-1.1,14c-0.1,4.7,0.4,9.3,1.8,13.8l-1,0.1
	l0.6-8.5l0.7,0.1c-0.5,3.4-0.3,6.8,0.5,10.2l-0.1-0.1c1.1-0.3,2-1.2,2.3-2.3c-0.2,1.2-1.1,2.2-2.2,2.5l-0.1,0l0-0.1
	c-1-3.3-1.3-6.8-1-10.3l0.7,0.1l-0.2,8.5l-0.1,2.7l-0.9-2.6c-0.8-2.3-1.4-4.6-1.7-7c-0.4-2.4-0.5-4.8-0.6-7.1
	c-0.1-4.8,0.3-9.5,0.8-14.2l1.8,0.2c-0.6,4.1-2.1,8-4.3,11.5l-1.7,2.6l-0.2-3.2c-0.2-3.1,0.2-6.1,0.9-9c0.7-2.9,1.6-5.8,2.5-8.6
	c0.9-2.8,1.8-5.6,2.5-8.4c0.7-2.8,1.1-5.6,1.1-8.4l0.5,0.9c0,0,0,0,0.1,0c0.1,0,0.1,0,0.1,0c-0.1,0-0.3,0.2-0.4,0.4
	c-0.2,0.2-0.3,0.5-0.4,0.8c0,0.1,0,0.1-0.1,0.2c0,0.1,0,0.1-0.1,0.2l-0.1,0.6l-1.1,4.5l-2.1,9.1l-0.3,1.4l-1.3-0.6
	c-1.7-0.8-2.9-2.4-3.5-3.9c-0.7-1.6-0.9-3.3-0.8-5c0-0.4,0.1-0.8,0.2-1.2c0.1-0.4,0.1-0.8,0.2-1.2c0.2-0.8,0.4-1.6,0.7-2.3
	c0.5-1.5,1.3-2.9,2-4.3c1.5-2.7,3.3-5.2,4.8-7.8c1.5-2.6,2.7-5.3,3.1-8.1l1.6,0.8c-2.3,2.2-4.4,4.8-6,7.6c-1.7,2.8-3,5.8-4,8.9
	l-1.2-0.4c0.8-2.3,1.3-4.7,1.9-7.1c0.5-2.4,1.1-4.9,2.2-7.2c1-2.3,2.6-4.4,4.7-5.9c1-0.7,2.2-1.3,3.4-1.6
	C156,121.1,157.3,121.1,158.5,121.4z"/>
<path fill="#241F20" d="M162.3,186.4c-0.7-3.6-1.2-7.3-1.4-11c-0.2-3.7-0.2-7.4,0.1-11.1c0.3-3.7,0.8-7.4,1.6-11
	c0.8-3.6,1.8-7.2,3-10.7l1.9,0.8c-1.7,3.9-2.8,8.1-3.2,12.3l-2.2-0.4c0.5-2.7,1.2-5.4,2-8.1c0.8-2.7,1.8-5.3,2.8-7.9
	c1.1-2.6,2.3-5.1,3.6-7.5c1.3-2.5,2.8-4.8,4.4-7.1l1.9,1.3c-1.2,1.8-3.3,2.8-5.4,2.6l-1.5-0.1l0.5-1.4c1.6-4.1,4.1-7.8,7.2-10.9
	c3.2-3,7-5.4,11.1-6.7l7.1-2.3l-6.4,3.8l-2,1.2l-0.8-1.4c2.2-1,4.4-1.9,6.7-2.5c2.3-0.7,4.7-1.2,7-1.5c2.4-0.3,4.8-0.5,7.1-0.4
	c0.6,0,1.2,0,1.8,0.1c0.6,0,1.2,0.1,1.8,0.2c0.6,0.1,1.2,0.3,1.7,0.7c0.5,0.3,0.9,0.9,0.9,1.5c0-0.6-0.4-1.1-0.9-1.4
	c-0.5-0.3-1.1-0.4-1.6-0.5c-0.6-0.1-1.2-0.1-1.8-0.1c-0.6,0-1.2,0-1.8,0c-2.4,0.1-4.7,0.4-7,0.8c-4.6,0.9-9.1,2.4-13.2,4.5l-0.8-1.4
	l2-1.3l0.7,1.5c-3.9,1.4-7.4,3.7-10.2,6.6c-2.9,2.9-5.2,6.4-6.5,10.2l-1-1.5c1.3,0.1,2.7-0.6,3.4-1.6l1.9,1.3
	c-1.5,2.3-2.9,4.6-4.2,7c-1.3,2.4-2.4,4.8-3.5,7.3c-1.1,2.5-2,5.1-2.8,7.6c-0.8,2.6-1.5,5.2-2,7.9l-2.2-0.4
	c0.6-4.4,1.8-8.8,3.6-12.8l1.9,0.8c-1.3,3.4-2.4,6.9-3.2,10.4c-0.8,3.5-1.5,7.1-1.9,10.8c-0.4,3.6-0.7,7.3-0.7,11
	C161.7,179.1,161.9,182.8,162.3,186.4z"/>
<path fill="#241F20" d="M200,83.5c0.1-0.4,0-0.9-0.3-1.2c-0.2-0.3-0.6-0.5-1-0.7c-0.8-0.3-1.6-0.4-2.4-0.4c-0.4,0-0.8,0.1-1.2,0.1
	l-1.3,0.2c-0.8,0.1-1.7,0.3-2.5,0.4c-1.7,0.3-3.3,0.6-5,1c-1.6,0.4-3.3,0.8-4.9,1.3l-0.5-1.6c2.6-1.1,5.2-2.3,7.8-3.4l0.6,1.9
	c-2.1,0.6-4.2,1.2-6.3,2c-2.1,0.8-4.1,1.6-6.1,2.5c-1,0.4-2,0.9-3,1.4c-1,0.5-2,1-2.8,1.5c-0.9,0.5-1.6,1.2-2.2,1.9
	c-0.5,0.7-0.7,1.4-0.5,2.1l-1.5-0.7c1.7-0.6,3.4-1.3,5.1-1.9l5.1-1.9l9.3-3.4L178,90c-2.1,1.3-4.2,2.6-6.2,3.8
	c-2.1,1.3-4.2,2.5-6.3,3.8l-3.1,1.9c-1,0.6-2,1.3-2.9,2.1c-0.9,0.8-1.7,1.7-2.2,2.7c-0.2,0.5-0.4,1.1-0.4,1.7c0,0.6,0.2,1.2,0.4,1.7
	c-0.3-0.5-0.6-1.1-0.7-1.7c0-0.6,0.1-1.3,0.3-1.9c0.5-1.2,1.2-2.2,2.1-3.1c0.9-0.9,1.8-1.7,2.9-2.4l3-2.1c2-1.4,4-2.8,6-4.1
	c2-1.4,4-2.8,6.1-4.1l0.9,1.8l-5,2c-1.7,0.7-3.3,1.3-5,2l-1.1,0.4l-0.4-1.2c-0.2-0.7-0.3-1.5-0.1-2.3c0.2-0.7,0.5-1.4,0.9-1.9
	c0.8-1.1,1.8-1.9,2.8-2.5c0.5-0.3,1.1-0.6,1.5-0.9c0.5-0.3,1-0.5,1.5-0.8c1-0.5,2-1,3.1-1.4c2.1-0.9,4.2-1.7,6.3-2.5
	c2.2-0.7,4.3-1.3,6.5-1.8l0.6,1.9c-2.6,1-5.3,2-7.9,3.1l-0.5-1.6c1.7-0.4,3.4-0.8,5-1c1.7-0.3,3.4-0.5,5.1-0.7
	c1.7-0.2,3.4-0.3,5.2-0.3c0.9,0.1,1.8,0.3,2.5,0.7c0.4,0.2,0.7,0.5,1,0.9C200.1,82.6,200.1,83.1,200,83.5z"/>
<path fill="#241F20" d="M245.9,197.9c0.2,0.1,0.4,0.1,0.5-0.1c0.1-0.1,0.2-0.3,0.1-0.5c0-0.1-0.1-0.2-0.3-0.2c-0.1,0-0.3,0-0.4,0.1
	c-0.1,0.1-0.2,0.2-0.3,0.3c0,0.1,0,0.1-0.1,0.2c0,0.1,0,0.1,0,0.2c0,0.3,0.1,0.6,0.3,1l0.9,2.3c0.3,0.8,0.6,1.6,0.8,2.4
	c1.1,3.2,1.8,6.5,2.3,9.8c0.5,3.3,0.8,6.7,0.7,10c0,3.4-0.3,6.7-1.1,10c-0.3-3.3-0.5-6.6-0.8-9.9c-0.3-3.3-0.7-6.5-1.2-9.8
	c-0.5-3.2-1.1-6.4-1.8-9.7c-0.4-1.6-0.7-3.2-1.1-4.8c-0.1-0.4-0.2-0.9-0.1-1.4c0-0.1,0.1-0.3,0.1-0.4c0.1-0.1,0.1-0.3,0.2-0.4
	c0.2-0.2,0.4-0.4,0.7-0.5c0.3-0.1,0.6-0.1,0.8,0c0.1,0.1,0.2,0.1,0.3,0.3c0.1,0.1,0.1,0.3,0.1,0.4c0,0.3-0.2,0.5-0.4,0.6
	c-0.1,0.1-0.2,0.1-0.3,0.1C246.1,198.1,246,198,245.9,197.9z"/>
<path fill="#241F20" d="M230.9,255c-2.5,0.2-4.5,1.7-5.6,3.6c-0.5,0.9-0.9,1.9-0.9,2.9c0,1,0.2,2,0.7,2.9c0.5,0.9,1.2,1.7,2.1,2.3
	c0.9,0.6,1.9,1,2.9,1.1c0.3,0,0.5,0,0.8,0c0.3,0,0.6,0,0.9,0c0.6,0,1.3-0.1,1.9-0.1c0.6,0,1.3,0.1,2,0.4c0.3,0.1,0.6,0.4,0.8,0.6
	c0.2,0.3,0.3,0.6,0.3,0.9c-0.3-0.6-0.8-0.9-1.3-0.9c-0.5-0.1-1.1,0-1.7,0.2c-0.6,0.1-1.2,0.3-1.7,0.4c-0.3,0.1-0.6,0.2-0.9,0.2
	c-0.3,0.1-0.7,0.1-1.1,0.1c-1.4,0.1-2.8-0.4-4-1.1c-1.2-0.7-2.2-1.8-2.9-3c-0.7-1.2-1.1-2.7-0.9-4.2c0.1-1.5,0.8-2.8,1.7-3.9
	c0.9-1.1,2-1.9,3.3-2.3C228.3,254.7,229.7,254.6,230.9,255z"/>
<path fill="#241F20" d="M274.4,269.1c2.3,1.1,4.7,1.4,6.9,1c2.2-0.3,4.3-1.3,5.8-2.9c1.5-1.6,2.4-3.7,2.6-5.9
	c0.3-2.3-0.1-4.7-1.3-6.9c1,0.8,1.8,1.9,2.3,3.1c0.5,1.2,0.8,2.5,0.9,3.9c0.1,2.7-0.8,5.5-2.8,7.5c-2,2-4.7,3.1-7.4,3.1
	c-1.3,0-2.7-0.2-3.9-0.7C276.4,270.8,275.2,270.1,274.4,269.1z"/>
<path fill="#241F20" d="M240.9,262.5c0.2-0.6,0.7-1.2,1.3-1.7c0.6-0.4,1.3-0.7,2-0.9c1.4-0.3,3-0.2,4.4,0.3c1.4,0.6,2.6,1.5,3.6,2.5
	c1,1,1.8,2.1,2.6,3.2c0.8,1.1,1.5,2.1,2.4,2.9c0.4,0.4,0.9,0.7,1.4,0.9c0.5,0.2,1,0.3,1.6,0.4c1.1,0.1,2.3-0.2,3.5-0.8
	c1.2-0.5,2.3-1.3,3.4-2.1c-0.7,1.2-1.6,2.2-2.8,3.1c-1.1,0.8-2.5,1.5-4.1,1.6c-0.8,0.1-1.6,0-2.4-0.3c-0.8-0.3-1.5-0.7-2.1-1.1
	c-1.2-1-2.1-2.1-2.9-3.2c-1.6-2.1-3.1-4.3-5.1-5.5c-1-0.6-2.2-0.9-3.4-0.9C243.1,261.1,241.9,261.5,240.9,262.5z"/>
<path fill="#241F20" d="M284.5,199.9c0.7-1.5,1.6-3,2.7-4.3c1.1-1.3,2.3-2.6,3.6-3.6c2.6-2.2,5.7-3.9,9.1-4.8l1.2-0.3l-0.6,1.2
	c-1,2.2-2.5,4.1-4.3,5.7c-1.8,1.6-3.8,2.9-6.1,3.8l-4.2,1.6l3.4-3c2.8-2.5,6.1-4.4,9.6-5.7c3.5-1.3,7.3-1.9,11.1-1.9l2,0l-1.1,1.6
	c-0.9,1.3-2.2,2.4-3.6,3.1c-1.4,0.7-3.1,1-4.7,0.9l-6.7-0.6l6.5-1.6c4.1-1,8.4-1.6,12.6-1.7c4.2-0.1,8.5,0.3,12.7,1.1l3.1,0.6
	l-2.8,1.5c-2.7,1.5-5.7,2.7-8.7,3.5c-3,0.8-6.2,1.1-9.3,1.1l0.1-2.2c2.9,0.3,5.9,0.4,8.9,0.2c3-0.2,5.9-0.6,8.8-1.2l3.5-0.8
	l-2.6,2.3c-1.7,1.5-4.1,2.1-6.3,1.7l-2.8-0.6l2.6-1c3.3-1.3,7-1.4,10.4-0.6c3.4,0.8,6.6,2.5,9,5l1.4,1.5l-1.9-0.9
	c-2-0.9-3.8-2-5.6-3.2c-1.8-1.2-3.4-2.6-5-4c1.7,1.4,3.4,2.6,5.2,3.7c1.8,1.1,3.7,2.1,5.7,2.9l-0.4,0.6c-2.4-2.3-5.5-3.7-8.7-4.3
	c-3.2-0.6-6.6-0.3-9.6,0.9l-0.1-1.6c1.7,0.3,3.6-0.2,4.8-1.4l0.8,1.5c-3,0.7-6,1.2-9.1,1.5c-3.1,0.2-6.2,0.2-9.2,0l0.1-2.2
	c2.9,0,5.9-0.4,8.7-1.1c2.8-0.7,5.6-1.8,8.1-3.3l0.3,2.2c-4-0.8-8.1-1.1-12.2-1.1c-4.1,0.1-8.1,0.6-12.1,1.5l-0.2-2.2
	c1.2,0.1,2.4-0.1,3.5-0.6c1.1-0.5,2.1-1.3,2.8-2.3l0.9,1.7c-3.5-0.1-7,0.4-10.4,1.5c-3.3,1.1-6.5,2.9-9.2,5.1l-0.8-1.4
	c2.1-0.7,4-1.8,5.7-3.3c1.7-1.4,3.1-3.2,4.2-5.2l0.7,0.8c-3.2,0.7-6.3,2.2-9,4.2c-1.3,1-2.6,2.1-3.7,3.4
	C286.4,197.1,285.4,198.5,284.5,199.9z"/>
<path fill="#241F20" d="M230,191.1l-5.9-3.7l-5.8-3.8l0.4-0.7c3.4,1.6,6.6,3.7,9.2,6.3l1.3,1.3l-1.9-0.2c-1.5-0.2-3-0.7-4.4-1.3
	c-1.4-0.6-2.7-1.4-4-2.1c-2.5-1.5-4.9-3.3-7.5-4.5l1.1-1.4c1.3,1.5,2.8,2.7,4.5,3.8c1.7,1.1,3.5,2,5.3,2.9l5.4,2.5l-5.9-0.6
	c-1.8-0.2-3.5-0.7-5.1-1.3c-1.6-0.6-3.2-1.4-4.7-2.2c-3-1.6-5.8-3.5-8.7-4.9l1.1-2c4.3,2.9,8.3,6,12.6,8.7l-1.1,2.1
	c-3.2-1.2-6.1-2.9-9-4.4c-2.9-1.5-5.8-2.9-8.9-3.6l1.3-1.6c0.8,1.6,2.4,2.8,4.2,3.6c1.8,0.9,3.8,1.4,5.9,2.1l5.6,1.7l-5.8,0.3
	c-3.6,0.2-7.1-0.1-10.6-0.3c-3.5-0.3-6.9-0.6-10.3-0.6l0-1.6l8.3,0.1l0,1.3c-5.4-0.1-10.8-0.6-16.1-0.2l0.2-0.5
	c0.1,0.1,0.1,0.2,0.2,0.2c0,0,0,0,0.2,0.1c0.1,0,0.3,0.1,0.4,0.2c0.1,0.1,0.2,0.2,0.3,0.2l0.3,0.3l-0.3,0.2c-1.3,0.8-2.7,1.6-4,2.4
	c-0.7,0.4-1.4,0.8-2,1.2c-0.3,0.2-0.7,0.4-1.1,0.5c-0.1,0-0.2,0.1-0.3,0.1c0,0-0.1,0-0.1,0c0,0,0-0.1,0-0.1c0,0,0.1-0.1,0.1-0.1
	c0.1-0.1,0.3-0.3,0.4-0.4c-0.1,0.1-0.3,0.3-0.4,0.4c0,0.1-0.2,0.2,0,0.2c0.1,0,0.2-0.1,0.3-0.1c0.3-0.2,0.7-0.4,1-0.6
	c0.7-0.4,1.3-0.8,2-1.3l1.9-1.3c0.7-0.4,1.3-0.9,2-1.3l0,0.4c-0.1-0.1-0.2-0.1-0.3-0.2c-0.1,0-0.2-0.1-0.3-0.1
	c-0.1,0-0.4-0.1-0.5-0.2c-0.1-0.1-0.2-0.3-0.3-0.4l-0.2-0.4l0.5-0.1c2.7-0.3,5.4-0.4,8.1-0.5l8.1-0.1l0,1.3l-8.3,0.1l0-1.6
	c3.5-0.1,7,0.1,10.5,0.3c3.5,0.2,6.9,0.4,10.3,0.1l-0.2,2c-2-0.6-4.2-1.1-6.2-2.1c-1-0.5-2-1-3-1.8c-0.9-0.7-1.8-1.7-2.4-2.8
	l-1.2-2.2l2.4,0.5c3.4,0.7,6.5,2.2,9.5,3.7c3,1.5,5.8,3.1,8.8,4.3l-1.1,2.1c-4.4-2.8-8.4-5.9-12.6-8.7l1.1-2
	c3.1,1.5,5.9,3.4,8.8,5.1c1.4,0.8,2.9,1.6,4.4,2.2c1.5,0.6,3,1.1,4.6,1.2l-0.5,2c-1.9-0.9-3.8-1.9-5.5-3.1c-1.8-1.2-3.4-2.6-4.8-4.3
	l-2.6-3.2l3.7,1.8c1.4,0.7,2.7,1.5,3.9,2.3l3.6,2.5c1.2,0.8,2.4,1.6,3.7,2.2c1.3,0.6,2.6,1.1,4,1.3l-0.5,1.1
	c-2.5-2.6-5.5-4.8-8.7-6.5l0.4-0.7l5.6,4.1L230,191.1z"/>
<path fill="#241F20" d="M290.2,221c-1.2-0.7-2.6-0.7-3.8-0.2l-0.1,0.1l-0.2-0.1c-0.3-0.2-0.6-0.5-0.7-0.8c-0.1-0.3-0.1-0.7,0-1
	c0.2-0.7,0.7-1.2,1.1-1.6c0.5-0.3,1-0.6,1.4-0.8l1.4-0.7c1.9-0.9,3.8-1.8,5.8-2.6c1-0.4,2-0.8,3-1.1c1-0.4,2-0.7,3.1-1
	c1.1-0.3,2.2-0.4,3.4-0.5c1.2,0,2.3,0.2,3.4,0.4c2.2,0.5,4.2,1.3,6.1,2.2l2.9,1.2l2.9,1.3c3.8,1.7,7.7,3.5,11.4,5.5
	c-4.1-1.1-8.1-2.4-12-3.8l-3-1l-3-1.1c-2-0.7-3.9-1.5-5.8-1.9c-1-0.2-1.9-0.3-2.9-0.3c-0.9,0-1.9,0.1-2.9,0.3
	c-1.9,0.5-3.9,1.1-5.9,1.8c-2,0.7-3.9,1.4-5.9,2.1l-1.5,0.6c-0.5,0.2-1,0.4-1.4,0.6c-0.4,0.2-0.7,0.5-0.8,0.8
	c-0.1,0.3-0.1,0.8,0.1,0.9l-0.3,0C287.7,219.7,289.2,220.1,290.2,221z"/>
<path fill="#241F20" d="M229.2,217.1c1.1,0.2,2.3,0.3,3.4,0.2c0.3,0,0.5-0.1,0.8-0.2c0.2-0.1,0.4-0.2,0.5-0.3c0-0.1,0-0.2,0-0.3
	c-0.1-0.1-0.3-0.3-0.5-0.4c-1.8-1.4-3.6-2.8-5.5-4c-3.7-2.5-7.8-4.2-12.2-3.9c-2.2,0-4.3,0.5-6.5,1.1c-2.2,0.6-4.3,1.4-6.4,2.2
	c-2.1,0.8-4.3,1.6-6.5,2.3c-2.2,0.7-4.5,1.2-6.8,1.3c4.4-1.3,8.4-3.4,12.6-5.3c2.1-1,4.2-1.9,6.5-2.6c2.3-0.7,4.6-1.2,7-1.3
	c2.4-0.1,4.9,0.3,7.2,1.2c2.3,0.9,4.3,2.2,6.2,3.6c1.9,1.4,3.5,3,5.2,4.6c0.2,0.2,0.5,0.5,0.6,0.9c0.2,0.4,0.1,1-0.2,1.3
	c-0.3,0.4-0.7,0.5-1,0.5c-0.3,0.1-0.7,0.1-0.9,0C231.4,217.9,230.3,217.6,229.2,217.1z"/>
<path fill="#241F20" d="M289.2,211.3c3.3-1,6.7-1.8,10.1-2.5c1.7-0.4,3.4-0.7,5.1-1c1.7-0.3,3.6-0.5,5.4-0.3
	c1.9,0.2,3.6,0.7,5.3,1.4c1.7,0.7,3.2,1.4,4.8,2.2c3.1,1.5,6.2,3.2,9.2,5c-3.4-0.9-6.7-2.1-9.9-3.3c-3.3-1.2-6.4-2.6-9.6-2.9
	c-1.6-0.2-3.2,0-4.9,0.1c-1.7,0.2-3.4,0.4-5.1,0.6C296.1,211,292.7,211.3,289.2,211.3z"/>
<path fill="#241F20" d="M232.8,210c-1.6-1.1-3.1-2.3-4.8-3.2c-1.6-1-3.3-1.7-5.1-2.1c-1.8-0.3-3.6-0.3-5.5-0.3c-1.9,0-3.8,0-5.8-0.1
	c-1.9,0-3.9-0.1-5.8-0.2c-1.9-0.1-3.7,0-5.4,0.4c-1.7,0.4-3.3,1.3-5,2.3c-1.7,0.9-3.4,2-5.3,2.4c1.7-0.9,3.1-2.2,4.6-3.4
	c1.5-1.2,3.1-2.4,5.1-3.1c2-0.7,4-0.8,6-0.8c2,0,3.9,0,5.8,0.1c1.9,0,3.8,0.1,5.8,0.2c1.9,0.1,3.9,0.2,5.9,0.8
	c2,0.6,3.8,1.7,5.3,2.9C230.2,207.1,231.6,208.5,232.8,210z"/>
<path fill="#241F20" d="M298.1,214.1c-0.9,1-1.2,2.3-1,3.5c0.2,1.2,0.8,2.1,1.7,2.9c1.7,1.5,4.2,1.9,6.7,2c2.5,0,5-0.1,7.2-1.2
	c1-0.5,2-1.3,2.7-2.3c0.7-1,1.1-2.2,1.1-3.6c0.6,1.2,0.5,2.8,0,4.1c-0.5,1.3-1.5,2.5-2.7,3.4c-1.2,0.8-2.6,1.3-4,1.6
	c-1.4,0.3-2.8,0.4-4.2,0.3c-1.4,0-2.8-0.2-4.2-0.7c-1.4-0.5-2.7-1.3-3.7-2.4c-0.5-0.6-0.9-1.2-1.2-1.9c-0.3-0.7-0.4-1.5-0.3-2.2
	c0.1-0.7,0.3-1.5,0.6-2.1c0.2-0.3,0.4-0.6,0.7-0.8C297.5,214.4,297.8,214.2,298.1,214.1z"/>
<path fill="#241F20" d="M205.7,209.1c0.1,1.3,0.3,2.7,0.5,3.9c0.1,0.6,0.3,1.2,0.5,1.7c0.3,0.5,0.6,0.8,1.1,1
	c0.5,0.3,1.1,0.5,1.7,0.8c0.6,0.3,1.2,0.5,1.8,0.8c1.2,0.5,2.3,0.9,3.5,1c1.1,0.2,2.2,0.1,3.3-0.3c1-0.4,2.1-1.2,3.1-1.9
	c1-0.7,1.8-1.5,2.1-2.6c0.3-1.1,0.2-2.5,0.2-3.8c0.5,1.2,1,2.5,0.9,4c0,0.7-0.3,1.5-0.7,2.2c-0.4,0.7-0.9,1.2-1.4,1.7
	c-0.5,0.5-1,0.9-1.5,1.4c-0.5,0.4-1.2,0.9-1.9,1.2c-1.4,0.7-3.1,0.8-4.5,0.6c-0.7-0.1-1.4-0.3-2.1-0.5c-0.7-0.2-1.3-0.5-1.9-0.8
	c-0.6-0.3-1.2-0.6-1.8-1c-0.6-0.3-1.2-0.7-1.8-1.2c-0.6-0.5-1.2-1.2-1.4-2c-0.2-0.8-0.3-1.5-0.2-2.2
	C205.1,211.7,205.3,210.4,205.7,209.1z"/>
<path fill="#241F20" d="M206.5,290.6c1.8,1.2,3.8,1.9,5.8,2.4c2,0.5,4.2,0.6,6.2,0.4c2.1-0.1,4.2-0.4,6.2-0.8c2-0.4,4.1-1,6.1-1.6
	c4.1-1.2,8.2-2.5,12.6-3c2.2-0.3,4.4-0.3,6.6-0.1c2.2,0.2,4.3,0.7,6.3,0.9c2,0.3,4,0.2,6.2,0c2.1-0.1,4.4-0.2,6.6,0
	c2.2,0.2,4.3,0.7,6.4,1.4c2.1,0.6,4.1,1.3,6.1,2.1c8,3.1,15.7,6.7,23.9,9c-8.5-1.3-16.5-4.5-24.5-7.2c-4-1.3-8-2.6-12.1-3
	c-1-0.1-2-0.1-3.1-0.1c-1,0-2.1,0.1-3.1,0.2c-2.1,0.1-4.4,0.3-6.6,0c-2.2-0.3-4.3-0.7-6.3-0.9c-2-0.2-4.1-0.2-6.1,0
	c-4.1,0.4-8.2,1.6-12.3,2.6c-2.1,0.5-4.2,1-6.3,1.3c-2.1,0.3-4.3,0.5-6.5,0.5c-2.2-0.1-4.3-0.3-6.4-1
	C210.1,292.9,208.1,291.9,206.5,290.6z"/>
<path fill="#241F20" d="M210.5,295c3.1,1.4,6.5,1.6,9.8,1.3c3.3-0.2,6.6-0.9,10-1.4c1.7-0.2,3.4-0.4,5.1-0.5c1.7-0.1,3.4,0,5.1,0.1
	c3.4,0.2,6.8,0.5,10.1,0.7c3.3,0.2,6.7,0.3,10,0.3c3.4,0.1,6.7,0,10.1,0.2c3.4,0.1,6.8,0.4,10.1,1.1c3.3,0.6,6.6,1.6,9.7,3.1
	c-6.5-2-13.2-2.3-19.9-2.3c-3.3,0.1-6.7,0.1-10.1,0.2c-3.4,0.1-6.8,0-10.2-0.2c-6.8-0.5-13.4-1.6-20-0.9c-3.3,0.3-6.7,0.7-10.1,0.7
	c-1.7,0-3.4-0.2-5.1-0.6C213.6,296.5,212,295.9,210.5,295z"/>
<path fill="#241F20" d="M221.5,300.6c5.1,3,10.2,6.2,15.6,8.2c2.7,1,5.5,1.7,8.4,2c2.9,0.4,5.8,0.5,8.7,0.5c2.9,0,5.8-0.2,8.8-0.5
	c2.9-0.3,5.8-0.7,8.7-1.2c5.8-1,11.5-2.5,17.2-4.3c-5.3,2.7-11,4.7-16.8,6.1c-2.9,0.7-5.9,1.2-8.8,1.6c-3,0.4-6,0.6-9,0.6
	c-3,0-6-0.1-9-0.6c-3-0.5-6-1.3-8.8-2.5C230.8,308.1,226.1,304.4,221.5,300.6z"/>
<path fill="#241F20" d="M240.4,323.3c2.2-1,4.5-1.5,6.8-1.8c2.4-0.3,4.8-0.2,7.1,0.2c2.3,0.4,4.6,1.1,6.8,2c2.2,0.9,4.2,2,6.2,3.2
	c-2.3-0.4-4.6-0.9-6.8-1.5c-2.2-0.5-4.4-1.1-6.6-1.5c-2.2-0.4-4.4-0.6-6.6-0.7C245,323.2,242.7,323.3,240.4,323.3z"/>
<path fill="#241F20" d="M356.3,229.2c-0.6-0.3-1-0.8-1.1-1.5c-0.2-0.6-0.1-1.3,0-1.9c0.1-0.6,0.3-1.2,0.6-1.8
	c0.3-0.6,0.6-1.1,0.9-1.7c1.2-2.2,2.6-4.3,4.3-6.2c1.7-1.9,3.7-3.6,6-4.8c1.1-0.6,2.4-1.1,3.7-1.4c1.3-0.3,2.6-0.4,4-0.3
	c2.7,0.1,5.3,1,7.5,2.7c1.1,0.8,2,1.9,2.7,3.2c0.7,1.2,1,2.6,1.2,3.9c0.2,1.3,0.2,2.7,0.1,4c-0.1,1.3-0.2,2.5-0.3,3.8
	c-0.3,2.5-0.6,5-1.1,7.5c-0.9,5-2.2,9.9-3.9,14.6c-1.7,4.8-3.7,9.4-6,13.9c-1.2,2.2-2.4,4.4-3.8,6.5c-1.4,2.1-3.1,4.1-5.1,5.7
	c-2,1.6-4.5,2.7-7,3c-1.3,0.2-2.6,0.1-3.8-0.1c-1.2-0.3-2.4-0.8-3.5-1.5c2.2,1.3,4.8,1.5,7.2,1c2.4-0.5,4.6-1.7,6.4-3.3
	c1.8-1.6,3.3-3.6,4.6-5.7c1.3-2.1,2.4-4.3,3.5-6.5l0.8-1.7l0.8-1.7c0.5-1.1,1-2.3,1.5-3.4c0.9-2.3,1.8-4.6,2.5-7
	c1.5-4.7,2.8-9.5,3.7-14.4c0.5-2.4,0.8-4.9,1.1-7.3c0.3-2.5,0.6-4.9,0.3-7.2c-0.2-2.3-1.2-4.3-3-5.8c-0.9-0.7-1.9-1.3-2.9-1.7
	c-1.1-0.4-2.2-0.7-3.4-0.8c-4.7-0.5-9.3,2-12.7,5.5c-1.7,1.7-3.2,3.7-4.6,5.8c-0.3,0.5-0.7,1-1,1.6c-0.3,0.5-0.5,1.1-0.7,1.7
	c-0.2,0.6-0.3,1.2-0.2,1.8C355.4,228.3,355.8,228.9,356.3,229.2z"/>
<path fill="#241F20" d="M157.9,216.3c-1.2-4.7-3.3-9-6.2-12.8c-1.4-1.9-3.1-3.6-4.8-5.1c-0.4-0.4-0.9-0.7-1.4-1.1
	c-0.5-0.4-0.9-0.7-1.4-0.9c-0.9-0.4-1.8-0.4-2.8,0c-0.9,0.4-1.8,1-2.5,1.9c-0.7,0.8-1.3,1.8-1.8,2.8c-0.9,2-1.3,4.3-1.3,6.6
	c-0.2,4.6,0.8,9.3,1.4,14.2c0.5,4.8,0.8,9.7,0.9,14.5c0.1,4.9-0.2,9.6,0.3,14.3c0.3,2.3,0.8,4.6,1.7,6.7c0.9,2.1,2.2,4.1,4,5.6
	c3.5,3,8.4,4.5,13.2,3.6c-4.6,1.4-10,0.3-13.9-2.7c-2-1.5-3.5-3.6-4.6-5.8c-1.1-2.3-1.7-4.7-2.1-7.1c-0.7-4.9-0.5-9.8-0.7-14.5
	c-0.1-4.8-0.5-9.5-1-14.3c-0.5-4.7-1.5-9.5-1.2-14.5c0.1-2.5,0.6-5,1.7-7.4c0.3-0.6,0.6-1.2,1-1.7c0.3-0.6,0.8-1,1.2-1.5
	c0.9-1,2-1.8,3.3-2.3c0.7-0.2,1.4-0.4,2.1-0.3c0.7,0,1.5,0.3,2.1,0.6c0.6,0.4,1.1,0.8,1.6,1.2c0.5,0.4,0.9,0.8,1.4,1.2
	c1.8,1.7,3.4,3.6,4.7,5.6C155.3,206.9,157.2,211.6,157.9,216.3z"/>
<path fill="#241F20" d="M168.2,325.6c1.9,7.8,3.4,15.7,4.5,23.6c0.3,2,0.5,4,0.7,6l0.6,6l0.5,6l0.3,6l0.2,6l0.1,6l-0.1,6
	c-0.1,2-0.1,4-0.2,6c-0.4,8-1.1,16-2.4,23.9c0.3-8,0.5-16,0.5-23.9c0-2,0-4,0-6l-0.1-6l-0.1-6l-0.2-6l-0.3-6l-0.4-6l-0.4-6
	c-0.2-2-0.4-4-0.5-6C170.1,341.4,169.1,333.5,168.2,325.6z"/>
<path fill="#241F20" d="M331.6,343.3c-1.7,6.7-3.3,13.4-4.5,20.1c-0.3,1.7-0.6,3.4-0.9,5.1l-0.8,5.1c-0.2,1.7-0.5,3.4-0.7,5.1
	l-0.6,5.1l-0.5,5.1l-0.4,5.1l-0.3,5.1c0,1.7-0.1,3.4-0.2,5.1c-0.2,6.9-0.1,13.7,0.2,20.6c-1.2-6.8-1.9-13.7-2-20.6
	c0-1.7,0-3.5,0-5.2l0.1-5.2l0.3-5.2l0.5-5.2l0.7-5.2c0.3-1.7,0.5-3.4,0.8-5.1l1-5.1c0.4-1.7,0.8-3.4,1.1-5.1
	C326.9,356.3,329,349.7,331.6,343.3z"/>
</svg>
