<?xml version="1.0" encoding="utf-8"?>
<!-- Generator: Adobe Illustrator 22.1.0, SVG Export Plug-In . SVG Version: 6.00 Build 0)  -->
<svg version="1.0" id="Calque_1" xmlns="http://www.w3.org/2000/svg" xmlns:xlink="http://www.w3.org/1999/xlink" x="0px" y="0px"
	 viewBox="0 0 500 500" enable-background="new 0 0 500 500" xml:space="preserve">
<circle fill="#F9F9FA" cx="246.1" cy="238.3" r="211.7"/>
<path fill="#241F20" d="M144.7,176.6c0.2,4,0.2,8.1,0.2,12.2c0,4.1-0.2,8.1-0.4,12.2c-0.5,8.1-1.3,16.2-2.6,24.2c-1.3,8-3,16-4,23.9
	c-0.9,8-1.4,16-0.8,24c0.6,8,1.8,15.9,3.8,23.6l1.6,5.8c0.6,1.9,1.3,3.8,1.9,5.7c0.6,1.9,1.4,3.7,2.2,5.6l1.1,2.8
	c0.4,0.9,0.8,1.8,1.3,2.7l1.3,2.7c0.4,0.9,0.8,1.8,1.3,2.7l2.9,5.3c2.1,3.4,4.1,6.8,6.5,10l1.7,2.4c0.6,0.8,1.2,1.6,1.9,2.3l1.9,2.3
	l0.9,1.2c0.3,0.4,0.7,0.7,1,1.1l4,4.4l4.3,4.1c5.8,5.5,12.2,10.3,19.1,14.1c6.9,3.8,14.4,6.6,22.2,7.6c7.7,1.1,15.7,0.3,23.4-1.6
	c7.7-1.9,15.2-4.9,22.5-8.2c7.3-3.3,14.6-6.8,21.4-11.1c6.8-4.2,13.1-9.3,18.1-15.4c5.1-6.1,9.1-13.2,12.4-20.6
	c1.6-3.7,3.1-7.4,4.5-11.2c1.4-3.8,2.8-7.6,4.1-11.4c-1.1,3.9-2.3,7.8-3.5,11.6c-1.3,3.9-2.6,7.7-4.1,11.5
	c-3,7.5-6.8,14.9-11.8,21.4c-5.1,6.5-11.4,11.9-18.2,16.4c-6.8,4.5-14.1,8.2-21.5,11.7c-7.4,3.5-15,6.6-23,8.7
	c-8,2.1-16.4,3-24.8,1.9c-8.3-1.1-16.3-4-23.5-8c-7.3-4-13.9-9-19.9-14.6c-24-22.6-38.5-54.7-40-87.5c-0.4-8.2,0.2-16.4,1.4-24.5
	c1.3-8.1,3.2-15.9,4.7-23.9c1.5-7.9,2.7-15.9,3.4-24c0.4-4,0.7-8.1,0.9-12.1C144.6,184.7,144.7,180.6,144.7,176.6z"/>
<path fill="#241F20" d="M250.9,234.1c-1.4,0-2.7,0.3-3.8,0.8c-0.6,0.3-1.1,0.6-1.6,0.9c-0.3,0.2-0.6,0.4-1,0.6
	c-0.4,0.2-1,0.3-1.6,0.1c-0.6-0.2-1-0.6-1.3-1.1c-0.3-0.4-0.4-0.9-0.5-1.4c-0.1-0.5,0-1,0.2-1.6c0.2-0.5,0.5-0.9,0.8-1.2
	c0.6-0.7,1.4-1.1,2-1.5l1.8-0.9c2.4-1.2,4.9-2.4,7.3-3.5c2.4-1.1,4.9-2.3,7.6-3.2c2.7-0.9,5.5-1.5,8.5-1.5c3,0,5.8,0.7,8.5,1.7
	c2.6,1,5,2.2,7.5,3.3c2.4,1.2,4.9,2.4,7.2,3.7c-2.7-0.5-5.3-1.2-7.9-1.9c-2.6-0.7-5.2-1.5-7.7-2.1c-2.5-0.6-5-1-7.4-0.9
	c-2.4,0.1-4.9,0.7-7.3,1.5c-2.4,0.8-4.9,1.8-7.4,2.8c-2.5,1-5,2-7.6,2.9c-1.3,0.5-2.6,0.9-3.3,1.4c-0.2,0.1-0.3,0.3-0.4,0.4
	c-0.1,0.1-0.1,0.2-0.1,0.4c-0.1,0.4,0.1,0.7,0.2,0.8c0,0.1,0.1,0.1,0.3,0.1c0.2,0,0.5-0.2,0.8-0.3c0.7-0.3,1.4-0.5,2.1-0.6
	C248.1,233.6,249.6,233.7,250.9,234.1z"/>
<path fill="#241F20" d="M247.9,226.7c1.9-3.4,4.8-6.3,8.1-8.4c3.4-2.2,7.2-3.6,11.2-4.1c4-0.6,8.1-0.2,12,1
	c3.8,1.2,7.4,3.2,10.1,5.9c-3.6-1.4-7.2-2.4-10.8-2.9c-3.6-0.5-7.2-0.5-10.7-0.1c-3.5,0.5-7,1.5-10.3,2.9
	C254.2,222.4,251,224.3,247.9,226.7z"/>
<path fill="#241F20" d="M192.6,231.3c0.5,0.3,0.9,0.5,1.4,0.7c0.5,0.1,0.9,0.1,1.2-0.1c0.3-0.2,0.5-0.6,0.4-0.7c0,0-0.2-0.2-0.7-0.5
	c-1.8-1.1-3.6-1.9-5.5-2.6c-3.8-1.5-7.8-2.4-11.9-3.3c-2-0.5-4-0.9-5.7-0.8c-0.9,0-1.7,0.2-2.6,0.4c-0.8,0.3-1.7,0.7-2.6,1.2
	c-1.8,1-3.8,2-5.7,2.9c-1,0.5-1.9,0.9-2.9,1.4l-0.7,0.3c-0.2,0.1-0.4,0.2-0.6,0.3c-0.4,0.3-0.8,0.7-0.5,1.2
	c-0.2-0.2-0.3-0.5-0.3-0.8c0.1-0.3,0.2-0.6,0.4-0.8c0.2-0.2,0.4-0.5,0.6-0.6l0.6-0.5c0.8-0.7,1.6-1.4,2.4-2.1c1.7-1.3,3.3-2.7,5-4
	c0.9-0.6,1.9-1.3,3-1.8c1.1-0.5,2.4-0.8,3.6-1c2.5-0.2,4.8,0.2,6.9,0.7c4.2,1,8.4,2.2,12.3,4.4c2,1.1,3.8,2.4,5.4,3.9
	c0.2,0.2,0.4,0.4,0.7,0.7c0.2,0.3,0.4,0.8,0.4,1.3c-0.1,0.5-0.3,0.9-0.6,1.1c-0.3,0.3-0.6,0.4-1,0.5c-0.7,0.2-1.4-0.1-1.9-0.4
	C193.3,232.2,193,231.8,192.6,231.3z"/>
<path fill="#241F20" d="M190.8,223.2c-3.2-0.4-6.2-1.2-9.2-1.8c-3-0.6-5.9-1.1-8.7-1.2c-2.9-0.1-5.6,0.2-8.5,1
	c-2.8,0.8-5.7,2-8.8,2.8c2.2-2.3,4.7-4.3,7.7-5.8c2.9-1.5,6.4-2.2,9.8-2.1c3.4,0.1,6.6,1,9.5,2.2
	C185.5,219.7,188.2,221.3,190.8,223.2z"/>
<path fill="#241F20" d="M205,207.5c2.7,2.4,4.6,5.5,5.9,8.9c1.3,3.4,1.9,7.1,1.7,10.8c-0.2,3.7-1.1,7.3-2.7,10.6
	c-1.6,3.3-3.8,6.2-6.7,8.4c1.6-3.2,2.8-6.3,3.7-9.5c0.9-3.2,1.4-6.4,1.6-9.6c0.1-3.2-0.1-6.5-0.8-9.7
	C207.3,214,206.2,210.8,205,207.5z"/>
<path fill="#241F20" d="M193.1,265.4c-2.2,0.9-4.2,2.3-5.8,3.9c-1.6,1.7-2.8,3.7-3.2,5.8c-0.2,1-0.2,2.1,0.1,3
	c0.3,0.9,0.9,1.7,1.6,2.3c0.7,0.5,1.5,0.7,2.4,0.6c0.9-0.1,1.9-0.5,2.9-1c1.1-0.5,2.1-1,3.5-1.5c0.3-0.1,0.7-0.2,1.1-0.3
	c0.4,0,0.8-0.1,1.2-0.1c0.8,0,1.7,0.2,2.5,0.6c0.8,0.4,1.4,1,1.9,1.6c0.5,0.6,0.8,1.2,1.1,1.7c0.3,0.5,0.6,0.9,0.9,1.3
	c0.3,0.3,0.6,0.6,0.9,0.8c1.4,0.9,3.6,1.2,5.8,1.2c2.2,0,4.4-0.4,6.4-1c1-0.3,2.1-0.7,3-1.2c1-0.5,2-1.1,3-1.7
	c1.1-0.6,2.2-1.2,3.6-1.7c1.3-0.5,2.9-0.7,4.3-0.5c2.9,0.3,5.1,1.4,7.3,2.2c2.1,0.8,4.2,1.3,6,0.8c1.8-0.5,3.4-2,4.4-3.8
	c1-1.9,1.4-4.1,1.1-6.2c-0.3-2.2-1.2-4.3-2.5-6.3c-1.2-2-2.8-3.8-4.5-5.5c1.9,1.4,3.8,3,5.3,4.9c1.6,1.9,2.9,4.1,3.5,6.6
	c0.7,2.5,0.4,5.3-0.6,7.7c-1,2.4-3,4.7-5.8,5.7c-1.4,0.5-2.9,0.6-4.2,0.4c-1.4-0.2-2.6-0.5-3.8-0.9c-2.3-0.8-4.5-1.6-6.4-1.7
	c-1,0-1.8,0.1-2.8,0.4c-0.9,0.3-1.9,0.8-2.9,1.4c-1,0.6-2,1.3-3.2,1.8c-1.2,0.6-2.4,1.1-3.6,1.5c-2.5,0.8-5.1,1.2-7.7,1.1
	c-1.3,0-2.6-0.1-3.9-0.4c-1.3-0.3-2.7-0.7-4-1.6c-0.6-0.4-1.2-1-1.7-1.6c-0.5-0.6-0.8-1.2-1.1-1.7c-0.6-1.1-1.1-1.8-1.6-2.1
	c-0.5-0.3-1.2-0.4-2.2-0.1c-1,0.2-2,0.7-3.2,1.1c-1.2,0.4-2.4,0.9-3.9,1c-0.4,0-0.7,0-1.1,0c-0.4,0-0.8-0.1-1.1-0.2
	c-0.8-0.2-1.4-0.7-2-1.2c-1.1-1-1.8-2.3-2.2-3.7c-0.3-1.4-0.2-2.8,0.2-4.1c0.8-2.5,2.5-4.6,4.4-6.1
	C188.5,266.9,190.7,265.9,193.1,265.4z"/>
<path fill="#241F20" d="M240.5,201.7c1.3,1.6,3.5,2,5.6,2.2c6,0.5,12.2-0.3,18-1.9c6.2-1.7,12.4-4.3,18.7-3.1c4.8,0.9,9,4,12.9,7
	c-0.4-2.3-2.1-4-3.8-5.6c-3.5-3.3-7.2-6.7-11.7-8.4c-9.9-3.8-20.8,1.2-31.4,1.9C245.6,193.9,236.2,196.3,240.5,201.7z"/>
<path fill="#241F20" d="M166.2,192.7c-1.5-0.5-3-1.1-4.5-0.9c-2.1,0.3-3.7,2-5.1,3.6c-2.8,3.2-5.6,6.3-8.4,9.5
	c3.1-1.6,6.3-3.2,9.8-3.9c6.2-1.2,14-0.2,20.2,1.4c3.7,0.9,8.7,4.3,12.5,2.6c6.8-3.1,2.4-9.4-2.9-10.5
	C180.6,193,173.3,194.8,166.2,192.7z"/>
<path fill="#241F20" d="M257.3,310.4c-2.9-1.4-6.1-1.8-9.3-2.3c-1.6-0.2-3.2-0.5-4.8-0.9c-1.6-0.4-3.2-1-4.7-1.4
	c-1.5-0.5-2.9-0.7-4.4-0.6c-1.5,0.1-3.1,0.3-4.7,0.6c-3.1,0.5-6.1,1.2-8.1,3.1l-0.7,0.6l-1-0.3c-4.2-1.5-8.7-2.1-13.3-1.8
	c-2.3,0.1-4.6,0.4-6.8,0.8c-2.3,0.4-4.5,0.9-6.8,1.4c-2.3,0.6-4.5,1.2-6.8,1.9c-0.2,0.1-0.4,0.1-0.5,0.2c-0.1,0,0,0,0.2-0.2
	c0.1-0.1,0.1-0.3,0.1-0.4c0-0.2,0-0.3-0.1-0.4c-0.1-0.2-0.1-0.2-0.1-0.1c0.1,0.1,0.2,0.1,0.4,0.2l0.7,0.3c0.5,0.2,1,0.4,1.6,0.6
	c2.1,0.7,4.3,1.2,6.5,1.4c2.2,0.2,4.4,0.1,6.7-0.1c2.3-0.2,4.8-0.5,7.4-0.2c2.6,0.3,4.9,1,7.1,1.4c4.3,0.9,8.9,0,13.6-0.7
	c4.8-0.6,9.5-1,14.3-0.9c2.4,0,4.8,0.1,7.2,0.3c0.6,0,1.2,0.1,1.7,0.1c0.6,0,1.1-0.1,1.7-0.3C255.6,312.2,256.6,311.4,257.3,310.4z
	 M257.3,310.4c-0.5,1.1-1.4,2-2.5,2.5c-0.6,0.3-1.1,0.5-1.8,0.6c-0.6,0.1-1.3,0.1-1.8,0.1c-2.4,0.1-4.7,0.2-7.1,0.4
	c-4.7,0.4-9.4,1-14,1.9c-2.3,0.5-4.6,1-7.1,1.3c-2.4,0.3-5,0.4-7.5,0.1c-2.5-0.4-4.7-1-6.9-1.1c-2.1-0.1-4.4,0.2-6.8,0.4
	c-2.4,0.3-5,0.4-7.5,0.2c-2.5-0.2-5-0.7-7.4-1.5c-0.6-0.2-1.2-0.4-1.8-0.6c-0.3-0.1-0.5-0.2-0.9-0.4c-0.4-0.2-0.8-0.4-1.2-0.7
	c-0.4-0.3-0.8-0.7-1.2-1.5c-0.2-0.4-0.2-0.8-0.2-1.3c0-0.4,0.1-0.9,0.4-1.3c0.4-0.8,1-1.2,1.5-1.4c0.5-0.2,0.9-0.4,1.2-0.5
	c2.3-0.6,4.6-1.3,7-1.8c4.7-1.1,9.5-2,14.4-2.1c4.9-0.2,10,0.5,14.6,2.5l-1.6,0.3c1.5-1.2,3.1-2,4.8-2.5c1.7-0.5,3.4-0.7,5-0.9
	c1.7-0.1,3.2-0.2,5-0.2c0.9,0,1.7,0.1,2.6,0.3c0.9,0.2,1.7,0.4,2.5,0.7c1.6,0.6,3,1.3,4.5,1.8c1.5,0.5,3,0.9,4.6,1.3
	c1.6,0.4,3.1,0.8,4.7,1.3C254.4,308.9,255.9,309.5,257.3,310.4z"/>
<path fill="#241F20" d="M186.3,316.2c4,3.9,8.6,6.8,13.5,8.7c4.9,1.9,10.2,3,15.4,3.3c5.3,0.2,10.6-0.4,15.9-1.5
	c5.3-1.1,10.5-2.8,15.8-4.6c-4.5,3.3-9.6,5.9-14.9,7.6c-5.4,1.8-11.1,2.7-16.9,2.5c-5.8-0.3-11.5-1.7-16.6-4.4
	C193.5,325.1,189,321.1,186.3,316.2z"/>
<path fill="#241F20" d="M257.2,279.6c1.4,1.4,2.6,2.7,3.9,3.9c1.3,1.2,2.5,2.3,3.8,3.5c1.3,1.2,2.6,2.4,3.9,3.9
	c0.6,0.8,1.2,1.6,1.6,2.6c0.4,1,0.6,2.1,0.3,3.1c-1.2-1.6-2.6-2.4-4.1-3.4c-1.4-0.9-3.1-2-4.5-3.3c-1.4-1.3-2.7-2.8-3.6-4.6
	C257.6,283.6,257,281.6,257.2,279.6z"/>
<path fill="#241F20" d="M335.9,231.4c-0.2-2.4,0.7-4.9,2.2-6.9c1.5-2,3.7-3.5,6.2-4.3c2.5-0.7,5.3-0.4,7.7,0.6
	c2.4,1,4.6,2.7,6.1,4.9c1.5,2.3,2.3,4.9,2.5,7.5c0.2,2.6-0.2,5.2-0.7,7.6c-1.1,4.9-2.7,9.2-3.3,13.8c-0.7,4.6-0.9,9.3-1.6,14.2
	c-0.8,4.8-2.4,9.8-5.4,13.9c-5.6,8.3-15.1,13.8-24.7,14c9.4-1.9,17.4-7.9,22.1-15.7c2.3-3.9,3.7-8.2,4.2-12.8
	c0.6-4.6,0.7-9.4,1.4-14.2c0.7-5,2.5-9.6,3.6-14c0.6-2.2,1-4.4,0.9-6.6c-0.1-2.1-0.5-4.2-1.6-6c-2.1-3.5-6.5-6-10.8-5.3
	C340.4,222.9,336.5,226.7,335.9,231.4z"/>
<path fill="#241F20" d="M308.9,341.5c-0.8,5.2-1.1,10.4-0.8,15.5c0.3,5.1,1.3,10.1,2.8,14.9c1.5,4.8,3.6,9.4,6.2,13.8
	c2.6,4.4,5.8,8.4,9.5,12.2c-4.7-2.5-8.8-6.2-12.1-10.4c-3.3-4.3-5.8-9.2-7.5-14.4c-1.6-5.2-2.4-10.6-2.1-16
	C305.2,351.5,306.4,346.2,308.9,341.5z"/>
<path fill="#241F20" d="M191.5,370.1c2,3.5,3.4,7.2,4.5,11.1c1.1,3.8,1.8,7.8,2.2,11.8c0.4,4,0.4,8,0,12c-0.4,4-1.1,7.9-2.4,11.7
	c-0.3-4-0.5-7.9-0.8-11.8c-0.2-3.9-0.5-7.7-0.9-11.6c-0.4-3.8-0.8-7.7-1.3-11.5C192.5,377.9,191.9,374.1,191.5,370.1z"/>
<path fill="#241F20" d="M216,107.2c1.1-1.9,2.3-3.7,3.5-5.5c1.3-1.8,2.5-3.5,3.9-5.2c1.3-1.7,2.7-3.4,4.1-5.1
	c1.4-1.6,2.8-3.3,4.3-4.9l9.2-9.6l-6.5,11.7c-2.2,4-4.1,8.1-5.8,12.4c-0.8,2.1-1.6,4.3-2.3,6.4c-0.7,2.2-1.3,4.4-1.9,6.6l-0.5-1.8
	c0,0-0.1,0-0.1,0c-0.1,0,0,0,0.1,0c0.2,0,0.6-0.3,1-0.6c0.2-0.1,0.3-0.3,0.5-0.5c0.2-0.2,0.3-0.3,0.5-0.6l1.1-1.5
	c1.4-2,2.8-4.2,4.1-6.3c1.3-2.1,2.5-4.3,3.7-6.6c1.2-2.2,2.3-4.5,3.4-6.8c-0.5,2.5-1.2,5-2,7.4c-0.8,2.4-1.8,4.8-2.9,7.2
	c-1.1,2.4-2.3,4.6-3.6,6.9c-0.3,0.6-0.7,1.1-1,1.7c-0.1,0.2-0.4,0.6-0.6,0.9c-0.2,0.3-0.5,0.6-0.8,0.9c-0.6,0.6-1.2,1.1-2.2,1.4
	c-0.5,0.2-1.1,0.3-1.8,0.2c-0.7-0.1-1.3-0.5-1.8-0.9l-0.7-0.7l0.2-1.1c0.5-2.3,1.1-4.6,1.8-6.9c0.7-2.3,1.5-4.5,2.4-6.7
	c1.8-4.4,4-8.6,6.5-12.6l2.7,2.1l-4.6,4.4l-4.6,4.5L216,107.2z"/>
<path fill="#241F20" d="M235.5,110.1c0.4,0.4,0.7,0.9,1.1,1.4l-0.3-0.2c1.2-0.1,2-0.7,2.7-1.6c0.7-0.8,1.1-1.9,1.5-2.9
	c0.4-1,0.7-2.3,1-3.4c0.3-1.2,0.6-2.3,0.8-3.5c0.5-2.3,0.8-4.8,1-7.1c0.2-2.3,0-4.5-1-6.3l2.1-0.6c-0.3,1-0.7,2-1.1,3.1
	c-0.2,0.5-0.4,1-0.6,1.5c-0.2,0.5-0.4,1-0.7,1.5c0-0.6-0.1-1.1-0.1-1.6c0-0.5,0-1.1,0-1.6c0-1.1,0-2.2,0.1-3.2l0.1-2.5l2,1.9
	c1.1,1,1.9,2.4,2.3,3.8c0.4,1.4,0.6,2.8,0.7,4.2c0,2.7-0.3,5.3-0.9,7.9c-0.3,1.3-0.7,2.5-1.2,3.8c-0.5,1.2-1,2.4-1.7,3.6
	c-0.7,1.2-1.6,2.3-2.8,3.2c-1.2,0.9-2.9,1.3-4.2,0.8l-0.3-0.1l0-0.1C235.7,111.3,235.6,110.7,235.5,110.1z"/>
<path fill="#241F20" d="M240.5,119.9c1.5-0.5,2.7-1.6,3.6-2.9c0.9-1.3,1.5-2.7,2-4.2c1.2-2.9,2-5.9,2.6-9c0.6-3,0.9-6.1,1-9.2
	c0.1-3.1-0.3-6.1-1.6-8.4l3.2-1.1c0.8,3.8,1.3,7.6,1.6,11.5c0.2,3.9,0.2,7.7-0.1,11.6c-0.3,3.9-0.9,7.7-1.8,11.4
	c-0.9,3.8-2,7.5-3.4,11.1l-2.8-2.2c2.4-1.6,4.1-4.5,5.5-7.6c1.4-3.1,2.6-6.3,3.5-9.6c1-3.3,1.6-6.7,2.1-10.1
	c0.5-3.4,0.7-6.9,0.7-10.4l0.4,0.1l-1.3,2.8l0.8-2.9l0.3-1l0.1,1.1c0.5,3.5,0.6,7,0.5,10.5c-0.1,3.5-0.6,7.1-1.3,10.6
	c-0.7,3.5-1.8,6.9-3,10.2c-0.6,1.7-1.4,3.4-2.4,5c-1,1.6-2.3,3.2-4,4.4l-4.7,3.3l1.9-5.5c1.2-3.5,2.3-7,3.1-10.6
	c0.8-3.6,1.3-7.3,1.7-10.9c0.3-3.7,0.4-7.4,0.2-11c-0.1-3.7-0.5-7.4-1.1-11L246,75.1l5,9.5c0.9,1.6,1.3,3.4,1.5,5.1
	c0.2,1.7,0.2,3.4,0,5c-0.2,3.3-0.9,6.5-1.7,9.6c-0.9,3.1-2.1,6.1-3.6,9c-0.7,1.4-1.6,2.9-2.7,4.1
	C243.6,118.6,242.1,119.6,240.5,119.9z"/>
<path fill="#241F20" d="M266.3,125c1.4,1.5,2.7,2.9,4.1,4.4c1.4,1.4,2.8,2.8,4.3,4.1l-1.9,0c0.7-0.9,0.9-2.2,0.8-3.7
	c-0.1-1.5-0.4-3.2-0.7-4.8c-0.5-3.3-1-6.6-1.6-9.9c-0.6-3.3-1.2-6.6-1.9-9.9l-2.1-9.9l2.3-0.5c0.1,1.6,0.2,3.3,0.3,5
	c0.2,1.7,0.4,3.3,0.7,5c-0.8-1.5-1.5-3.1-2.1-4.7c-0.6-1.6-1-3.3-1.3-5l-2.1-11.3l4.4,10.8c2.6,6.4,4.4,13,5.6,19.7
	c0.6,3.4,1.1,6.8,1.4,10.2c0.1,0.9,0.1,1.7,0.2,2.6c0.1,0.9,0.1,1.8,0.1,2.7c0,0.9-0.2,1.9-0.5,2.9c-0.3,1-0.9,2-1.8,2.7l-1.1,0.9
	l-0.8-1c-1.3-1.6-2.5-3.2-3.6-4.9C268.1,128.6,267.1,126.8,266.3,125z"/>
<path fill="#241F20" d="M283.3,135.6c0.3-3.2,0.4-6.2,0.4-9.2c0-3-0.2-6-0.7-8.9c-0.8-5.9-2.5-11.5-5-17.1l1.6-0.2
	c-0.4,0.6-0.6,1.3-0.8,2c-0.1,0.7-0.2,1.5,0,2.4c-0.5-0.7-0.8-1.5-1-2.4c-0.2-0.9-0.1-1.8,0.1-2.7l0.4-1.7l1.3,1.5
	c4.2,4.9,6.6,11.2,7.3,17.6c0.3,3.2,0.2,6.5-0.4,9.6C286,129.8,284.9,132.9,283.3,135.6z"/>
<path fill="#241F20" d="M290.9,143.1c0.7-4,1.2-8,1.4-11.9c0.1-3.9,0-7.8-0.6-11.7c-1.1-7.7-3.4-15.1-7.1-22.3l0.7-0.2
	c-0.2,0.7-0.4,1.5-0.6,2.2c-0.1-0.7-0.2-1.5-0.3-2.2l-0.1-1l0.8,0.8c2.9,2.9,5.3,6.4,7,10.2c1.7,3.8,2.9,7.9,3.4,12.1
	c0.5,4.2,0.4,8.4-0.4,12.5C294.5,135.6,293.1,139.6,290.9,143.1z"/>
<path fill="#241F20" d="M313.3,157.9c0.6-2.7,1-5.3,1.2-8c0.2-2.7,0.2-5.3,0-8c-0.1-1.3-0.2-2.7-0.3-4c-0.2-1.3-0.4-2.6-0.5-4
	c-0.2-1.4-0.2-2.9-0.1-4.4c0.1-1.5,0.6-3.2,1.4-4.6l1.3-2.2l1.8,1.9c2.9,3.1,4.6,6.9,5.6,10.7c1,3.8,1.4,7.7,1.5,11.5
	c0,3.8-0.3,7.6-0.9,11.4c-0.6,3.7-1.5,7.4-2.9,11c0.4-3.7,0.7-7.5,0.7-11.2c0.1-3.7,0-7.4-0.3-11c-0.3-3.6-0.9-7.2-1.9-10.6
	c-1-3.4-2.4-6.6-4.6-9l3.1-0.3c-1.1,1.7-1.3,4.2-1.1,6.8c0.1,1.3,0.2,2.7,0.2,4.1c0,1.4,0,2.8-0.1,4.2c-0.2,2.8-0.5,5.6-1.2,8.3
	C315.5,152.8,314.5,155.4,313.3,157.9z"/>
<path fill="#241F20" d="M335,204.1c0.3,0.3,0.7,0,0.9-0.3c0.2-0.3,0.3-0.6,0.4-1c0.3-0.8,0.5-1.5,0.7-2.3c0.5-1.5,0.9-3.1,1.3-4.6
	c0.8-3.1,1.4-6.2,1.8-9.4c0.8-6.3,0.7-12.6-0.5-18.6l3.7,0.1l-3.8,12.4c-0.7,2.1-1.3,4.2-2.1,6.2c-0.8,2.1-1.6,4.1-2.5,6.1
	c0.3-2.2,0.6-4.3,1-6.5c0.3-2.2,0.7-4.3,1-6.4c0.4-2.1,0.8-4.3,1.2-6.4c0.4-2.1,0.9-4.3,1.5-6.4l1.9-7.2l1.8,7.3
	c0.8,3.3,1.2,6.7,1.2,10.1c0,3.4-0.3,6.7-1,10c-0.7,3.3-1.7,6.5-3.1,9.5c-0.6,1.5-1.4,3-2.2,4.4c-0.4,0.7-0.9,1.4-1.3,2.1
	c-0.1,0.2-0.2,0.3-0.3,0.5c-0.1,0.2-0.3,0.3-0.5,0.5c-0.2,0.1-0.4,0.2-0.6,0.3C335.4,204.4,335.1,204.3,335,204.1z"/>
<path fill="#241F20" d="M339.8,206.8c0.5-2.3,1.1-4.5,1.6-6.6c0.6-2.1,1.1-4.2,1.6-6.3c0.5-2.1,1-4.2,1.4-6.3
	c0.5-2.1,0.9-4.3,1.5-6.6c1,2.2,1.5,4.5,1.6,6.8c0.1,2.3-0.1,4.7-0.7,7c-0.5,2.3-1.4,4.5-2.6,6.5
	C343.1,203.4,341.7,205.3,339.8,206.8z"/>
<path fill="#241F20" d="M330.2,179.8l1.6-8.7c0.5-2.8,0.9-5.6,1.2-8.5c0.3-2.8,0.5-5.6,0.6-8.5l0.3-8.8c1.5,2.7,2.3,5.6,2.8,8.7
	c0.5,3,0.5,6.1,0.2,9.1c-0.3,3-1.1,6-2.2,8.9C333.7,174.8,332.3,177.5,330.2,179.8z"/>
<path fill="#241F20" d="M301,148.6c0.1-3.6,0.5-7.1,0.9-10.6c0.4-3.5,0.8-6.9,1.3-10.4c0.5-3.5,0.9-6.8,0.9-10.1
	c-0.1-3.3-0.6-6.6-2.6-9.6c1.6,0.9,2.9,2.3,3.8,4c0.9,1.6,1.5,3.5,1.9,5.3c0.7,3.7,0.4,7.4,0,11c-0.5,3.5-1.2,7-2.2,10.5
	C303.9,142.1,302.7,145.4,301,148.6z"/>
<path fill="#241F20" d="M190,119.5c-0.3-2.6-0.1-5.2,0.3-7.7c0.4-2.5,1.1-5.1,2.2-7.5c1.1-2.4,2.5-4.7,4.4-6.6
	c1.9-1.9,4.2-3.5,6.7-4.1c-1.7,2.1-3,4-4.2,6.1c-1.2,2-2.3,4.2-3.2,6.3c-1,2.2-1.9,4.4-2.8,6.7C192.4,114.9,191.4,117.3,190,119.5z"
	/>
<path fill="#241F20" d="M173.8,133.2c-0.1-3.4,0.3-6.7,1.2-9.9c0.8-3.2,2-6.4,3.6-9.4c1.5-3,3.4-5.8,5.5-8.4
	c1.1-1.3,2.2-2.5,3.4-3.6c0.6-0.6,1.3-1.1,1.9-1.6l0.2-0.2c0.1-0.1,0.2-0.2,0.3-0.2c0.2-0.1,0.5-0.2,0.7-0.2c0.2,0,0.5,0,0.7,0.1
	c0.1,0,0.2,0.1,0.3,0.3c0.1,0.1,0,0.2,0,0.3c-0.1-0.5-0.5-0.3-0.8-0.1c-0.1,0.1-0.3,0.2-0.4,0.3c0,0.1-0.1,0.1-0.1,0.2l-0.1,0.3
	c-0.4,0.7-0.8,1.4-1.2,2.1l-2.4,4.2c-1.6,2.8-3.1,5.6-4.5,8.4c-1.4,2.8-2.8,5.7-4.2,8.6C176.6,127.2,175.3,130.2,173.8,133.2z"/>
<path fill="#241F20" d="M163.9,143.7c-0.3,0.3-0.7,0.4-1.1,0.3c-0.4-0.1-0.8-0.3-1.2-0.6c-0.7-0.7-0.9-1.6-1-2.4
	c-0.1-0.8,0-1.5,0-2.2c0-0.7,0.1-1.4,0.2-2.2c0.4-2.9,1.1-5.7,2.1-8.4c2-5.4,5.3-10.4,9.7-14.1l1.1-0.9l-0.4,1.1
	c-0.2,0.4-0.3,0.8-0.5,1.3c-0.1-0.5-0.1-0.9-0.2-1.4l0.6,0.3l-3.4,7.6c-1.1,2.5-2.2,5-3.2,7.5c-1,2.5-1.9,5.1-2.9,7.6l-0.7,1.9
	c-0.2,0.7-0.5,1.3-0.7,1.9c-0.2,0.6-0.2,1.1-0.1,1.6C162.7,143.2,163.2,143.8,163.9,143.7z"/>
<path fill="#241F20" d="M152.6,157.6c-1.2-2.5-1.9-5.1-2.3-7.8c-0.4-2.7-0.5-5.4-0.3-8.1c0.2-2.7,0.7-5.4,1.4-8
	c0.4-1.3,0.9-2.6,1.4-3.8c0.3-0.6,0.6-1.2,0.9-1.8l0.1-0.2c0.1-0.1,0.1-0.2,0.2-0.3c0.2-0.2,0.3-0.3,0.5-0.4
	c0.2-0.1,0.4-0.1,0.6-0.1c0.1,0,0.2,0.1,0.3,0.2c0.1,0.1,0,0.2,0,0.3c0-0.2-0.2-0.2-0.3-0.1c-0.1,0.1-0.2,0.2-0.3,0.3
	c-0.1,0.1-0.1,0.2-0.2,0.3c0,0.1,0,0.1,0,0.1c0,0,0,0.2,0,0.2c0,0.7-0.1,1.3-0.1,2c-0.1,1.3-0.2,2.6-0.2,3.9l-0.5,7.7l-0.5,7.7
	C153.2,152.2,153,154.9,152.6,157.6z"/>
<path fill="#241F20" d="M145.5,162.9c-1.2-1.8-1.8-3.7-2.3-5.8c-0.4-2-0.5-4.1-0.3-6.1c0.2-2,0.6-4.1,1.3-6c0.7-1.9,1.7-3.7,3.2-5.3
	c0.1,2.1,0,4.1-0.1,6c-0.1,1.9-0.3,3.8-0.4,5.6c-0.2,1.9-0.3,3.7-0.5,5.6C146.1,158.9,145.9,160.8,145.5,162.9z"/>
<path fill="#241F20" d="M139,207.5c-2-3.2-3.4-6.6-4.5-10.2c-1-3.6-1.7-7.3-2-11c-0.3-3.7-0.2-7.5,0.4-11.1c0.5-3.7,1.4-7.3,3-10.7
	c0.1,3.7,0.1,7.3,0.2,10.9c0.1,3.6,0.2,7.1,0.5,10.7c0.3,3.5,0.6,7.1,1.1,10.6L139,207.5z"/>
<path fill="#241F20" d="M141.1,184.9c-1-1.4-1.5-3-1.8-4.6c-0.3-1.6-0.4-3.2-0.3-4.8c0.1-1.6,0.5-3.1,1-4.6c0.6-1.5,1.4-2.9,2.6-4.2
	c0.4,1.7,0.5,3.2,0.5,4.7c0,1.5,0,3-0.1,4.4c-0.1,1.5-0.3,2.9-0.6,4.4C142.1,181.7,141.7,183.2,141.1,184.9z"/>
<path fill="#241F20" d="M254.4,73.8c-0.7-1.4-0.8-3.2-0.4-4.8c0.4-1.6,1.4-3.1,2.7-4.3c1.3-1.2,2.8-2,4.4-2.6c1.6-0.6,3.2-1,4.9-1.1
	c3.4-0.3,6.7,0.1,9.9,0.8c3.2,0.7,6.3,1.8,9.3,3.3l-2,3.3c-1.6-1.1-3.2-2.1-4.9-3.1c-1.7-0.9-3.4-1.8-5.2-2.5
	c-3.6-1.4-7.3-2.5-11.2-3.1c-1.9-0.3-3.8-0.5-5.6-0.3c-1.8,0.2-3.6,0.8-5.2,1.8c-3.3,1.9-6.1,4.9-8.9,7.8c2.1-3.5,4.3-7,7.8-9.6
	c1.7-1.3,3.7-2.3,5.9-2.8c2.2-0.4,4.4-0.4,6.5-0.2c4.2,0.4,8.3,1.3,12.2,2.8c2,0.8,3.9,1.6,5.7,2.6c1.8,1,3.6,2.2,5.3,3.4l-2,3.3
	c-1.3-0.7-2.7-1.3-4.1-1.8c-1.4-0.6-2.9-1-4.3-1.5c-2.9-0.8-5.9-1.4-8.9-1.4c-2.9,0.1-6,0.6-8.4,2.2c-1.2,0.8-2.2,1.9-2.9,3.2
	C254.4,70.7,254.1,72.2,254.4,73.8z"/>
<path fill="#241F20" d="M259.2,75.1c2.2-2.2,5.2-3.6,8.3-4.3c3.1-0.7,6.4-0.7,9.6,0c3.1,0.7,6.2,2,8.7,3.9c2.5,1.9,4.7,4.4,5.8,7.4
	c-2.5-1.9-4.9-3.5-7.4-4.7c-2.6-1.2-5.2-2.1-7.9-2.7c-2.7-0.6-5.5-0.9-8.3-0.8C265,73.9,262.2,74.3,259.2,75.1z"/>
<path fill="#241F20" d="M271.3,77.9c1.6-2.4,4.6-3.8,7.6-4.1c3-0.3,6.1,0.4,8.8,2c2.6,1.6,4.7,3.8,6.1,6.4c1.4,2.5,2.2,5.3,2.2,8.2
	c-1.6-2.3-3.1-4.5-4.8-6.4c-1.7-1.9-3.5-3.5-5.6-4.7c-2-1.2-4.3-2-6.7-2.3C276.5,76.7,273.9,76.9,271.3,77.9z"/>
<path fill="#241F20" d="M269,81.6c2-1,4.3-1.3,6.5-1.1c2.2,0.2,4.4,0.8,6.4,1.9c2,1,3.8,2.5,5.2,4.2c1.4,1.7,2.4,3.8,2.8,6
	c-1.8-1.4-3.3-2.6-4.9-3.7c-1.6-1.1-3.2-2.1-4.9-3c-1.7-0.9-3.4-1.7-5.2-2.4C273,82.9,271.1,82.3,269,81.6z"/>
<path fill="#241F20" d="M239.7,77.2c-0.4-2.3-1.5-3.9-2.8-5.3c-1.3-1.3-2.8-2.3-4.5-3.1c-0.9-0.4-1.8-0.8-2.7-1.1
	c-0.9-0.3-1.8-0.6-2.7-0.7c-0.9-0.1-1.7-0.1-2.5,0.2c-0.9,0.3-1.7,0.9-2.2,1.9c-0.4-1.1,0.1-2.5,1-3.5c0.5-0.5,1-0.9,1.7-1.2
	c0.6-0.3,1.3-0.5,1.9-0.5c1.3-0.2,2.6,0,3.7,0.2c1.2,0.3,2.3,0.6,3.4,1.1c2.2,1,4.2,2.7,5.4,5c0.6,1.1,0.9,2.3,1,3.6
	C240.6,74.9,240.4,76.2,239.7,77.2z"/>
<path fill="#241F20" d="M227.7,73.5c-2.1,0-3.9,0.2-5.6,0.6c-1.7,0.4-3.3,1-4.8,1.7c-1.5,0.7-3,1.6-4.3,2.8
	c-0.7,0.6-1.3,1.2-1.9,1.9c-0.6,0.7-1.3,1.4-1.8,2.3c-0.2-0.5-0.3-1.1-0.2-1.6c0-0.6,0.1-1.1,0.2-1.6c0.2-1.1,0.7-2.1,1.3-3
	c1.2-1.9,2.9-3.3,4.9-4.3c2-1,4.2-1.4,6.4-1.3C224.1,71.1,226.3,71.9,227.7,73.5z"/>
<path fill="#241F20" d="M224.5,80.1c-1.4,0.8-2.5,1.3-3.6,1.9c-1.1,0.6-2.1,1.1-3.1,1.7c-1,0.6-2,1.1-3.1,1.8
	c-1.1,0.6-2.2,1.3-3.5,2.1c-0.1-1.6,0.5-3.1,1.3-4.3c0.9-1.3,2-2.3,3.3-3c1.3-0.7,2.8-1.2,4.3-1.2C221.7,78.9,223.2,79.2,224.5,80.1
	z"/>
<path fill="#241F20" d="M256.2,227.5c0,1.5,0.6,2.6,1.4,3.5c0.8,0.9,1.8,1.4,3,1.8c2.3,0.7,4.9,1,7.1,0.6c1.1-0.2,2.1-0.6,2.9-1.2
	c0.8-0.6,1.5-1.5,1.9-2.5c0.5-1,0.7-2.2,0.6-3.4c0-0.6-0.2-1.2-0.5-1.7c-0.3-0.5-0.8-1-1.5-1.1c0.3-0.2,0.7-0.2,1.1-0.2
	c0.4,0.1,0.8,0.2,1.1,0.5c0.7,0.5,1.2,1.1,1.6,1.9c0.7,1.5,0.8,3.2,0.5,4.9c-0.3,1.6-1.2,3.2-2.5,4.5c-1.3,1.2-3,2-4.6,2.3
	c-1.7,0.3-3.3,0.2-4.8-0.1c-1.5-0.3-3-0.8-4.4-1.7c-1.4-0.8-2.7-2.1-3.3-3.6C255.3,230.5,255.3,228.7,256.2,227.5z"/>
<path fill="#241F20" d="M165.2,225.5c0,1.2,0.3,2.2,0.9,2.9c0.6,0.8,1.3,1.4,2.1,1.9c0.4,0.3,0.8,0.4,1.2,0.6
	c0.4,0.2,0.9,0.4,1.3,0.5c0.9,0.3,1.8,0.5,2.7,0.6c1.8,0.2,3.6-0.1,5.4-0.9c1.7-0.8,3.4-2.1,4.6-4.1c0.4,2.4-0.9,5-2.9,6.7
	c-2,1.7-4.9,2.5-7.5,2.2c-1.3-0.1-2.6-0.5-3.8-1c-0.6-0.3-1.2-0.6-1.7-1c-0.5-0.4-1.1-0.8-1.5-1.3c-0.9-1-1.6-2.2-1.8-3.5
	C164,227.8,164.3,226.3,165.2,225.5z"/>
</svg>
