<?xml version="1.0" encoding="utf-8"?>
<!-- Generator: Adobe Illustrator 22.1.0, SVG Export Plug-In . SVG Version: 6.00 Build 0)  -->
<svg version="1.0" id="Calque_1" xmlns="http://www.w3.org/2000/svg" xmlns:xlink="http://www.w3.org/1999/xlink" x="0px" y="0px"
	 viewBox="0 0 500 500" enable-background="new 0 0 500 500" xml:space="preserve">
<circle fill="#F9F9FA" cx="246.1" cy="238.3" r="211.7"/>
<path fill="#241F20" d="M161.4,153c-1.1,1.5-1.7,3.3-2,5.1c-0.3,1.8-0.2,3.7,0,5.5c0.5,3.6,1.6,7.1,2.6,10.7
	c2.1,7.1,3,14.5,3.8,21.8c0.4,3.7,0.8,7.3,1.3,10.9c0.1,0.9,0.3,1.8,0.4,2.7l0.5,2.7l0.5,2.7l0.7,2.7c1.8,7.1,4.2,14,7.1,20.7
	c5.8,13.4,13.3,26.1,21.2,38.5l5.9,9.3c2,3.1,3.9,6.2,6.3,8.8c2.4,2.6,5.2,4.7,8.5,5.5c3.3,0.9,6.9,0.6,10.4,0
	c3.5-0.7,7-1.7,10.5-2.8c3.5-1.1,7-2.2,10.4-3.5c6.8-2.5,13.5-5.5,19.9-9.1c6.4-3.5,12.4-7.7,17.9-12.4l1-0.9l1-0.9l2-1.8
	c1.3-1.3,2.6-2.5,3.9-3.9c2.5-2.6,4.9-5.4,7.2-8.2c9-11.4,15.9-24.6,20.1-38.7l0.4-1.3l0.4-1.3c0.2-0.9,0.5-1.8,0.7-2.6
	c0.4-1.8,0.9-3.6,1.2-5.4c0.4-1.8,0.7-3.6,1-5.4c0.1-0.9,0.2-1.8,0.4-2.7c0.1-0.9,0.2-1.8,0.3-2.7c0.8-7.3,0.8-14.7,0.1-22
	c0.4,3.6,0.8,7.3,0.9,11c0.1,3.7,0,7.4-0.3,11c-0.1,0.9-0.1,1.8-0.3,2.8c-0.1,0.9-0.2,1.8-0.3,2.8c-0.3,1.8-0.5,3.7-0.8,5.5
	c-0.3,1.8-0.7,3.6-1.1,5.4c-0.2,0.9-0.4,1.8-0.7,2.7l-0.3,1.3l-0.4,1.3c-4,14.2-10.7,27.7-19.8,39.5c-9,11.8-20.4,21.8-33.4,29.1
	c-6.5,3.7-13.2,6.7-20.2,9.3c-3.5,1.3-7,2.5-10.5,3.6c-3.5,1.1-7.1,2.2-10.8,2.9c-3.7,0.7-7.6,0.9-11.5-0.1
	c-1.9-0.5-3.7-1.4-5.4-2.4c-1.6-1.1-3.1-2.4-4.3-3.8c-2.6-2.8-4.6-6-6.5-9.1c-2-3.1-4-6.2-5.9-9.3c-7.8-12.5-15.3-25.3-20.9-39
	c-2.8-6.8-5.2-13.9-6.9-21.1l-0.6-2.7l-0.5-2.7l-0.5-2.7c-0.1-0.9-0.3-1.8-0.4-2.7c-0.5-3.7-0.8-7.3-1.2-11
	c-0.6-7.3-1.3-14.6-3.3-21.7c-0.9-3.5-2-7.1-2.4-10.8c-0.2-1.8-0.2-3.7,0.1-5.5C159.6,156.2,160.3,154.5,161.4,153z"/>
<path fill="#241F20" d="M206.3,152.2c2.6,4.8,6.5,8.6,9.3,13.4c0.7,1.2,1.3,2.5,1.8,3.8c0.5,1.3,0.8,2.7,1,4.1
	c0.2,1.4,0.2,2.8,0.2,4.2c-0.1,1.4-0.2,2.8-0.5,4.2c-0.5,2.7-1.2,5.4-2,8c-0.8,2.6-1.6,5.2-2.3,7.8c-1.5,5.2-3,10.4-4.3,15.7
	c-1.4,5.2-2.7,10.5-3.9,15.8c-0.3,1.3-0.6,2.6-0.8,3.8c-0.1,1.2,0,2.4,0.4,3.4c0.5,0.9,1.3,1.6,2.4,1.8c1.1,0.3,2.3,0.1,3.6-0.2
	c1.3-0.3,2.5-0.7,3.7-1.3l3.8-1.5l7.6-3l3.8-1.5c1.3-0.5,2.5-1,3.4-1.9c0.9-0.9,1.4-2.2,1.4-3.5c0-1.3-0.4-2.7-1.3-3.7
	c2.1,1.8,2.3,5.4,0.4,7.7c-1,1.1-2.3,1.7-3.5,2.3l-3.7,1.7l-7.4,3.3l-3.7,1.6c-1.2,0.6-2.6,1.1-3.9,1.5c-1.4,0.4-2.9,0.6-4.5,0.3
	c-0.8-0.2-1.6-0.5-2.3-1c-0.7-0.5-1.2-1.2-1.6-1.9c-0.8-1.5-0.9-3.1-0.8-4.6c0.1-1.5,0.4-2.9,0.7-4.2c1.2-5.3,2.5-10.6,3.8-15.9
	c1.4-5.3,2.9-10.5,4.5-15.7c0.8-2.6,1.6-5.2,2.5-7.8c0.8-2.6,1.6-5.1,2.2-7.7c0.6-2.6,0.8-5.2,0.6-7.8c-0.1-1.3-0.4-2.6-0.7-3.8
	c-0.4-1.2-0.9-2.5-1.5-3.7C212.1,161.5,208.4,157.3,206.3,152.2z"/>
<path fill="#241F20" d="M256.7,141.7c12.4-5.1,25.7-9,39-7.4c-9.3,1.5-18.4,3.9-27.3,7.2c-5.3,2-16,10-21.1,5.7
	C249.5,144.5,253.3,143,256.7,141.7z"/>
<path fill="#241F20" d="M175,150.4c-6.2,1.5-11.1,6.2-15.6,10.7c6.2-4.4,14.3-5.1,21.9-5c2.5,0,11.1,0.4,10.3-4
	C190.8,148,177.6,149.7,175,150.4z"/>
<path fill="#241F20" d="M250.8,173c2.4-4.7,6.9-8.3,11.9-10.2c2.5-1,5.2-1.5,8-1.5c2.7-0.1,5.5,0.4,8.1,1.3c2.5,0.9,4.9,2,7.3,2.8
	c1.2,0.4,2.4,0.7,3.5,0.7c1.2,0.1,2.3,0,3.5-0.4c2.2-0.7,4.2-2.4,6.3-4c1-0.8,2.1-1.6,3.2-2.3c1.2-0.7,2.4-1.2,3.7-1.4
	c-5,1.8-7.2,7.2-12.6,9.5c-1.3,0.6-2.8,0.8-4.2,0.8c-1.4,0-2.8-0.3-4.1-0.7c-2.6-0.7-5-1.9-7.4-2.7c-4.7-1.7-9.8-1.7-14.6-0.3
	C258.5,166.1,254.1,168.9,250.8,173z"/>
<path fill="#241F20" d="M196.3,174.7c-3-1.4-6.2-1.9-9.3-1.6c-3.1,0.2-6.1,1.2-8.8,2.7c-1.3,0.7-2.6,1.6-3.9,2.6l-1.9,1.5l-1,0.7
	l-0.5,0.4c-0.2,0.1-0.4,0.3-0.7,0.4c-0.3,0.1-0.8,0.2-1.1,0.1c-0.4-0.1-0.7-0.2-0.9-0.4c-0.4-0.3-0.7-0.6-1-0.8l-1.8-1.6
	c-1.2-1.1-2.4-2.2-3.5-3.4c1.5,0.8,2.9,1.6,4.3,2.5l2.1,1.3c0.3,0.2,0.7,0.5,1,0.6c0.1,0.1,0.2,0.1,0.2,0.1c0,0,0,0,0.1-0.1
	c0.1,0,0.2-0.1,0.3-0.2l0.4-0.4l0.9-0.8c0.6-0.5,1.2-1.1,1.8-1.6c0.6-0.5,1.3-1.1,2-1.6c0.7-0.5,1.4-1,2.2-1.4
	c3-1.6,6.5-2.6,9.9-2.4c1.7,0,3.4,0.4,5,1C193.6,172.7,195.1,173.6,196.3,174.7z"/>
<path fill="#241F20" d="M260.6,164.4c-0.4,2.3,0.3,4.6,1.5,6.2c1.2,1.6,3,2.5,5,2.7c2,0.1,3.9-0.5,5.3-2c1.4-1.5,2.3-3.6,2.2-5.9
	c1.1,2.1,0.8,5-0.7,7.2c-0.4,0.5-0.8,1-1.3,1.5c-0.5,0.4-1.1,0.8-1.7,1.1c-0.6,0.3-1.3,0.5-1.9,0.6c-0.7,0.1-1.3,0.1-2,0.1
	c-0.7-0.1-1.3-0.2-2-0.4c-0.6-0.2-1.3-0.5-1.8-0.8c-0.6-0.4-1.1-0.8-1.6-1.3c-0.5-0.5-0.8-1.1-1.1-1.6
	C259.2,169.3,259.2,166.4,260.6,164.4z"/>
<path fill="#241F20" d="M174,178c-0.1,0.4,0,0.8,0.2,1.1c0.2,0.3,0.5,0.6,0.8,0.8c0.6,0.5,1.2,0.9,1.9,1.2c1.3,0.6,2.8,0.7,4.1,0.4
	c0.6-0.2,1.2-0.4,1.7-0.8c0.5-0.4,1-0.9,1.4-1.5c0.7-1.2,1.2-2.7,0.9-4.5c0.6,0.6,1,1.5,1.2,2.4c0.2,0.9,0,1.9-0.3,2.8
	c-0.3,0.9-0.9,1.8-1.6,2.5c-0.7,0.7-1.7,1.2-2.7,1.5c-2,0.5-4.1,0-5.7-1.1c-0.8-0.6-1.4-1.3-1.9-2.1c-0.2-0.4-0.4-0.9-0.5-1.4
	c0-0.2,0-0.5,0-0.7C173.7,178.3,173.8,178.1,174,178z"/>
<path fill="#241F20" d="M253.9,160.3c2.6-2.1,5.7-3.7,8.9-4.7c3.2-1.1,6.7-1.6,10.1-1.6c3.4,0,6.8,0.5,10.1,1.5c3.2,1,6.3,2.5,9,4.6
	c-3.1-1.2-6.3-2.1-9.4-2.7c-3.2-0.6-6.4-0.9-9.6-0.9c-3.2,0-6.4,0.4-9.6,1C260.2,158.1,257.1,159,253.9,160.3z"/>
<path fill="#241F20" d="M194.7,167c-2.4-0.4-4.8-0.6-7.1-0.5c-2.3,0.1-4.6,0.4-6.8,1c-2.2,0.6-4.4,1.4-6.4,2.4c-2.1,1-4,2.3-6,3.9
	c1.1-2.2,2.9-4.1,4.9-5.5c2-1.5,4.4-2.5,6.8-3.2c2.4-0.6,5-0.8,7.5-0.5C190.2,164.9,192.7,165.6,194.7,167z"/>
<path fill="#241F20" d="M244.9,244.7c-0.7,0-1.5,0-2.3,0c-0.8,0-1.7,0.1-2.5,0.1l-2.5,0c-0.8,0-1.6,0-2.4,0.1
	c-1.6,0.2-3.1,0.5-4.4,1.2c-1.4,0.7-2.7,1.7-4.4,2.3c-0.8,0.3-1.8,0.5-2.8,0.5c-1,0-1.8-0.3-2.6-0.5c-0.8-0.2-1.5-0.4-2.1-0.4
	c-0.6,0-1.3,0.1-2,0.3c-1.3,0.5-2.9,1.3-4.3,1.9l-4.4,2.1l-0.2-2.4c3,0.7,6.1,1,9.3,0.9c3.1-0.1,6.2-0.5,9.3-1.2
	c3.1-0.8,6.1-1.8,9-3.1l2.2-1c0.8-0.3,1.6-0.6,2.4-0.8C241.7,244.3,243.4,244.2,244.9,244.7z M244.9,244.7c-1.6-0.2-3.2,0.1-4.7,0.6
	c-0.7,0.3-1.5,0.6-2.1,1l-2.1,1.2c-2.8,1.6-5.8,2.9-9,3.9c-3.1,1-6.4,1.5-9.7,1.7c-3.3,0.1-6.7-0.1-9.9-0.8l-3.7-0.8l3.5-1.6l4.4-2
	l2.2-1c0.7-0.3,1.5-0.7,2.4-1c0.9-0.3,1.8-0.4,2.8-0.4c1,0.1,1.8,0.4,2.6,0.6c0.8,0.3,1.5,0.5,2.1,0.5c0.6,0.1,1.3,0,2-0.2
	c1.4-0.4,2.8-1.3,4.3-2c1.6-0.7,3.4-0.9,5-0.9c0.8,0,1.7,0.1,2.5,0.1c0.8,0.1,1.7,0.2,2.4,0.3l2.3,0.4
	C243.2,244.5,244.1,244.6,244.9,244.7z"/>
<path fill="#241F20" d="M243.5,244.7c-0.9,1.7-1.8,3.4-2.8,5.1c-1,1.6-1.9,3.4-3.3,4.9c-0.7,0.8-1.6,1.5-2.5,2
	c-0.9,0.5-1.9,0.9-2.9,1.2c-1.9,0.6-3.8,1-5.7,1.4c-1.9,0.3-3.9,0.6-5.8,0.7c-1,0.1-1.9,0.1-3,0.1c-0.5,0-1.1-0.1-1.6-0.2
	c-0.5-0.1-1.1-0.3-1.6-0.6c-1-0.5-1.8-1.1-2.5-1.8c-0.8-0.6-1.5-1.3-2.2-2c-1.4-1.4-2.6-2.9-3.6-4.6c1.4,1.3,2.9,2.6,4.4,3.7
	c0.8,0.6,1.5,1.1,2.3,1.6c0.8,0.5,1.6,1,2.4,1.3c0.8,0.3,1.5,0.4,2.4,0.4c0.9,0,1.8-0.1,2.7-0.2c1.9-0.2,3.7-0.5,5.6-0.8
	c1.8-0.3,3.7-0.7,5.5-1.2c0.9-0.2,1.7-0.5,2.5-0.9c0.8-0.4,1.5-0.8,2.1-1.4c1.3-1.2,2.5-2.7,3.7-4.2
	C240.9,247.6,242.2,246.1,243.5,244.7z"/>
<path fill="#241F20" d="M228.6,69.3c1.6,3.3,3.8,6.2,6.5,8.6c2.6,2.5,5.7,4.5,8.7,6.4c3.1,1.9,6.3,3.6,9.4,5.4
	c1.6,0.9,3.2,1.8,4.7,2.7l2.3,1.4l2.3,1.4c6.1,3.9,12.1,8.1,17.7,12.7c5.6,4.6,11,9.5,16,14.9c4.9,5.4,9.6,11.1,13.5,17.3l1.5,2.3
	l1.4,2.4c0.9,1.6,1.9,3.1,2.7,4.7l2.5,4.9l0.6,1.2c0.2,0.4,0.4,0.8,0.6,1.2l1.1,2.5c1.6,3.3,2.8,6.7,4.2,10.1
	c0.6,1.7,1.2,3.5,1.8,5.2c0.3,0.9,0.6,1.7,0.9,2.6l0.8,2.6c2.1,7,3.7,14.1,5.1,21.3l0.9,5.4c0.3,1.8,0.5,3.6,0.8,5.4l0.4,2.7
	l0.3,2.7c0.2,1.8,0.4,3.6,0.6,5.4c0.7,7.2,1.2,14.5,1.4,21.8c0.2,7.3,0.3,14.5,0.2,21.8c0,3.6-0.1,7.3-0.1,10.9l-0.3,10.9
	c-0.4,14.5-0.8,29-0.6,43.5c0,7.2,0.3,14.5,0.8,21.7l0.4,5.4c0.1,1.8,0.3,3.6,0.5,5.4c0.3,3.6,0.8,7.2,1.2,10.8
	c-1.2-7.2-2.2-14.3-2.8-21.6c-0.6-7.2-1.1-14.5-1.3-21.7c-0.5-14.5-0.3-29-0.1-43.5c0.1-14.5,0.3-29-0.3-43.4
	c-0.3-7.2-0.8-14.4-1.5-21.6c-0.2-1.8-0.4-3.6-0.6-5.4l-0.3-2.7l-0.4-2.7c-0.3-1.8-0.5-3.6-0.8-5.4l-0.9-5.3c-1.3-7.1-2.9-14.1-5-21
	l-0.8-2.6c-0.3-0.9-0.6-1.7-0.9-2.6c-0.6-1.7-1.1-3.4-1.7-5.1c-1.3-3.3-2.5-6.7-4.1-10l-1.1-2.5c-0.2-0.4-0.4-0.8-0.6-1.2l-0.6-1.2
	l-2.4-4.8c-0.8-1.6-1.8-3.1-2.7-4.7l-1.3-2.3l-1.5-2.3c-1-1.5-1.9-3-3-4.5c-1.1-1.4-2.1-2.9-3.2-4.3l-1.6-2.1
	c-0.6-0.7-1.1-1.4-1.7-2.1c-1.1-1.4-2.3-2.7-3.5-4.1c-4.8-5.4-10-10.3-15.6-15c-2.7-2.3-5.6-4.5-8.5-6.7c-2.9-2.1-5.9-4.2-8.9-6.2
	l-2.3-1.5l-2.3-1.5c-1.5-1-3.1-1.9-4.6-2.8c-3.1-1.9-6.3-3.7-9.3-5.6c-3-2-6-4.1-8.6-6.7C232.3,75.6,230.1,72.6,228.6,69.3z"/>
<path fill="#241F20" d="M296.1,102.8l3.5,3.1l3.4,3.1l3.4,3.2l3.3,3.3c4.3,4.5,8.4,9.2,12.3,14c7.7,9.8,14.3,20.5,19.3,32l1.8,4.3
	c0.6,1.4,1.1,2.9,1.7,4.4c1.2,2.9,2,5.9,3,8.9c1.7,6,3.3,12.1,4.4,18.2c2.3,12.3,3.4,24.7,3.9,37.2c0.4,12.5,0.1,24.9-0.4,37.3
	l-1.9,37.2c-0.3,6.2-0.5,12.4-0.6,18.6c0,3.1-0.1,6.2,0,9.3l0,4.6l0.1,4.6c0.3,12.4,1.5,24.8,3.6,37c-1.3-6.1-2.4-12.2-3.1-18.4
	l-0.3-2.3l-0.2-2.3l-0.5-4.6l-0.4-4.7l-0.2-2.3l-0.1-2.3l-0.2-4.7l-0.1-4.7c-0.1-3.1-0.1-6.2-0.1-9.3c0-6.2,0.1-12.4,0.3-18.6
	c0.7-24.8,2.6-49.6,1.7-74.4c-0.4-12.4-1.5-24.7-3.7-36.8c-1-6.1-2.5-12.1-4.1-18c-0.9-2.9-1.8-5.9-2.8-8.8c-0.5-1.4-1-2.9-1.6-4.4
	l-1.7-4.3c-4.8-11.4-11.1-22.1-18.5-32c-3.7-5-7.6-9.8-11.8-14.3l-3.2-3.4l-3.2-3.3l-3.3-3.3L296.1,102.8z"/>
<path fill="#241F20" d="M307.9,84.7l3.5,3.3c1.2,1.1,2.3,2.3,3.4,3.4c1.1,1.1,2.2,2.4,3.3,3.6c0.5,0.6,1.1,1.2,1.6,1.8l1.6,1.8
	c4.2,4.9,8.2,10.1,11.8,15.4c7.2,10.8,13.3,22.3,18.1,34.4c4.7,12.1,8,24.8,10.2,37.6c2.2,12.8,3.4,25.7,4.3,38.7
	c1.7,25.8,2.3,51.7,2.8,77.6c0.3,12.9,0.6,25.8,1,38.8c0.2,6.5,0.5,12.9,0.8,19.4c0.2,3.2,0.5,6.4,1.2,9.6c0.7,3.1,1.8,6.2,3.5,8.9
	c-1.8-2.7-3.1-5.7-3.9-8.9c-0.8-3.2-1.2-6.4-1.5-9.6c-0.5-6.5-1-12.9-1.4-19.4c-0.7-12.9-1.2-25.8-1.7-38.8l-1.4-38.8
	c-0.5-12.9-1.1-25.8-2-38.7c-0.8-12.9-2-25.7-4.1-38.4c-1-6.3-2.3-12.7-3.9-18.9c-0.8-3.1-1.7-6.2-2.6-9.3c-0.5-1.5-0.9-3.1-1.5-4.6
	l-1.6-4.5C340.4,125.1,326.1,103,307.9,84.7z"/>
<path fill="#241F20" d="M229.8,69.3c-0.8,1.8-1.6,3.6-2.4,5.4c-0.9,1.8-1.7,3.6-2.6,5.3c-0.9,1.7-1.8,3.5-2.8,5.2
	c-1,1.7-1.9,3.4-3,5.1c-4.1,6.8-8.5,13.3-13.2,19.7c-4.7,6.3-9.7,12.5-14.9,18.5c-5.1,6-10.4,11.9-15.6,17.8
	c-5.1,5.9-10,12.1-13.8,18.9c-1.9,3.4-3.4,7-4.6,10.7c-1.2,3.7-2.1,7.5-2.7,11.3c-1.3,7.7-1.8,15.5-2,23.4
	c-0.1,3.9-0.3,7.9-0.3,11.8c0,3.9-0.1,7.9,0,11.8c0.1,15.7,1.1,31.5,2.5,47.2c1.4,15.7,3.4,31.3,5.6,46.9
	c2.2,15.6,4.8,31.2,7.5,46.7c2.6,15.6,5.3,31.1,7.9,46.7l-2.3-11.6l-2.3-11.6l-4.5-23.2c-2.9-15.5-5.7-31.1-8.2-46.7
	c-2.5-15.6-4.5-31.3-6.1-47c-1.5-15.7-2.5-31.5-2.7-47.4c-0.1-4,0-7.9,0-11.9c0-4,0.2-7.9,0.4-11.9c0.1-4,0.3-7.9,0.7-11.9
	c0.3-4,0.8-7.9,1.5-11.8c0.7-3.9,1.6-7.8,2.9-11.6c1.3-3.8,2.9-7.5,4.8-11c2-3.5,4.2-6.8,6.6-10c2.4-3.2,5-6.2,7.6-9.1
	c5.3-5.9,10.7-11.6,15.8-17.6c5.2-5.9,10.3-12,15.1-18.2c4.8-6.2,9.4-12.6,13.6-19.3c1.1-1.7,2.1-3.3,3.1-5c1-1.7,1.9-3.4,2.9-5.1
	c1-1.7,1.8-3.5,2.8-5.2C228.1,72.9,228.9,71.1,229.8,69.3z"/>
<path fill="#241F20" d="M198.5,71.3c-1.8,2.7-3.6,5.5-5.4,8.3c-1.8,2.8-3.5,5.5-5.3,8.3c-3.5,5.6-6.9,11.1-10.2,16.8
	c-6.7,11.2-13.2,22.7-19.3,34.2c-6.1,11.6-12,23.3-16.3,35.6c-2.2,6.1-4.1,12.4-5.4,18.7c-1.4,6.4-2.3,12.8-3,19.3
	c-1.3,13-1.4,26.1-1.5,39.2c-0.1,13.1-0.1,26.2,0.5,39.3c0.3,6.5,0.8,13.1,1.4,19.6l0.6,4.9l0.3,2.4l0.4,2.4l0.7,4.8l0.9,4.8
	l0.4,2.4l0.5,2.4l1.1,4.8l1.3,4.7l0.6,2.4l0.7,2.3l1.5,4.7l1.7,4.6l0.8,2.3l1,2.3l1.9,4.5l-2.1-4.5l-1-2.2l-0.9-2.3l-1.8-4.6
	l-1.6-4.7l-0.8-2.3l-0.7-2.4l-1.4-4.7l-1.2-4.8l-0.6-2.4l-0.5-2.4l-1-4.8l-0.8-4.9l-0.4-2.4l-0.3-2.4l-0.7-4.9
	c-0.8-6.5-1.4-13.1-1.8-19.6c-0.2-3.3-0.4-6.6-0.5-9.8c-0.1-3.3-0.2-6.6-0.3-9.8c-0.1-6.6-0.2-13.1-0.2-19.7
	c0-13.1,0.1-26.3,1.4-39.4c0.7-6.6,1.7-13.1,3.1-19.6c0.7-3.2,1.5-6.4,2.5-9.6c0.4-1.6,1-3.2,1.5-4.7c0.5-1.6,1.1-3.1,1.6-4.7
	c2.3-6.2,4.9-12.2,7.8-18.2c2.8-5.9,5.9-11.7,9.1-17.5c6.4-11.5,13-22.8,20-33.9c3.5-5.5,7.1-11.1,10.7-16.5
	c1.8-2.7,3.7-5.4,5.5-8.1C194.7,76.7,196.6,74,198.5,71.3z"/>
<polygon fill="#241F20" points="156.3,95.2 153.2,101.8 150.1,108.4 144.5,121.9 139.4,135.6 134.8,149.5 130.8,163.6 127.5,177.8 
	124.7,192.1 122.4,206.5 120.8,221 119.8,235.6 119.4,250.2 119.5,264.8 120.3,279.4 121.6,293.9 123.6,308.4 124.9,315.6 
	126.1,322.9 124.5,315.7 122.9,308.6 120.4,294.1 118.6,279.5 117.6,264.9 117.2,250.2 117.4,235.5 118.4,220.8 120,206.2 
	122.2,191.7 125.2,177.3 128.7,163 133,148.9 137.8,135.1 143.3,121.5 149.5,108.1 152.9,101.6 "/>
<path fill="#241F20" d="M298.5,70.6c-11.4-6.3-23.3-11.6-35.7-15.3c-6.2-1.8-12.5-3.3-18.9-4.1c-1.6-0.2-3.2-0.4-4.8-0.6
	c-1.6-0.1-3.2-0.3-4.8-0.4c-1.6-0.1-3.2-0.1-4.8-0.2c-1.6,0-3.2,0-4.8,0.1c-3.2,0.1-6.4,0.3-9.6,0.7c-3.2,0.4-6.4,0.9-9.5,1.7
	c-6.3,1.4-12.4,3.5-18,6.5c-5.6,3.1-10.5,7.3-14.9,12c-4.4,4.7-8.4,9.9-12.4,15c3.6-5.4,7.2-10.8,11.5-15.8c4.2-5,9.1-9.6,14.9-12.9
	c5.7-3.4,12-5.5,18.4-7.1c3.2-0.8,6.4-1.4,9.7-1.8c3.3-0.4,6.5-0.7,9.8-0.8c1.6-0.1,3.3,0,4.9,0c1.6,0.1,3.3,0.1,4.9,0.2
	c3.3,0.2,6.6,0.5,9.8,1.1c3.2,0.5,6.5,1.1,9.7,1.9c3.2,0.8,6.3,1.7,9.4,2.7C275.9,57.5,287.6,63.5,298.5,70.6z"/>
<path fill="#241F20" d="M248.3,295.1c3,3.7,5,8.2,6,12.9c0.6,2.4,0.8,4.8,1,7.2c0.1,2.4,0,4.8-0.2,7.2c-0.3,2.4-0.6,4.8-1.1,7.1
	c-0.5,2.3-1.1,4.6-1.9,6.9c-1.4,4.5-3.2,8.9-5.2,13.2c1-4.6,2.2-9.2,3.3-13.8c0.5-2.3,1-4.6,1.4-6.9c0.4-2.3,0.8-4.6,1-6.9
	c0.3-2.3,0.3-4.6,0.3-6.9c0-2.3-0.2-4.6-0.5-6.9C251.8,303.8,250.4,299.3,248.3,295.1z"/>
<path fill="#241F20" d="M323.6,278.1c0.4,9.7,0.6,19.5,1,29.2l0.3,7.3l0.5,7.3l0.6,7.3l0.8,7.2c0.3,2.4,0.6,4.8,0.9,7.2
	c0.4,2.4,0.8,4.8,1.2,7.2c0.4,2.4,0.9,4.7,1.4,7.1l1.7,7.1c2.4,9.4,5.7,18.5,9.9,27.3c-5.1-8.3-9-17.4-11.8-26.8
	c-0.7-2.4-1.3-4.7-1.9-7.1c-0.5-2.4-1.1-4.8-1.6-7.2c-0.4-2.4-0.9-4.8-1.3-7.2c-0.3-2.4-0.7-4.9-1-7.3l-0.7-7.3
	c-0.2-2.4-0.4-4.9-0.5-7.3l-0.3-7.3c-0.1-2.4-0.1-4.9-0.1-7.3C322.6,297.6,323,287.9,323.6,278.1z"/>
<path fill="#241F20" d="M166,270.3c1,1.5,1.9,3.1,2.8,4.6c0.5,0.8,0.9,1.6,1.3,2.4c0.4,0.8,0.8,1.6,1.2,2.4c1.6,3.2,3,6.6,4.4,10
	c1.3,3.4,2.5,6.8,3.5,10.3c1.1,3.5,2,7,2.9,10.5c3.5,14,6.4,28.2,8.9,42.5c2.5,14.3,4.4,28.6,5.9,43c0.8,7.2,1.3,14.4,1.8,21.6
	c0.2,3.6,0.4,7.2,0.6,10.8c0.2,3.6,0.3,7.2,0.4,10.8c-1.3-14.4-2.9-28.7-4.7-43c-0.9-7.1-1.9-14.3-3-21.4c-0.5-3.6-1.1-7.1-1.6-10.7
	c-0.6-3.6-1.2-7.1-1.8-10.7c-1.2-7.1-2.5-14.2-3.9-21.3c-1.4-7.1-2.8-14.1-4.4-21.2c-1.6-7-3.4-14-5.7-20.8
	C172.4,283.3,169.5,276.7,166,270.3z"/>
<path fill="#241F20" d="M213.5,307.5c2.4,9.4,4.2,18.9,5.5,28.4c0.3,2.4,0.7,4.8,1,7.2l0.8,7.2l0.6,7.2l0.5,7.2l0.3,7.2l0.2,7.2
	l0,7.2c0,2.4-0.1,4.8-0.1,7.2c-0.3,9.7-1,19.3-2.3,28.9c0.3-9.6,0.4-19.3,0.3-28.9c0-2.4-0.1-4.8-0.1-7.2l-0.2-7.2l-0.3-7.2
	l-0.4-7.2l-0.4-7.2l-0.6-7.2l-0.6-7.2c-0.3-2.4-0.5-4.8-0.7-7.2C216.1,326.6,214.8,317,213.5,307.5z"/>
<path fill="#241F20" d="M280.9,202.2c-3.6-4.4-10.8-4.5-15.4-1.1c-4.5,3.4-6.6,9.4-6.6,15.1c0,7.1,3.3,14.6,9.4,18.2
	c7.6,4.5,18.6,1.6,23.1-6c4.4-7.6,1.5-18.6-6.1-23"/>
<path fill="#241F20" d="M178.2,214.6c-1.6,5.5-2.2,11.3-1.6,17c0.5,5.2,3.1,11.4,8.3,11.9c1.5,0.2,3.1-0.2,4.5-0.8
	c7.3-2.8,12.6-10.1,12.9-17.9C202.8,211.3,183.8,195.5,178.2,214.6z"/>
</svg>
