<?xml version="1.0" encoding="utf-8"?>
<!-- Generator: Adobe Illustrator 22.1.0, SVG Export Plug-In . SVG Version: 6.00 Build 0)  -->
<svg version="1.0" id="Calque_1" xmlns="http://www.w3.org/2000/svg" xmlns:xlink="http://www.w3.org/1999/xlink" x="0px" y="0px"
	 viewBox="0 0 500 500" enable-background="new 0 0 500 500" xml:space="preserve">
<circle fill="#F9F9FA" cx="246.1" cy="238.3" r="211.7"/>
<path fill="#241F20" d="M147.8,223.5c-2.1,6.1-3.3,12.6-3.6,19c-0.4,6.5,0.2,12.9,1.3,19.3c0.6,3.2,1.3,6.3,2.1,9.4
	c0.9,3.1,1.8,6.2,2.9,9.2c2.2,6.1,4.7,12,7.6,17.8c1.4,2.9,2.9,5.7,4.5,8.6c1.6,2.8,3.2,5.6,4.9,8.4c3.4,5.5,6.9,10.9,10.8,16
	c3.9,5.1,8.2,9.9,13,14.1c4.9,4.2,10.3,7.6,16,10.4c2.9,1.4,5.9,2.6,8.9,3.6c3,1,6.1,1.8,9.3,2.5c3.1,0.6,6.3,1.1,9.5,1.4
	c1.6,0.1,3.2,0.2,4.8,0.2c0.8,0,1.6,0,2.4,0l2.4-0.1c12.8-0.6,25.3-4.5,36.4-10.9c0.7-0.4,1.4-0.8,2.1-1.2c0.7-0.4,1.4-0.8,2-1.3
	l2-1.4l1-0.7l1-0.7l1.9-1.4c0.6-0.5,1.2-1,1.9-1.5c1.3-1,2.4-2.1,3.6-3.1c4.7-4.3,9-9.2,12.7-14.4c3.7-5.2,6.7-10.9,9.1-16.9
	c2.3-6,4-12.2,4.8-18.6l1.7,0.3c-0.2,0.8-0.1,1.5,0.2,2.3c0.3,0.7,0.8,1.4,1.5,1.9c0.7,0.5,1.4,0.9,2.3,1.2c0.8,0.3,1.7,0.4,2.5,0.3
	c0.9,0,1.7-0.3,2.4-0.6c0.8-0.4,1.5-0.9,2.2-1.5c1.3-1.2,2.4-2.7,3.3-4.3c0.9-1.6,1.6-3.4,2.3-5.1c0.7-1.8,1.3-3.5,2-5.3
	c1.3-3.6,2.4-7.2,3.5-10.8c2.2-7.3,4.1-14.6,5.6-22.1c0.2-0.9,0.4-1.9,0.5-2.8c0.2-0.9,0.4-1.9,0.5-2.8c0.2-1.9,0.2-3.8-0.1-5.6
	c-0.3-1.8-0.9-3.7-1.9-5.2c-0.5-0.7-1.2-1.4-2.1-1.8c-0.8-0.4-1.8-0.4-2.7-0.3l0.1-0.1l-5.3,8.7l5-8.8l0-0.1l0.1,0
	c0.9-0.2,2-0.1,2.9,0.3c0.9,0.4,1.7,1.1,2.3,1.8c1.2,1.6,1.8,3.5,2.1,5.3c0.3,1.9,0.4,3.8,0.2,5.8c-0.1,1-0.3,1.9-0.4,2.8
	c-0.2,0.9-0.3,1.9-0.5,2.8c-1.4,7.5-3.1,14.9-5.2,22.2c-1.1,3.7-2.2,7.3-3.4,10.9c-0.6,1.8-1.3,3.6-1.9,5.4
	c-0.7,1.8-1.4,3.6-2.3,5.3c-0.9,1.7-2,3.4-3.5,4.8c-0.7,0.7-1.6,1.3-2.5,1.7c-0.9,0.5-2,0.8-3,0.8c-1,0-2.1-0.1-3.1-0.4
	c-1-0.3-1.9-0.8-2.8-1.4c-0.8-0.6-1.6-1.5-2-2.5c-0.5-1-0.6-2.2-0.3-3.3l1.7,0.3c-0.8,6.5-2.3,12.9-4.7,19.1
	c-2.4,6.1-5.5,11.9-9.3,17.3c-3.8,5.4-8.1,10.3-12.9,14.8c-1.2,1.1-2.4,2.2-3.7,3.2c-0.6,0.5-1.3,1-1.9,1.6l-2,1.5l-1,0.7l-1,0.7
	l-2,1.4c-0.7,0.5-1.4,0.9-2.1,1.3c-0.7,0.4-1.4,0.9-2.1,1.3c-11.3,6.6-24.2,10.8-37.4,11.3l-2.5,0.1c-0.8,0-1.6,0-2.5,0
	c-1.6,0-3.3-0.2-4.9-0.3c-3.3-0.3-6.5-0.8-9.7-1.5c-3.2-0.7-6.4-1.6-9.5-2.6c-3.1-1.1-6.2-2.3-9.1-3.7c-5.9-2.9-11.5-6.5-16.4-10.8
	c-5-4.3-9.4-9.2-13.3-14.4c-3.9-5.2-7.4-10.7-10.7-16.3c-1.7-2.8-3.3-5.6-4.8-8.5c-1.6-2.9-3-5.7-4.5-8.7
	c-5.6-11.7-10.2-24.1-12.2-36.9c-1-6.4-1.4-13-0.9-19.5C144.1,236,145.5,229.5,147.8,223.5z"/>
<path fill="#241F20" d="M243,192.6c2.1,3.9,3.6,8.1,4.8,12.4c0.3,1.1,0.6,2.1,0.8,3.2l0.7,3.3c0.2,1.1,0.3,2.2,0.5,3.3l0.4,3.3
	l0.2,3.3l0.1,3.3l-0.1,3.3c-0.1,1.1-0.2,2.2-0.3,3.3c-0.4,4.4-1.3,8.8-2.7,13c0.5-4.4,0.8-8.7,0.9-13.1c0-1.1,0-2.2,0-3.3l-0.1-3.3
	l-0.1-3.3l-0.2-3.2l-0.3-3.2c-0.1-1.1-0.3-2.1-0.4-3.2l-0.5-3.2c-0.2-1.1-0.4-2.1-0.6-3.2C245.3,201.1,244.2,196.8,243,192.6z"/>
<path fill="#241F20" d="M231.8,242.1c-1.2,1.1-2.4,2.3-3.4,3.5c-1.1,1.2-2,2.5-2.7,3.9c-0.3,0.7-0.6,1.5-0.8,2.2
	c-0.1,0.7-0.2,1.5-0.1,2.3c0.1,1.5,0.7,3,1.6,4.1c0.5,0.5,1,1,1.6,1.2c0.1,0.1,0.3,0.1,0.5,0.2c0.2,0,0.3,0.1,0.5,0.1
	c0.3,0.1,0.7,0.1,1.1,0.1c1.5,0,3.1-0.4,5-0.2c1.9,0.2,3.5,1.1,4.9,2.1c1.4,1,2.6,2.2,3.8,3.3c1.2,1.1,2.4,2.2,3.6,3
	c1.3,0.8,2.6,1.3,4,1.3c1.4,0,2.7-0.7,4.1-1.5c1.4-0.8,2.9-1.6,4.5-2.3c1.6-0.7,3.2-1.1,4.8-1.5c1.6-0.4,3.3-0.6,5-0.7
	c3.4-0.2,6.7,0.3,9.9,1.2l-0.4,0.3c0.2-1.8,0.5-3.6,0.7-5.3c0,1.8,0,3.6-0.1,5.4l0,0.4l-0.4-0.1c-6.4-1.3-13-0.6-18.8,2.1
	c-1.5,0.7-2.8,1.4-4.2,2.3c-0.7,0.4-1.5,0.9-2.3,1.2c-0.8,0.3-1.8,0.6-2.7,0.6c-1,0-1.9-0.1-2.8-0.4c-0.9-0.3-1.7-0.7-2.5-1.2
	c-1.5-1-2.7-2.1-3.9-3.3c-1.2-1.1-2.4-2.2-3.6-3.1c-1.2-0.9-2.6-1.6-4-1.8c-1.4-0.2-3,0.1-4.8,0c-0.9,0-1.9-0.2-2.7-0.7
	c-0.9-0.4-1.6-1.1-2.2-1.8c-1.1-1.5-1.6-3.3-1.7-5c0-0.9,0.1-1.8,0.3-2.6c0.2-0.9,0.6-1.6,1-2.4c0.9-1.5,2-2.8,3.2-3.9
	C229.2,244,230.5,243,231.8,242.1z"/>
<path fill="#241F20" d="M316.8,181.8c1.8,0.8,3.2,2.2,4.6,3.5c6,5.8,11.7,11.9,17.2,18.2c-4.1,0.4-8.4-0.4-12-2.5
	c-3.5-2-6.3-5-9.7-7.2c-8.7-5.5-18.4-3.1-27.3-4.6C292.2,181.2,309.9,178.6,316.8,181.8z"/>
<path fill="#241F20" d="M205.8,169.1c-1.5-0.6-3-1.2-4.6-1.2c-1.8,0-3.4,0.8-5,1.6c-10.3,5.3-19.2,13.4-25.5,23.3
	c4.2-5.7,9.3-11.2,16-13.8c8.9-3.4,18.8-0.9,28,1.5c8,2.1,15.7,5.7,22.9,8.6C233.6,176.4,216.8,173.4,205.8,169.1z"/>
<path fill="#241F20" d="M200.1,282.7c3.7-1.2,7.4-2.3,11.1-3.2c3.8-0.9,7.6-1.5,11.6-1.6c1,0,2,0,3,0.1l1.5,0.1l1.5,0.2l0.7,0.1
	l0.7,0.1l1.5,0.3c0.5,0.1,1,0.3,1.4,0.4c0.5,0.1,1,0.3,1.4,0.4c3.8,1.3,7.1,3.6,10.5,4.9c0.9,0.3,1.7,0.6,2.6,0.8
	c0.9,0.2,1.8,0.3,2.7,0.3c1.8,0,3.7-0.2,5.6-0.5c1.9-0.3,3.9-0.5,5.9-0.5c2,0.1,4.1,0.5,5.9,1.2c1.9,0.7,3.7,1.5,5.4,2.4
	c1.7,0.9,3.4,1.8,5.1,2.6c3.4,1.7,7.1,3.1,10.9,2.8c-1.9,0.4-3.9,0.3-5.8-0.1c-1.9-0.4-3.8-1-5.6-1.7c-3.6-1.5-7-3.3-10.6-4.3
	c-1.8-0.6-3.6-0.8-5.4-0.9c-1.8,0-3.7,0.3-5.6,0.6c-1.9,0.3-3.9,0.6-5.9,0.6c-1,0-2.1-0.1-3.1-0.3c-1-0.2-2-0.5-2.9-0.9
	c-3.8-1.5-6.9-3.7-10.4-5c-3.5-1.4-7.2-1.8-11-2c-3.8-0.1-7.6,0.3-11.4,0.9C207.6,281.1,203.9,282,200.1,282.7z"/>
<path fill="#241F20" d="M199,289.9c4.8,6.8,11.2,12.3,18.3,16.3c3.6,2,7.3,3.8,11.1,5.2c3.8,1.4,7.8,2.5,11.8,3.3
	c4,0.8,8.1,1.3,12.1,1.3c2,0,4.1-0.1,6.1-0.4c2-0.3,4-0.8,5.9-1.4c7.7-2.5,14.7-7.4,20-13.8c-4.6,6.9-11.5,12.5-19.4,15.4
	c-4,1.5-8.3,2.2-12.5,2.3c-4.3,0.1-8.5-0.4-12.6-1.3c-4.1-0.8-8.2-2-12.1-3.5c-3.9-1.5-7.7-3.4-11.3-5.6
	C209.2,303.3,203,297.2,199,289.9z"/>
<path fill="#241F20" d="M187.9,276.4c7.2,5.8,15.9,9.5,24.9,10.5c4.5,0.5,9.1,0.6,13.8,0.8c2.3,0.1,4.7,0.4,7,0.7
	c2.3,0.4,4.6,1,6.9,1.6c2.2,0.6,4.4,1.3,6.6,1.9c2.2,0.6,4.4,1,6.7,1.3c4.5,0.6,9.1,0.8,13.7,1.1c4.6,0.3,9.2,0.4,13.8,0.1
	c4.6-0.3,9.1-1.2,13.4-2.9c-4.1,2.2-8.7,3.4-13.3,4c-4.6,0.6-9.3,0.7-13.9,0.5c-2.3-0.1-4.6-0.1-6.9-0.2c-2.3-0.1-4.6-0.3-7-0.5
	c-2.3-0.3-4.7-0.7-6.9-1.3c-2.3-0.6-4.5-1.2-6.7-1.9c-2.2-0.6-4.4-1.2-6.6-1.6c-2.2-0.4-4.5-0.6-6.8-0.8c-4.6-0.4-9.2-0.5-13.9-1.2
	C203.3,287.3,194.5,282.9,187.9,276.4z"/>
<path fill="#241F20" d="M282.6,218.9c-0.4-0.4-1-0.5-1.5-0.5c-0.5,0-1.1,0-1.7,0c-0.6-0.1-1.2-0.2-1.7-0.6c-0.3-0.2-0.5-0.5-0.6-0.9
	c-0.1-0.4-0.1-0.8,0-1.1c0.3-0.7,0.9-1.2,1.5-1.5c0.7-0.2,1.3-0.3,1.9-0.3c0.6,0,1.1,0,1.6,0c0.5,0,1.1,0,1.6-0.1
	c2.1-0.2,4.3-0.7,6.5-1.1c2.2-0.4,4.5-0.7,6.8-0.5c2.3,0.2,4.6,0.7,6.7,1.4c2.1,0.7,4.2,1.6,6.2,2.5c4,1.8,7.9,3.8,12.2,5
	c-4.5-0.3-8.8-1.9-12.9-3.4c-2.1-0.7-4.1-1.5-6.2-2.1c-2.1-0.6-4.2-1.1-6.3-1.2c-2.1-0.2-4.2,0.1-6.4,0.4c-2.2,0.3-4.4,0.7-6.7,0.7
	c-0.6,0-1.1,0-1.7,0c-0.6,0-1.2-0.1-1.7-0.2c-0.5-0.1-1-0.1-1.4,0c-0.4,0.1-0.7,0.4-0.9,0.7c-0.2,0.3-0.1,0.7,0.2,1
	c0.3,0.3,0.8,0.5,1.3,0.7c0.5,0.1,1.1,0.2,1.6,0.3C281.7,218.2,282.2,218.4,282.6,218.9z"/>
<path fill="#241F20" d="M224,210.2c0.5,0.3,1,0.6,1.6,0.8c0.5,0.2,1.1,0.4,1.6,0.3c0.5,0,1-0.3,1.3-0.6c0.3-0.4,0.5-0.8,0.4-1.2
	c-0.1-0.3-0.4-0.6-0.9-0.7c-0.5-0.1-1-0.1-1.7-0.2c-1.3-0.2-2.5-0.7-3.6-1.2c-2.2-1.1-4.1-2.5-6.2-3.3c-2-0.9-4.3-1.4-6.5-1.6
	c-2.3-0.2-4.6-0.2-6.9-0.1c-2.3,0.1-4.7,0.3-7,0.5c-4.7,0.5-9.3,1.4-13.9,2.5c4.3-2,8.9-3.4,13.7-4.2c4.7-0.8,9.5-1.3,14.4-0.9
	c2.4,0.3,4.9,0.8,7.2,1.8c2.3,1.1,4.2,2.6,6.1,3.7c1,0.6,2,1,3,1.3c0.5,0.1,1.1,0.2,1.8,0.5c0.6,0.2,1.4,0.8,1.6,1.7
	c0.1,0.4,0,0.8-0.2,1.2c-0.2,0.3-0.4,0.6-0.7,0.8c-0.5,0.4-1.2,0.7-1.9,0.6C225.9,211.8,224.9,211,224,210.2z"/>
<path fill="#241F20" d="M280.6,208.6c0.8-1.7,2.2-3.2,3.7-4.3c1.6-1.1,3.4-1.9,5.3-2.5c1.9-0.5,3.8-0.8,5.8-0.8c2,0,3.9,0.2,5.8,0.7
	c3.8,0.8,7.4,2.5,10.5,4.7c3.1,2.2,5.8,5.1,7.6,8.4c-2.6-2.7-5.5-5-8.6-6.9c-3.1-1.8-6.5-3.2-10-4c-1.8-0.4-3.5-0.6-5.3-0.7
	c-1.8-0.1-3.6,0.1-5.3,0.4C286.5,204.1,283.1,205.7,280.6,208.6z"/>
<path fill="#241F20" d="M227.9,201c-3.1-2.1-6.3-3.7-9.7-4.9c-3.4-1.2-6.9-1.8-10.5-2.1c-3.6-0.2-7.1,0.1-10.6,0.9l-1.3,0.3
	c-0.4,0.1-0.9,0.3-1.3,0.4l-1.3,0.4l-1.3,0.5c-0.4,0.2-0.9,0.3-1.3,0.5c-0.4,0.2-0.9,0.4-1.3,0.5c-0.5,0.1-0.9,0.3-1.4,0.3
	c-0.5,0-1-0.1-1.4-0.3c0.9,0.2,1.8-0.2,2.6-0.6c0.4-0.2,0.8-0.5,1.2-0.7c0.4-0.3,0.8-0.5,1.2-0.7l1.2-0.7l1.3-0.6
	c0.8-0.4,1.7-0.7,2.6-1c3.6-1.2,7.4-1.7,11.2-1.5c3.8,0.2,7.5,1.1,11,2.7C222.3,196,225.5,198.2,227.9,201z"/>
<path fill="#241F20" d="M290.7,213.6c-0.9,2.1-0.6,4.4,0.4,6c0.3,0.4,0.6,0.7,0.9,1c0.4,0.3,0.8,0.5,1.2,0.7
	c0.9,0.4,1.8,0.6,2.9,0.7c1,0.1,2.1,0.1,3.2,0.1c1.1,0,2.1-0.1,3.1-0.3c1-0.2,1.9-0.6,2.6-1.3c0.7-0.7,1.3-1.6,1.3-2.8
	c0.2,0.5,0.3,1.1,0.2,1.8c-0.1,0.6-0.3,1.2-0.6,1.7c-0.3,0.5-0.8,1-1.3,1.4c-0.5,0.4-1.1,0.7-1.7,0.9c-1.2,0.5-2.4,0.6-3.5,0.8
	c-1.2,0.1-2.3,0.2-3.6,0c-1.2-0.1-2.5-0.4-3.6-1.1c-0.6-0.3-1.1-0.7-1.6-1.2c-0.5-0.5-0.9-1-1.1-1.6c-0.6-1.2-0.7-2.5-0.5-3.7
	C289.3,215.5,289.8,214.4,290.7,213.6z"/>
<path fill="#241F20" d="M199.1,202.6c-0.3,1.1-0.3,2.2,0,3.1c0.3,1,0.9,1.8,1.6,2.4c1.4,1.3,3.4,1.8,5.4,1.9c2,0.1,4.1-0.2,5.8-1.1
	c0.8-0.5,1.6-1.1,2.2-2c0.6-0.8,1-1.8,1-3c0.5,1,0.4,2.3,0,3.5c-0.4,1.1-1.2,2.2-2.2,2.9c-1,0.8-2.1,1.3-3.3,1.6
	c-1.2,0.3-2.4,0.4-3.6,0.3c-1.2-0.1-2.4-0.3-3.6-0.8c-1.1-0.5-2.2-1.2-3-2.2c-0.8-1-1.3-2.2-1.3-3.4
	C197.9,204.7,198.3,203.4,199.1,202.6z"/>
<path fill="#241F20" d="M225.6,94.9c-0.5-4.5,0.2-9.2,1.8-13.5c0.8-2.1,1.9-4.2,3.2-6.1c1.3-1.9,2.8-3.6,4.5-5.2
	c3.4-3.1,7.3-5.5,11.5-7.5c4.1-2,8.4-3.6,12.7-5.1l0.1,0.3c-3.4,1.3-6.7,2.5-10,4c-3.3,1.5-6.4,3.2-9.3,5.4
	c-2.9,2.1-5.4,4.7-7.3,7.7c-1.9,3-3.3,6.4-3.6,9.9l-0.5-0.1c2.9-5.5,5.8-11.1,9.3-16.3c3.5-5.2,7.7-10,12.9-13.6
	c5.2-3.6,11.1-6.1,17.3-7.3c6.2-1.2,12.6-1.1,18.8,0.4l0.3,0.1l0,0.3c0.1,0.4,0,0.8-0.2,1.2c-0.2,0.4-0.4,0.7-0.7,0.9
	c-0.6,0.5-1.2,0.8-1.9,1c-0.7,0.2-1.3,0.4-1.9,0.5l-1.9,0.5c-2.6,0.6-5.1,1.1-7.7,1.7c-5.1,1.1-10.2,2.3-15.1,4.1
	c-4.9,1.7-9.6,4.1-13.7,7.2c-4.1,3.1-7.6,7.1-9.7,11.8l-0.5-0.8c1.5,0.1,3.1-0.2,4.5-0.9c1.4-0.6,2.8-1.5,4.1-2.5
	c1.3-1,2.5-2.1,3.8-3.1l1.9-1.6c0.6-0.5,1.3-1,2-1.5c5.2-4,10.9-7.6,16.7-10.6c5.9-3,12-5.5,18.3-7.5c0.8-0.3,1.6-0.5,2.4-0.7
	c0.8-0.2,1.6-0.5,2.4-0.6c1.6-0.4,3.2-0.8,4.9-1.1c1.7-0.3,3.4-0.4,5.1-0.3c1.7,0.1,3.5,0.6,5,1.6l1.3,0.8l-1.5,0.4l-17.4,4.8
	c-5.8,1.6-11.5,3.4-16.9,6c-5.4,2.6-10.4,5.8-15,9.7c-2.3,1.9-4.4,4-6.2,6.3c-1.7,2.3-3,5-3.1,7.9l-1.3-0.7l11.6-9.5
	c3.9-3.2,7.8-6.3,11.8-9.3c4.1-3,8.3-5.7,12.8-8c2.3-1.1,4.6-2.2,7.1-2.9c2.5-0.7,5.1-1.1,7.7-0.9l3,0.2l-2.6,1.5
	c-3.8,2.2-7.9,3.9-11.9,5.4c-4,1.6-8.1,3-12,4.8c-3.9,1.7-7.7,3.8-11,6.4c-3.3,2.6-6.2,5.7-8.1,9.4l-0.3-1.2
	c0.7,0.5,1.6,0.5,2.6,0.2c1-0.3,1.9-0.8,2.9-1.4c1-0.6,2-1.1,3-1.7c1-0.6,2-1.2,2.9-1.8c3.9-2.5,7.7-5.1,11.6-7.7
	c3.9-2.6,7.9-5.1,12-7.2c4.2-2.2,8.6-4,13.2-5.1l1.1-0.3l0.1,1.1c0.1,0.8,0,1.6-0.3,2.3c-0.2,0.7-0.6,1.4-1.1,2
	c-0.9,1.1-1.9,2-3,2.8c-1.1,0.8-2.2,1.4-3.2,2.2l-3.2,2.1l-12.9,8.4c-4.3,2.8-8.6,5.5-12.6,8.7c-3.9,3.1-7.4,6.9-9.6,11.3l-1.2-1.4
	c5-1.6,9.4-4.9,13.6-8.3c2.1-1.7,4.1-3.6,6.2-5.3c2.1-1.8,4.3-3.5,6.5-5.1c4.4-3.3,9.1-6.3,13.9-9c2.4-1.4,4.8-2.6,7.3-3.9
	c0.6-0.3,1.2-0.6,1.9-0.9c0.6-0.3,1.3-0.6,2-0.9c0.7-0.2,1.5-0.5,2.3-0.5c0.8,0,1.9,0.3,2.6,1l0.7,0.7l-0.7,0.7
	c-1.5,1.6-3.2,2.9-4.9,4c-1.7,1.1-3.5,2.1-5.3,3.1l-10.5,6l-21.1,12l-1-1.9c5.4-2.5,10.7-4.9,16.2-7.1c5.5-2.2,11.1-4.1,17-5.5
	c2.9-0.7,5.9-1.2,8.8-1.6c0.7-0.1,1.5-0.1,2.2-0.2c0.7,0,1.5-0.2,2.2-0.2c1.5,0,3-0.1,4.5,0l2.3,0.1l2.2,0.2c1.5,0.1,3,0.4,4.5,0.7
	c1.5,0.4,3,0.9,4.4,1.7c0.7,0.4,1.4,0.8,2,1.4c0.6,0.5,1.2,1.2,1.7,1.8l0.8,1.1l-1.2,0.5c-2,0.9-4.2,1.1-6.2,1
	c-2.1-0.1-4-0.5-5.9-0.9c-3.8-0.8-7.6-1.4-11.4-1.7c-3.8-0.3-7.7-0.3-11.5-0.1c-3.8,0.2-7.6,0.8-11.4,1.5l-0.5-2.1
	c6.4-1.9,13-3.2,19.6-3.7c6.6-0.5,13.3-0.3,19.9,0.6c3.3,0.5,6.6,1.2,9.8,2c3.2,0.8,6.5,1.9,9.5,3.5c3,1.5,5.9,3.6,8.1,6.3
	c2.2,2.6,3.9,5.9,4.3,9.4l0.3,2.2l-1.9-1.1c-6.9-4.1-14-7.6-21.6-10.1c-7.5-2.5-15.4-3.9-23.3-3.5l0.3-2.1c4.5,1.8,8.9,3.9,13.1,6.4
	c4.2,2.5,8.1,5.4,11.8,8.7c3.6,3.2,7,6.8,10.1,10.6c1.5,1.9,3,3.9,4.2,6.1c0.6,1.1,1.1,2.3,1.4,3.6c0.3,1.3,0.5,2.6,0.4,3.9
	l-0.3,2.9l-1.7-2.3c-4.6-6.4-9.2-12.8-14.5-18.5c-2.7-2.8-5.5-5.5-8.6-7.8c-3.1-2.3-6.4-4.3-10-5.8l1-1.8c6.2,4.4,12.4,9,17.8,14.5
	c2.7,2.8,5.2,5.8,7.2,9.1c2,3.3,3.6,7,4.4,10.8l0.4,1.8l-1.7-0.6c-0.7-0.3-1.4-0.6-2-1c-0.6-0.4-1.2-0.8-1.8-1.3c-1.1-0.9-2.1-2-3-3
	c-0.9-1.1-1.7-2.1-2.6-3.1c-0.9-1-1.8-2-2.7-2.9c-3.8-3.8-8.1-7-12.9-9.4c-4.8-2.4-10-3.9-15.2-4.2c-2.6-0.2-5.3-0.1-7.9,0.3
	c-2.6,0.4-5.2,1.1-7.6,2.1l-0.1-1.8c5.7,1.8,11.8,2.2,17.6,1.1l0.3,1.9c-6.6,1.1-13.1,3.4-18.9,6.7l-0.9-1.7
	c5.1-2.3,10.3-4.3,15.8-5.6c2.7-0.6,5.5-1,8.4-1.1c2.8-0.1,5.7,0.1,8.5,0.7c2.8,0.6,5.5,1.5,8,2.8c0.6,0.3,1.2,0.7,1.9,1.1
	c0.6,0.4,1.2,0.8,1.8,1.2c0.6,0.4,1.1,0.9,1.7,1.4l0.2,0.2l0.2,0.2c0.1,0.1,0.3,0.3,0.4,0.5c0.3,0.3,0.5,0.7,0.7,1.1
	c0.2,0.4,0.3,0.8,0.4,1.4c0,0.5-0.2,1.2-0.6,1.6c-0.4,0.4-0.9,0.7-1.4,0.8c-0.4,0.1-0.8,0.1-1.2,0.1c-1.4,0.1-2.9,0.1-4.3-0.1
	c-2.9-0.3-5.6-1.1-8.2-2.4l-5.6-2.8l6.2,1.1c5.1,0.9,9.9,3.1,14.1,6.1c4.2,3,7.7,6.8,10.5,11.1c2.8,4.3,4.8,9.1,6.1,14
	c1.4,4.9,2.1,10,2.4,15l0.2,3.8l-1.8-3.4c-3.2-6.2-6.5-12.4-10.6-18.1c-2.1-2.8-4.3-5.5-6.8-7.8c-2.5-2.4-5.3-4.4-8.4-6l0.9-1.2
	c6.4,8,11.9,16.7,16.4,25.9l-1.3,0.7c-1.9-3.6-3.8-7.1-5.9-10.5c-2.1-3.4-4.5-6.7-7.2-9.6c-2.7-2.9-5.8-5.4-9.3-7.3
	c-3.5-1.9-7.3-3.1-11.3-3.3l0.4-1.2c6,3.4,11.7,7.4,16.7,12.2c5,4.7,9.4,10.2,12.6,16.4c3.1,6.2,5,13,6.2,19.7
	c1.2,6.8,1.7,13.7,2.2,20.5l-1,0.1c-0.2-8.5-2.1-16.9-5.6-24.7l0.8-0.4c3.7,7.9,6.7,16.1,8.9,24.5l-0.8,0.1
	c-0.6-5.7-0.2-11.5,1-17.1l0.3-1.5l0.4,1.5c3.3,13.5,3,27.9-0.9,41.3l-0.2,0.7l-0.3-0.6c-1.1-2.2-1.8-4.6-2.2-7
	c-0.4-2.4-0.7-4.8-0.9-7.3c-0.3-2.4-0.6-4.8-1.3-7.1c-0.7-2.3-1.8-4.5-3.4-6.3l0.3-0.2c1.1,3,2.2,6,3.1,9c0.9,3,1.7,6.1,2.1,9.3
	c0.4,3.2,0.5,6.4,0,9.5c-0.4,3.2-1.4,6.3-3,9l-0.1,0.2l-0.1-0.2l-5.5-11.7l0.1,0c1.3,6.1,2.2,12.3,2.7,18.5
	c-0.6-6.2-1.5-12.4-2.8-18.5l-0.1-0.5l0.2,0.4l5.5,11.7l-0.2,0c1.6-2.8,2.5-5.8,2.9-9c0.4-3.1,0.3-6.3-0.1-9.5
	c-0.4-3.1-1.2-6.2-2.2-9.2c-0.9-3-2.1-6-3.2-9l-0.4-0.9l0.7,0.7c1.7,1.8,2.8,4.1,3.6,6.4c0.7,2.4,1.1,4.8,1.4,7.2
	c0.3,2.4,0.5,4.8,1,7.2c0.4,2.4,1.1,4.7,2.2,6.9l-0.5,0c3.8-13.3,4-27.6,0.7-41l0.7,0c-1.2,5.5-1.5,11.2-0.9,16.9l-0.8,0.1
	c-2.2-8.4-5.2-16.5-8.9-24.3l0.8-0.4c3.6,7.8,5.6,16.4,5.8,25l-1,0.1c-0.5-6.8-1.1-13.7-2.2-20.4c-1.2-6.7-3-13.3-6.1-19.4
	c-3.1-6.1-7.4-11.4-12.4-16.1c-5-4.6-10.6-8.6-16.5-12l-2.3-1.3l2.7,0.1c4.2,0.2,8.2,1.4,11.9,3.4c3.6,2,6.9,4.6,9.7,7.6
	c2.8,3,5.2,6.3,7.4,9.8c2.2,3.5,4.1,7,6,10.6l-1.3,0.7c-4.5-9.1-9.9-17.7-16.3-25.6l-2.2-2.8l3.2,1.6c3.2,1.6,6.2,3.8,8.8,6.2
	c2.6,2.4,5,5.2,7.1,8c4.2,5.7,7.6,12,10.8,18.3l-1.6,0.4c-0.3-5-1-9.9-2.4-14.6c-1.3-4.8-3.3-9.3-6-13.5c-2.7-4.1-6.1-7.8-10.1-10.6
	c-4-2.9-8.5-4.9-13.3-5.7l0.6-1.7c2.4,1.2,5,1.9,7.6,2.2c1.3,0.1,2.7,0.2,4,0.1c0.7,0,1.2-0.1,1.3-0.3c0.1-0.1,0.1-0.1,0.1-0.3
	c0-0.2-0.1-0.4-0.2-0.6c-0.1-0.2-0.3-0.5-0.4-0.7c-0.1-0.1-0.2-0.2-0.3-0.3l-0.2-0.1l-0.2-0.2c-0.5-0.4-1-0.9-1.5-1.3
	c-0.5-0.4-1.1-0.8-1.6-1.1c-0.6-0.3-1.1-0.7-1.7-1c-2.4-1.2-4.9-2.1-7.5-2.6c-5.3-1.1-10.8-0.8-16,0.4c-5.3,1.2-10.4,3.2-15.4,5.4
	l-0.9-1.7c6-3.5,12.7-5.8,19.5-7l0.3,1.9c-6.2,1.1-12.6,0.7-18.5-1.2l-2.6-0.8l2.5-1c2.6-1.1,5.3-1.8,8.1-2.2
	c2.8-0.4,5.6-0.5,8.3-0.3c5.6,0.4,11,1.9,16,4.4c5,2.5,9.5,5.8,13.4,9.7c1,1,1.9,2,2.8,3c0.9,1,1.8,2.1,2.6,3.1
	c1.7,2,3.6,3.9,5.9,4.7l-1.3,1.2c-0.8-3.6-2.3-7-4.2-10.2c-1.9-3.2-4.3-6.1-6.9-8.7c-5.2-5.4-11.3-9.8-17.5-14.2l-7.7-5.5l8.7,3.7
	c3.7,1.6,7.2,3.7,10.4,6.1c3.2,2.4,6.1,5.1,8.9,8.1c5.5,5.8,10.1,12.3,14.7,18.7l-1.9,0.5c0.2-2.1-0.5-4.3-1.5-6.3
	c-1.1-2-2.5-3.9-4-5.8c-2.9-3.7-6.3-7.2-9.8-10.3c-3.6-3.1-7.4-5.9-11.5-8.4c-4.1-2.5-8.4-4.5-12.8-6.3l-4.8-1.8l5.1-0.3
	c4.1-0.2,8.2,0.1,12.2,0.7c4,0.6,8,1.6,11.9,2.9c7.7,2.6,15.1,6.2,22,10.3l-1.7,1.1c-0.4-3-1.8-5.9-3.8-8.3c-2-2.4-4.6-4.3-7.4-5.7
	c-2.8-1.4-5.9-2.5-9-3.3c-3.2-0.8-6.3-1.5-9.6-1.9c-6.4-0.9-13-1.2-19.5-0.6c-6.5,0.5-12.9,1.7-19.1,3.6l-0.5-2.1
	c3.9-0.8,7.8-1.3,11.7-1.6c3.9-0.3,7.9-0.2,11.8,0.1c3.9,0.3,7.8,0.9,11.7,1.7c1.9,0.4,3.8,0.8,5.6,0.9c1.8,0.1,3.6-0.1,5.2-0.8
	l-0.4,1.6c-1.5-2.1-4.1-3.4-6.8-4c-1.4-0.3-2.8-0.6-4.2-0.7l-2.2-0.2l-2.2-0.1c-1.4-0.1-2.9,0-4.3,0c-0.7,0-1.4,0.1-2.2,0.1
	c-0.7,0.1-1.4,0.1-2.2,0.2c-2.9,0.4-5.7,0.8-8.6,1.5c-5.7,1.3-11.2,3.2-16.7,5.4c-5.4,2.2-10.8,4.6-16.1,7l-1-1.9l21.1-12l10.5-6
	c3.5-2,7.1-3.9,9.7-6.7l0,1.4c-0.3-0.3-0.6-0.4-1.2-0.4c-0.5,0-1.1,0.1-1.7,0.3c-0.6,0.2-1.2,0.5-1.8,0.8c-0.6,0.3-1.2,0.6-1.8,0.9
	c-2.4,1.2-4.8,2.5-7.2,3.8c-4.7,2.7-9.3,5.6-13.7,8.9c-2.2,1.6-4.3,3.3-6.4,5c-2.1,1.7-4.1,3.5-6.3,5.3c-2.1,1.8-4.3,3.5-6.7,5
	c-2.3,1.5-4.9,2.8-7.6,3.7l-2.2,0.7l1-2.1c2.3-4.8,6.1-8.8,10.1-12c4.1-3.3,8.5-6,12.7-8.8l12.9-8.4l3.2-2.1
	c1.1-0.7,2.2-1.4,3.2-2.1c1-0.7,1.9-1.5,2.6-2.4c0.7-0.9,1-1.9,0.9-2.9l1.2,0.8c-4.4,1.1-8.7,2.8-12.8,4.9c-4.1,2.1-8,4.6-11.9,7.1
	c-3.9,2.6-7.7,5.2-11.6,7.7c-1,0.6-2,1.3-3,1.9c-1,0.6-2,1.2-3,1.8c-1,0.6-2.1,1.2-3.4,1.6c-0.6,0.2-1.3,0.3-2,0.3
	c-0.7,0-1.5-0.3-2.1-0.7l-0.7-0.5l0.4-0.7c2.1-4,5.2-7.4,8.7-10c3.5-2.7,7.4-4.8,11.4-6.6c4-1.8,8.1-3.2,12.1-4.8
	c4-1.5,8-3.2,11.7-5.3l0.4,1.6c-2.4-0.1-4.8,0.2-7.1,0.9c-2.3,0.7-4.6,1.6-6.8,2.7c-4.4,2.2-8.6,4.9-12.6,7.9c-4,2.9-7.9,6-11.8,9.2
	l-11.6,9.5l-1.4,1.1l0.1-1.8c0.2-3.2,1.6-6.2,3.5-8.7c1.9-2.5,4.1-4.6,6.4-6.6c4.7-3.9,9.8-7.2,15.3-9.8c5.5-2.6,11.3-4.4,17.2-6
	l17.5-4.7l-0.2,1.2c-1.3-0.8-2.8-1.2-4.4-1.4c-1.6-0.1-3.2,0-4.7,0.3c-1.6,0.2-3.2,0.7-4.8,1.1c-0.8,0.2-1.6,0.4-2.4,0.6
	c-0.8,0.2-1.6,0.4-2.4,0.7c-6.2,1.9-12.3,4.4-18.2,7.3c-5.8,3-11.4,6.5-16.6,10.4c-0.6,0.5-1.3,1-1.9,1.5l-1.9,1.6
	c-1.3,1-2.5,2.1-3.8,3.1c-1.3,1-2.7,1.9-4.3,2.6c-0.8,0.4-1.6,0.6-2.5,0.8c-0.9,0.2-1.7,0.2-2.6,0.2l-0.8,0l0.3-0.8
	c2.2-4.9,5.9-9,10.1-12.2c4.2-3.2,9.1-5.6,14-7.3c5-1.7,10.1-2.9,15.3-4.1c2.6-0.6,5.1-1.1,7.7-1.7l1.9-0.4c0.6-0.2,1.3-0.3,1.9-0.5
	c0.6-0.2,1.1-0.5,1.6-0.9c0.4-0.4,0.7-0.8,0.6-1.3l0.3,0.4c-6-1.5-12.3-1.6-18.4-0.5c-6.1,1.1-11.9,3.6-17,7.1
	c-5.1,3.5-9.3,8.3-12.8,13.4c-3.5,5.1-6.5,10.7-9.4,16.2l-0.6,1.2l0.1-1.3c0.3-3.6,1.7-7.1,3.7-10.1c2-3,4.6-5.6,7.5-7.8
	c2.9-2.1,6.1-3.9,9.4-5.4c3.3-1.5,6.6-2.7,10-4l0.1,0.3c-4.3,1.5-8.6,3.1-12.7,5c-4.1,2-8.1,4.3-11.4,7.4c-1.7,1.5-3.2,3.2-4.5,5.1
	c-1.3,1.9-2.4,3.9-3.2,6C225.8,85.7,225.1,90.3,225.6,94.9z"/>
<path fill="#241F20" d="M218.3,77.7c0.5-9.3,4.5-18.4,11.1-25l0,0.2c-2.6-1.7-5.7-2.4-8.8-2.1c-3.1,0.3-6.1,1.5-8.3,3.5
	c-2.3,2.1-3.8,4.9-4.4,7.9c-0.6,3-0.3,6.2,0.9,9l-0.6,0.2c-1.3-6.9-2.9-13.8-4.7-20.6l0.3,0.3c-0.6-0.2-1.1,0-1.6,0.3
	c-0.5,0.3-0.9,0.8-1.2,1.4c-0.6,1.1-0.9,2.4-0.9,3.8c-0.2,2.7-0.2,5.4-0.1,8.1c0.1,5.4,0.8,10.8,1.9,16.1l0.4,1.9l-1.3-1.5
	c-2-2.3-4.1-4.5-6.3-6.4c-2.3-2-4.7-3.7-7.4-5.1c-1.3-0.7-2.7-1.2-4.1-1.7c-1.4-0.4-2.9-0.7-4.3-0.8c-1.5-0.1-2.9,0.1-4.3,0.5
	c-1.4,0.4-2.6,1.2-3.5,2.2l-0.1-0.9c3.5,2.2,7.9,2.9,11.9,1.9l0.3,1.3c-12.9,3.9-24.8,11.1-34.1,20.7l-0.9-1.2
	c2.6-1.4,5.3-2.7,8.2-3.7c2.8-1,5.8-1.8,8.8-2.2c3-0.3,6.1-0.2,9.1,0.5c3,0.7,5.9,2,8.3,4l1.3,1.1l-1.6,0.4
	c-2.4,0.6-4.9,0.5-7.3,0.1c-2.3-0.3-4.6-0.8-6.9-0.9c-4.5-0.2-8.9,1.2-12.7,3.7c-1.9,1.2-3.6,2.7-5.2,4.3c-1.6,1.6-2.9,3.4-4.2,5.4
	c-2.4,3.8-4.2,8.1-5.6,12.5l-1.5-1l8.9-7l1.2,1.5c-11.3,9.5-18.1,24.1-18.1,38.9l-2-0.3c0.8-3.1,1.6-6.2,2.6-9.2
	c1-3.1,2.2-6.1,3.8-8.9c1.6-2.9,3.5-5.5,5.9-7.8c2.4-2.3,5.2-4.1,8.4-5.2l1.6-0.5l-0.3,1.7c-0.3,1.5-0.8,3-1.6,4.3
	c-0.7,1.3-1.6,2.5-2.5,3.6c-0.9,1.1-1.9,2.2-2.8,3.2c-0.5,0.5-0.9,1.1-1.3,1.6c-0.4,0.5-0.9,1.1-1.3,1.6c-3.3,4.5-6.1,9.4-8.1,14.6
	c-2,5.2-3.3,10.7-3.9,16.2c-0.5,5.5-0.3,11.2,0.6,16.6l-2.2,0.2c0-4.8,0.1-9.7,0.9-14.6c0.4-2.4,1.1-4.8,2-7.2
	c0.9-2.3,2.2-4.5,3.9-6.4l2.9-3.4l-1,4.4c-1.6,7.3-3.1,14.7-4.5,22.1c-0.7,3.7-1.3,7.4-1.9,11.1l-0.4,2.8c-0.1,0.9-0.2,1.8-0.2,2.7
	c0,1.7,0.4,3.4,1.5,4.2l-1.8,0.9c0.1-5.6,1.4-11.2,3.6-16.4l1.7-3.8l0.4,4.1l1.7,16.5l0.4,4.1c0.2,1.4,0.2,2.8,0.5,4
	c0.1,0.6,0.3,1.2,0.6,1.7c0.1,0.2,0.3,0.5,0.4,0.7c0.1,0.2,0.3,0.4,0.5,0.5c0.4,0.3,0.9,0.5,1.4,0.5c0.5,0,0.8-0.1,1.1-0.3l1.3-1.1
	l0.5,1.5l1.8,5.8l-2.1,0.2c1.4-14.9,0.8-29.9-2-44.6l2-0.2c0.1,11.1,2.2,22.2,6.2,32.5l-1.9,0.2c1.3-9,1.3-18.1,0.5-27.2
	c-0.7-9.1-2.2-18.1-3.6-27.1l1.9-0.2c0.1,10.6,2,21.1,5.8,31l-1.6,0.1c1.2-4.2,1.7-8.5,2-12.9c0.3-4.4,0.2-8.8,0.1-13.2
	c-0.1-4.4-0.2-8.8,0-13.3c0.2-4.4,0.6-8.9,1.7-13.2l0.9-3.6l0.6,3.7l4.7,31.4l-1.3,0l1.8-10.6c0.6-3.5,1.2-7.1,1.8-10.6
	c0.6-3.5,1.4-7.1,2.3-10.6c0.9-3.5,2-6.9,3.5-10.3l0.7-1.5l0.4,1.6c1.3,6.1,0.6,12.5-2,18.1l-0.9-0.3c1.5-6.1,3.1-12.1,5.4-18
	c1.2-2.9,2.5-5.8,4.2-8.5c1.6-2.7,3.6-5.2,5.8-7.4l0.4-0.4l0.1,0.5c0.8,3.5,0.4,7.2-1.1,10.4l-0.4-0.3c3.1-3.3,6.5-6.3,10.2-8.9
	c3.7-2.6,7.6-4.9,11.8-6.7c4.1-1.8,8.4-3.3,12.9-4c2.2-0.3,4.5-0.4,6.8-0.1c2.2,0.3,4.4,1,6.4,2.1c-2-1.1-4.2-1.8-6.4-2
	c-2.2-0.2-4.5-0.2-6.7,0.2c-4.5,0.7-8.7,2.2-12.8,4.1c-4.1,1.9-8,4.1-11.6,6.8c-3.6,2.6-7,5.6-10,8.9l-1.1,1.2l0.7-1.5
	c1.4-3.1,1.8-6.7,1-10l0.5,0.1c-2.2,2.2-4.1,4.7-5.6,7.4c-1.6,2.7-2.9,5.5-4,8.4c-2.3,5.8-3.8,11.9-5.3,17.9l-0.9-0.3
	c2.5-5.5,3.1-11.7,1.8-17.5l1,0.1c-0.7,1.6-1.3,3.3-1.8,5c-0.5,1.7-1,3.4-1.5,5.1c-0.9,3.5-1.6,7-2.2,10.5
	c-0.6,3.5-1.2,7.1-1.8,10.6l-1.7,10.6l-0.7,4l-0.6-4l-4.8-31.4l1.4,0.1c-1,4.2-1.4,8.6-1.6,13c-0.2,4.4,0,8.8,0,13.2
	c0.1,4.4,0.2,8.8-0.1,13.3c-0.2,4.4-0.8,8.9-2,13.2l-0.7,2.5l-0.9-2.5c-3.8-10.1-5.9-20.8-6-31.6l1.9-0.2c1.5,9,2.9,18.1,3.7,27.3
	c0.8,9.2,0.8,18.4-0.5,27.6l-0.5,3.7l-1.4-3.5c-4.1-10.6-6.3-21.9-6.4-33.2l2-0.2c2.9,14.8,3.6,30.1,2.1,45.2l-0.5,5.3l-1.6-5.1
	l-1.8-5.8l1.7,0.5c-0.8,0.7-1.8,1-2.7,0.9c-0.9-0.1-1.7-0.4-2.5-0.9c-1.5-1.1-2.1-2.7-2.4-4.2c-0.3-1.5-0.4-2.8-0.5-4.2l-0.4-4.1
	l-1.7-16.5l2.1,0.3c-2.1,4.9-3.3,10.2-3.4,15.6l-0.1,2.1l-1.7-1.3c-1-0.7-1.6-1.8-2-2.8c-0.4-1.1-0.4-2.1-0.4-3.1c0-1,0.1-2,0.3-3
	l0.4-2.8c0.6-3.7,1.2-7.5,1.9-11.2c1.3-7.4,2.8-14.8,4.5-22.2l1.9,1c-1.5,1.7-2.6,3.7-3.5,5.8c-0.9,2.1-1.5,4.4-1.9,6.7
	c-0.8,4.6-0.9,9.4-0.9,14.2l-2.2,0.2c-1-5.7-1.2-11.5-0.6-17.2c0.6-5.7,2-11.4,4-16.8c2.1-5.4,4.9-10.4,8.4-15.1
	c0.4-0.6,0.9-1.1,1.3-1.7c0.5-0.6,0.9-1.1,1.4-1.7c0.9-1.1,1.9-2.1,2.8-3.2c1.8-2.1,3.2-4.4,3.7-7l1.3,1.2c-2.9,0.9-5.5,2.6-7.7,4.7
	c-2.2,2.1-4.1,4.6-5.6,7.3c-1.5,2.7-2.6,5.6-3.6,8.6c-1,3-1.8,6-2.6,9.1l-2,7.7l0-7.9c0-15.4,7.1-30.5,18.8-40.3l1.2,1.5l-8.9,7
	l-2.4,1.9l0.9-3c1.4-4.5,3.2-8.9,5.8-13c1.3-2,2.8-3.9,4.4-5.6c1.7-1.7,3.5-3.3,5.6-4.5c4.1-2.6,8.9-4.1,13.8-3.9
	c2.4,0.1,4.7,0.6,7,0.9c2.3,0.3,4.5,0.5,6.6-0.1l-0.3,1.5c-2.2-1.8-4.8-3-7.6-3.7c-2.8-0.7-5.7-0.8-8.5-0.5c-2.9,0.3-5.7,1-8.4,2
	c-2.7,1-5.4,2.2-8,3.6l-4.3,2.2l3.4-3.4c9.6-9.8,21.7-17.1,34.8-20.9l0.3,1.3c-4.4,1-9.1,0.2-12.8-2.2l-0.6-0.4l0.5-0.5
	c1.1-1.2,2.5-2.1,4.1-2.6c1.5-0.5,3.1-0.6,4.7-0.6c1.6,0.1,3.1,0.4,4.6,0.8c1.5,0.5,2.9,1.1,4.3,1.8c2.7,1.4,5.3,3.2,7.6,5.3
	c2.3,2,4.4,4.3,6.4,6.6l-0.9,0.4c-1.1-5.4-1.7-10.8-1.8-16.3c-0.1-2.7,0-5.5,0.2-8.2c0.1-1.4,0.4-2.8,1.1-4.1
	c0.3-0.6,0.8-1.2,1.4-1.7c0.6-0.5,1.5-0.6,2.3-0.4l0.2,0.1l0.1,0.2c1.8,6.9,3.3,13.8,4.5,20.7l0.5,2.6l-1.1-2.4
	c-1.3-2.9-1.5-6.2-0.9-9.3c0.6-3.1,2.2-6,4.6-8.1c2.4-2.1,5.5-3.3,8.6-3.6c3.1-0.2,6.4,0.5,9,2.3l0.2,0.1l-0.1,0.1
	C222.9,59.4,218.8,68.4,218.3,77.7z"/>
<path fill="#241F20" d="M124.4,200.2c-1,0-2,0-2.9,0.3c-0.5,0.1-0.9,0.3-1.4,0.5l-0.6,0.3c-0.2,0.1-0.4,0.2-0.6,0.4
	c-1.6,1.1-3,2.5-4,4.1c-2.2,3.2-3,7.1-3.1,11c0,0.5,0,1,0,1.4l0.1,1.4c0,0.5,0.1,1,0.2,1.4c0.1,0.5,0.1,1,0.2,1.4
	c0.2,0.9,0.4,1.9,0.6,2.8c0.1,0.5,0.2,0.9,0.4,1.4l0.5,1.4c1.2,3.7,3,7.2,5,10.6c2,3.4,4.3,6.6,6.8,9.7c2.4,3.2,5,6.2,7.5,9.3
	l3.8,4.6c1.3,1.5,2.6,3,4.1,4.2c0.8,0.6,1.6,1.1,2.4,1.6c0.9,0.4,1.8,0.7,2.7,0.9c1.9,0.4,4,0.2,5.7-0.9c-0.8,0.6-1.7,1.1-2.7,1.3
	c-1,0.2-2,0.3-3.1,0.2c-1-0.1-2-0.4-3-0.8c-1-0.4-1.9-0.9-2.7-1.5c-1.7-1.2-3.2-2.6-4.5-4.1c-1.4-1.5-2.7-2.9-4.1-4.4
	c-5.4-5.9-10.6-12-14.9-18.9c-1-1.8-2-3.5-2.9-5.4c-0.5-0.9-0.8-1.9-1.2-2.8c-0.2-0.5-0.4-1-0.5-1.4c-0.2-0.5-0.4-1-0.5-1.5
	l-0.4-1.5c-0.1-0.5-0.2-1-0.4-1.5c-0.3-1-0.4-2-0.6-3c-0.3-2-0.4-4.1-0.3-6.2l0-0.8l0.1-0.8l0.2-1.5l0.3-1.5l0.2-0.8l0.2-0.7
	c0.6-2,1.6-3.8,2.8-5.5c1.2-1.6,2.8-3.1,4.6-4C120.3,200.1,122.4,199.8,124.4,200.2z"/>
<path fill="#241F20" d="M201.5,285.2c6.1,4.8,12.4,9.4,19.2,13.1c3.4,1.8,6.9,3.5,10.5,4.8c3.6,1.3,7.3,2.4,11,3.1
	c3.7,0.7,7.6,0.9,11.4,0.8c3.8-0.1,7.6-0.8,11.3-1.8c7.3-2.1,14.2-6,19.4-11.8c-2.2,3.2-5.1,6-8.3,8.3c-3.2,2.3-6.8,4-10.6,5.2
	c-3.8,1.3-7.7,1.9-11.7,2.2c-4,0.2-8,0-11.9-0.7c-3.9-0.7-7.7-1.8-11.4-3.3c-3.7-1.5-7.2-3.2-10.6-5.3
	C213.1,295.7,207,290.7,201.5,285.2z"/>
<path fill="#241F20" d="M350.5,110.5c2.9,3.7,5.5,7.6,7.8,11.7c2.3,4.1,4.3,8.3,6,12.7c1.7,4.4,3.1,8.9,4.1,13.5
	c1,4.6,1.7,9.3,2.1,14l-1.5,0.1c-0.3-4.7-1.3-9.3-2.9-13.8c-1.6-4.4-3.7-8.7-6.3-12.5l1.7-0.9c3.9,9,6.7,18.5,8.2,28.3
	c0.8,4.9,1.2,9.8,1.4,14.7c0.1,4.9,0,9.9-0.5,14.8l-2.2-0.1c0.2-5.3-0.3-10.6-1.3-15.8c-1-5.2-2.6-10.3-4.8-15.1l2-0.7
	c1.4,4.9,2.5,9.9,3.1,14.9c0.7,5,1,10.1,0.9,15.2c-0.2,10.2-1.9,20.3-5.1,29.9l-0.7,2.2l-0.5-2.3c-0.6-2.8-1-5.7-1.2-8.6
	c-0.1-2.9,0-5.8,0.3-8.7l0.9,0.1c-0.5,4.6-1.2,9.2-2.2,13.7c-1,4.5-2.3,8.9-3.8,13.3c1.4-4.4,2.5-8.9,3.3-13.4
	c0.9-4.5,1.5-9.1,1.8-13.6l0.9,0.1c-0.2,2.8-0.3,5.7,0,8.5c0.2,2.8,0.6,5.7,1.3,8.4l-1.2-0.1c3-9.6,4.5-19.5,4.5-29.5
	c0-5-0.3-10-1-14.9c-0.7-4.9-1.8-9.8-3.2-14.6l2-0.7c2.2,5,3.9,10.2,5,15.6c1.1,5.4,1.5,10.8,1.4,16.3l-2.2-0.1
	c0.5-4.8,0.7-9.6,0.5-14.5c-0.1-4.8-0.6-9.7-1.3-14.4c-1.5-9.6-4.1-18.9-7.9-27.8l1.7-0.9c2.7,4,4.8,8.5,6.4,13.1
	c1.5,4.6,2.4,9.4,2.7,14.2l-1.5,0.1c-0.3-4.6-0.9-9.3-1.8-13.8c-0.9-4.6-2.2-9.1-3.8-13.4c-1.6-4.4-3.4-8.7-5.6-12.8
	C355.7,118.3,353.2,114.3,350.5,110.5z"/>
<path fill="#241F20" d="M212,292.5c0.8,0.3,1.7,0.3,2.5,0.1c0.8-0.1,1.7-0.3,2.6-0.3c1.8,0.1,3.4,1.1,5,1.6c1.6,0.5,3.3,0.8,5,0.6
	c1.7-0.2,3.2-1.2,4.2-2.6c-0.4,0.8-1,1.4-1.7,2c-0.7,0.5-1.6,0.9-2.4,1c-1.8,0.3-3.6,0.1-5.2-0.5c-1.7-0.6-3.1-1.5-4.8-1.7
	c-0.8-0.1-1.7,0.1-2.5,0.1C213.7,293,212.7,293,212,292.5z"/>
<path fill="#241F20" d="M228.5,295.7c0.7,0.3,1.4,0.6,2.2,0.8c0.7,0.2,1.5,0.3,2.3,0.4c1.5,0.2,3.1,0.3,4.6,0.5
	c0.8,0.1,1.6,0.2,2.3,0.3c0.8,0.2,1.5,0.3,2.3,0.4c1.5,0.2,3.1,0.4,4.6,0.5c0.8,0.1,1.6,0.2,2.3,0.3c0.7,0.1,1.5,0.1,2.3,0.1
	c0.8,0,1.5-0.1,2.3-0.1c0.8,0,1.6,0.2,2.3,0.4c2.9,0.9,6.3,0,8.3-2.4c-0.9,1.3-2.2,2.2-3.7,2.7c-1.5,0.5-3.2,0.5-4.7,0.1
	c-0.8-0.2-1.5-0.3-2.2-0.3c-0.8,0-1.5,0.1-2.3,0.1c-0.8,0-1.6,0-2.4-0.1c-0.8-0.1-1.5-0.2-2.3-0.3c-1.5-0.2-3.1-0.3-4.6-0.6
	c-0.8-0.1-1.6-0.3-2.3-0.5c-0.7-0.2-1.5-0.3-2.3-0.4c-1.5-0.2-3.1-0.3-4.6-0.6C231.4,296.9,229.9,296.5,228.5,295.7z"/>
<path fill="#241F20" d="M263.3,300.4c0.8,0.3,1.6,0.2,2.4,0c0.8-0.2,1.5-0.5,2.2-0.9c0.7-0.4,1.4-0.9,2-1.4c0.6-0.5,1.3-1,1.9-1.6
	c-0.9,1.4-2.1,2.6-3.6,3.4c-0.7,0.4-1.5,0.7-2.4,0.8C264.9,301,264,300.8,263.3,300.4z"/>
<path fill="#241F20" d="M143.1,269.3c3,10.6,5.2,21.4,6.9,32.3c0.4,2.7,0.8,5.5,1.1,8.2l0.9,8.2l0.7,8.2l0.5,8.3l0.2,8.3l0,8.3
	l-0.2,8.3c-0.1,2.8-0.3,5.5-0.5,8.3c-0.8,11-2.1,22-4.3,32.8c1.2-10.9,2.1-21.9,2.5-32.9c0.1-2.7,0.1-5.5,0.2-8.2l0.1-8.2l-0.1-8.2
	l-0.3-8.2l-0.4-8.2l-0.6-8.2l-0.7-8.2c-0.3-2.7-0.6-5.5-0.9-8.2C146.9,291,145.1,280.2,143.1,269.3z"/>
<path fill="#241F20" d="M324.5,293c-0.6,9.6-1.5,19.3-2.5,28.9c-0.5,4.8-1,9.6-1.5,14.4l-1.6,14.4l-1.7,14.4
	c-0.6,4.8-1.2,9.6-1.9,14.4c-1.3,9.6-2.5,19.1-2.4,28.8c-1-9.6-0.2-19.4,0.7-29c0.4-4.8,1-9.6,1.5-14.4l1.6-14.4l1.7-14.4
	c0.6-4.8,1.2-9.6,1.9-14.4C321.6,312.1,323,302.5,324.5,293z"/>
</svg>
