<?xml version="1.0" encoding="utf-8"?>
<!-- Generator: Adobe Illustrator 22.1.0, SVG Export Plug-In . SVG Version: 6.00 Build 0)  -->
<svg version="1.0" id="Calque_1" xmlns="http://www.w3.org/2000/svg" xmlns:xlink="http://www.w3.org/1999/xlink" x="0px" y="0px"
	 viewBox="0 0 500 500" enable-background="new 0 0 500 500" xml:space="preserve">
<circle fill="#F9F9FA" cx="246.1" cy="238.3" r="211.7"/>
<path fill="#241F20" d="M149,117.5c-3.3,7.9-6.4,15.9-9.2,23.9c-2.8,8.1-5.5,16.2-7.8,24.4l-1.7,6.2c-0.6,2.1-1.1,4.1-1.5,6.1
	c-0.3,2-0.5,4.1-0.2,6c0.3,1.9,1.1,3.7,2.4,5.2c0.6,0.7,1.4,1.4,2.2,1.9c0.8,0.6,1.7,1,2.6,1.5c1.8,0.9,3.8,1.5,5.9,2.1
	c2,0.6,4.1,1.2,6.2,1.9c2.1,0.7,4.2,1.6,6.1,2.9c1,0.7,1.8,1.5,2.6,2.4c0.8,0.9,1.4,2,1.8,3.1c0.4,1.1,0.7,2.3,0.8,3.5
	c0.1,1.2,0,2.4-0.2,3.5c-0.4,2.3-1.3,4.4-2.3,6.4c-1,2-2.1,3.8-3.3,5.7c-2.2,3.7-4.7,7.2-7.1,10.8c-1.3,1.7-2.5,3.5-3.8,5.2
	l-1.9,2.6l-2,2.5c-5.4,6.7-11.1,13.1-17.3,19.2c-6.1,6-12.6,11.7-19.4,17l0.2-1.6c1.9,2.3,4.4,4,7.3,5c2.8,1.1,5.9,1.7,9,1.9
	c6.2,0.5,12.5-0.3,18.9,0.2c3.2,0.2,6.4,0.8,9.4,1.9c3,1.1,5.8,2.7,8.8,3.6c1.5,0.5,3,0.8,4.6,0.8c1.5,0,3.1-0.4,4.4-1.2
	c1.4-0.7,2.6-1.7,3.4-3.1c0.9-1.3,1.1-3,0.5-4.5c0.6,1.5,0.5,3.2-0.4,4.6c-0.8,1.4-2,2.5-3.4,3.4c-1.4,0.8-3,1.3-4.6,1.4
	c-1.6,0.1-3.2-0.2-4.8-0.7c-3.1-0.9-6-2.3-8.9-3.3c-2.9-1-6-1.4-9.1-1.6c-6.2-0.3-12.5,0.7-19,0.3c-3.2-0.2-6.5-0.7-9.6-1.9
	c-3.1-1.1-6-3-8.3-5.5l-0.8-0.9l0.9-0.7c13.3-10.6,25.4-22.7,35.9-36.1c5.3-6.7,10.2-13.6,14.7-20.8c1.1-1.8,2.2-3.6,3.2-5.4
	c0.9-1.8,1.7-3.7,2.1-5.7c0.4-1.9,0.3-3.8-0.4-5.6c-0.4-0.9-0.8-1.7-1.4-2.4c-0.6-0.7-1.3-1.4-2.1-1.9c-1.6-1.1-3.5-2-5.4-2.7
	c-2-0.7-4-1.3-6.1-1.9c-2.1-0.6-4.1-1.3-6.2-2.3c-2-1-4-2.2-5.5-4c-0.7-0.9-1.4-1.9-1.9-3c-0.5-1.1-0.8-2.2-0.9-3.4
	c-0.3-2.3-0.1-4.6,0.3-6.7c0.4-2.2,1-4.2,1.7-6.3c0.6-2.1,1.2-4.1,1.9-6.1c2.6-8.2,5.4-16.3,8.6-24.2
	C142,133.1,145.3,125.2,149,117.5z"/>
<path fill="#241F20" d="M193.8,97.8c-6.8,3.4-15.1,3.8-22.5,1.4c-3.7-1.2-7.2-3.1-10.1-5.7c-2.9-2.5-5.5-5.4-8.4-7.7
	c-1.5-1.1-3-2-4.7-2.6c-1.7-0.5-3.4-0.7-5.1-0.3c-1.7,0.4-3.2,1.2-4.5,2.4c-1.3,1.1-2.4,2.5-3.2,4.1c-1.6,3.1-1.8,6.8-0.9,10.3
	c0.9,3.5,2.7,6.7,5,9.5l-2,0c0.5-0.6,0.8-1.4,0.8-2.2c0-0.8-0.3-1.7-0.7-2.5c-0.5-0.8-1.1-1.5-1.8-2.1c-0.7-0.6-1.6-1-2.4-1.2
	c-1.7-0.5-3.6,0.1-5.2,1.2c-1.6,1.1-3,2.7-4,4.4c-2,3.6-2.7,7.9-2.1,12c0.3,2.1,1,4,2.1,5.7c1.1,1.7,2.6,3,4.4,3.9l-1.6,0.5
	c0.3-0.5,0.4-1,0.3-1.5c-0.1-0.5-0.3-1.1-0.7-1.6c-0.7-1.1-1.9-1.8-3.1-2.1c-0.3-0.1-0.6-0.1-0.9-0.1l-0.5,0.1l-0.5,0.1
	c-0.6,0.2-1.3,0.5-1.8,0.8c-1.2,0.7-2.2,1.8-3,3.1c-1.6,2.4-2.2,5.6-3,8.7c-0.7,3.1-1.9,6.4-3.8,9.1c-3.8,5.5-9.7,9.2-16.1,10.4
	c-3.2,0.6-6.5,0.5-9.6-0.2l-1.2-0.3l-1.1-0.3c-0.7-0.2-1.5-0.4-2.3-0.2c-0.4,0.1-0.7,0.2-1,0.5c-0.2,0.3-0.3,0.7-0.3,1.1
	c0,0.4,0.1,0.8,0.4,1.1c0.2,0.3,0.7,0.4,1,0.2c-0.3,0.2-0.8,0.1-1.1-0.2c-0.3-0.3-0.4-0.7-0.5-1.1c0-0.4,0-0.8,0.3-1.2
	c0.3-0.4,0.7-0.5,1.1-0.7c0.8-0.2,1.7-0.1,2.5,0.1l1.2,0.3l1.2,0.2c3.1,0.6,6.3,0.5,9.3-0.2c3-0.7,5.9-2,8.5-3.8
	c2.6-1.8,4.8-4,6.4-6.6c1.7-2.6,2.6-5.5,3.3-8.6c0.3-1.5,0.6-3.1,1.1-4.7c0.4-1.6,1-3.2,1.9-4.7c0.9-1.5,2.1-2.8,3.6-3.8
	c0.8-0.5,1.6-0.9,2.5-1.1l0.7-0.2l0.7-0.1c0.5,0,1,0,1.5,0.1c1.9,0.3,3.6,1.4,4.7,3c0.6,0.8,1,1.7,1.1,2.7c0.1,1-0.1,2.2-0.6,3.1
	l-0.6,1l-1-0.5c-2.3-1-4.2-2.7-5.6-4.8c-1.3-2.1-2.1-4.4-2.5-6.7c-0.7-4.7,0-9.6,2.3-13.8c0.6-1.1,1.3-2,2.1-3
	c0.8-0.9,1.7-1.8,2.8-2.5c1.1-0.7,2.2-1.2,3.5-1.5l0.9-0.2c0.3,0,0.7,0,1-0.1c0.3,0,0.7,0,1,0.1l0.5,0.1l0.5,0.1
	c1.3,0.3,2.5,1,3.4,1.8c1,0.8,1.8,1.8,2.5,2.9c0.6,1.1,1,2.5,1,3.9c0,1.4-0.6,2.9-1.5,3.9l-1,1.2l-1-1.2c-1.2-1.6-2.4-3.2-3.3-5
	c-0.9-1.8-1.6-3.7-2.1-5.6c-0.5-2-0.6-4-0.5-6.1c0.1-2,0.8-4.1,1.7-5.9c0.9-1.8,2.3-3.4,3.9-4.8c1.6-1.3,3.5-2.3,5.6-2.7
	c2.1-0.5,4.2-0.2,6.2,0.5c2,0.7,3.7,1.8,5.2,3c3.1,2.5,5.5,5.5,8.2,8c2.7,2.5,5.9,4.5,9.4,5.8C178.8,100.7,186.8,100.7,193.8,97.8z"
	/>
<path fill="#241F20" d="M178.9,107.5c-1.7,3.4-3.3,6.9-3.7,10.6c-0.1,1.8,0,3.7,0.6,5.3c0.6,1.6,1.7,3.1,3,4.1
	c0.7,0.5,1.4,0.9,2.2,1.2c0.8,0.3,1.6,0.4,2.3,0.3c0.8-0.1,1.6-0.3,2.2-0.6c0.7-0.4,1.3-0.9,1.8-1.5c1.1-1.2,1.8-2.9,2.3-4.6
	c0.5-1.7,0.8-3.5,1-5.3l2.3,1.2c-1.7,1.5-2.8,2.8-3.4,4.7c-0.6,1.8-0.6,3.8-0.1,5.7c0.3,0.9,0.6,1.9,1.1,2.7
	c0.5,0.9,1.1,1.6,1.8,2.3c1.4,1.4,3.2,2.5,5.1,3.2c1.9,0.7,4,1,6.1,1c2.1,0,4.2-0.4,6.2-1c4.1-1.3,7.9-3.6,11.4-6.3
	c-3.1,3.1-6.7,5.9-10.9,7.6c-2.1,0.8-4.3,1.4-6.6,1.6c-2.3,0.1-4.6-0.1-6.9-0.8c-1.1-0.3-2.2-0.8-3.3-1.4c-1-0.6-2-1.3-2.9-2.1
	c-0.9-0.8-1.6-1.8-2.3-2.8c-0.6-1-1.1-2.2-1.4-3.3c-0.6-2.3-0.7-4.9,0-7.3c0.4-1.2,0.9-2.4,1.7-3.3c0.8-1,1.7-1.8,2.5-2.5l2.7-2.5
	l-0.4,3.6c-0.2,2-0.6,3.9-1.2,5.8c-0.6,1.9-1.5,3.8-3,5.5c-1.5,1.6-3.6,2.7-5.9,2.8c-1.1,0.1-2.2-0.2-3.2-0.6c-1-0.4-1.9-1-2.7-1.7
	c-1.6-1.4-2.7-3.2-3.3-5.2c-0.3-1-0.5-2-0.5-3c0-1,0-2,0.2-3c0.4-1.9,1.1-3.8,1.9-5.5C176.8,110.7,177.8,109,178.9,107.5z"/>
<path fill="#241F20" d="M205.1,87.1c-0.3-3.5,0.4-7.1,2.3-10.2c1.8-3.1,4.4-5.7,7.6-7.4c1.6-0.9,3.4-1.4,5.2-1.7
	c1.8-0.2,3.8-0.2,5.6,0.6c0.9,0.4,1.8,0.9,2.4,1.7c0.7,0.8,1.1,1.8,1.3,2.8c0.2,1,0.1,2.1-0.3,3.1c-0.4,1-1.3,1.9-2.3,2.3l-0.3,0.1
	l-0.4-0.1c-1-0.3-1.8-0.9-2.5-1.7c-0.7-0.8-1.1-1.7-1.4-2.6c-0.6-1.8-0.6-3.7-0.4-5.5c0.1-0.9,0.3-1.8,0.7-2.7
	c0.3-0.8,0.6-1.7,1-2.5l0.6-1.2c0.2-0.4,0.4-0.8,0.7-1.2c0.4-0.8,0.9-1.5,1.5-2.2c2.1-2.9,4.7-5.3,7.6-7.3c2.9-2,6.1-3.5,9.5-4.5
	c6.8-2.1,14-2,20.8-0.5c6.8,1.5,13.2,4.3,19.2,7.8l-1.6,0.2c4.8-4.6,11-7.5,17.5-8.6c3.3-0.5,6.6-0.5,9.8,0c0.8,0.1,1.6,0.3,2.4,0.5
	c0.8,0.2,1.6,0.4,2.4,0.7c1.6,0.5,3.1,1.2,4.5,1.9c5.8,3,10.8,7.6,13.7,13.4c1.4,2.9,2.3,6.1,2.2,9.4c0,1.6-0.3,3.2-0.9,4.7
	c-0.6,1.5-1.5,2.9-2.7,3.9c1.1-1.2,1.9-2.6,2.4-4c0.5-1.5,0.7-3.1,0.6-4.6c-0.1-3.1-1.1-6.2-2.6-8.9c-3.1-5.4-8-9.7-13.6-12.3
	c-2.8-1.3-5.8-2.2-8.8-2.6c-3-0.4-6.1-0.3-9.1,0.2c-6,1.1-11.7,3.9-16.1,8.2l-0.7,0.7l-0.9-0.5c-5.8-3.4-11.9-6.1-18.4-7.4
	c-3.2-0.7-6.5-1.1-9.8-1.1c-3.3,0-6.5,0.5-9.7,1.4c-3.1,0.9-6.1,2.3-8.8,4.1c-2.7,1.8-5.2,4-7.1,6.6c-0.5,0.7-1,1.3-1.4,2
	c-0.2,0.3-0.4,0.7-0.6,1l-0.5,1.1c-0.4,0.7-0.6,1.5-1,2.2c-0.3,0.7-0.5,1.5-0.6,2.3c-0.3,1.5-0.2,3.1,0.2,4.6
	c0.4,1.4,1.3,2.6,2.6,3.1l-0.7,0c1.1-0.4,1.8-1.9,1.6-3.4c-0.1-0.7-0.4-1.4-0.8-2c-0.4-0.6-1.1-1-1.8-1.4c-1.4-0.7-3.1-0.8-4.8-0.6
	c-1.6,0.2-3.3,0.6-4.9,1.4c-3.1,1.4-5.8,3.8-7.6,6.7C206,80.1,205,83.5,205.1,87.1z"/>
<path fill="#241F20" d="M192,74.6c-1.6,0.6-3.4,0.9-5.1,0.8c-1.8-0.1-3.5-0.6-5.1-1.6c-0.8-0.5-1.5-1.1-2.1-1.9
	c-0.6-0.8-1.1-1.6-1.4-2.6c-0.6-2-0.2-4.1,0.7-5.8c0.4-0.9,1.1-1.7,1.8-2.3c0.7-0.7,1.6-1.2,2.6-1.6c1-0.4,2.2-0.4,3.2-0.1l0.8,0.2
	l0.7,0.4c0.5,0.3,0.9,0.6,1.3,0.9c0.8,0.7,1.4,1.6,1.8,2.5c0.4,0.9,0.7,1.8,0.9,2.7c0.4,1.8,0.4,3.6,0.4,5.3l-0.1,4.4l-2.2-3.7
	c-0.7-1.2-2.1-1.8-3.7-2c-1.6-0.1-3.2,0.3-4.6,1.2c-1.4,0.9-2.6,2.2-3.6,3.7c-1,1.5-1.9,3.1-2.8,4.7c0.5-1.8,1.1-3.5,1.9-5.2
	c0.8-1.7,1.9-3.3,3.5-4.6c1.6-1.3,3.6-2,5.7-2c1,0,2.1,0.2,3.1,0.6c1,0.4,1.9,1.2,2.6,2.1l-2.3,0.7c-0.1-1.6-0.2-3.3-0.5-4.8
	c-0.3-1.5-0.9-2.9-1.9-3.8c-0.2-0.2-0.5-0.4-0.8-0.6l-0.4-0.2c-0.1,0-0.3-0.1-0.4-0.1c-0.6-0.1-1.2-0.2-1.8,0
	c-1.2,0.4-2.4,1.3-3.1,2.6c-0.2,0.3-0.3,0.6-0.5,1c-0.1,0.2-0.1,0.3-0.2,0.5l-0.1,0.3l0,0.3c-0.2,0.7-0.1,1.4,0,2.1
	c0.1,0.7,0.5,1.4,0.9,2c0.4,0.6,0.9,1.2,1.5,1.7C185.1,74.3,188.6,75.1,192,74.6z"/>
<path fill="#241F20" d="M241.9,112.8c-0.9,0.2-1.5,1-1.8,1.8c-0.3,0.8-0.2,1.7,0,2.5c0.3,0.8,0.7,1.5,1.2,2.3l1.6,2.2l3.2,4.3
	c1.1,1.4,2.1,3,3.1,4.3c1.1,1.3,2.3,2.5,3.8,3c1.4,0.6,3.1,0.6,4.7,0.2c3.2-0.8,6.2-2.7,8.9-4.8l2.4-1.8l-0.4,3.1
	c-0.4,3.1-0.8,6.2-0.9,9.3c-0.1,3.1,0,6.2,0.5,9.1c0.3,1.5,0.7,2.9,1.2,4.3c0.6,1.4,1.2,2.7,2.2,3.9c0.4,0.6,0.9,1.1,1.4,1.7
	c0.5,0.5,1,1.1,1.6,1.5c0.6,0.5,1.2,0.9,1.8,1.3c0.6,0.4,1.3,0.8,2,1.1c5.4,2.7,11.8,3.3,17.9,2.5c1.5-0.2,3-0.6,4.5-1
	c1.5-0.5,2.9-1.1,4.2-1.9c1.3-0.8,2.5-1.8,3.5-3c0.9-1.2,1.6-2.7,1.9-4.3c-0.1,1.6-0.6,3.2-1.4,4.6c-0.9,1.4-2,2.6-3.3,3.5
	c-2.6,1.9-5.7,3.1-8.9,3.8c-1.6,0.3-3.2,0.5-4.8,0.6c-1.6,0.1-3.3,0.1-4.9-0.1c-3.3-0.3-6.5-1-9.5-2.4c-0.8-0.3-1.5-0.8-2.2-1.2
	c-0.7-0.5-1.4-0.9-2.1-1.5c-0.7-0.5-1.3-1.1-1.9-1.7c-0.6-0.6-1.2-1.2-1.6-2c-1-1.3-1.8-2.9-2.5-4.4c-0.6-1.6-1.1-3.2-1.4-4.8
	c-0.2-0.8-0.3-1.6-0.4-2.5c-0.1-0.8-0.2-1.6-0.2-2.5c-0.1-1.6,0-3.3,0-4.9c0.2-3.2,0.6-6.4,1.1-9.6l2,1.2c-1.5,1.1-3,2.1-4.7,3
	c-1.6,0.9-3.4,1.6-5.3,2c-1.9,0.4-4,0.3-5.9-0.6c-1.9-0.8-3.3-2.3-4.4-3.8c-1.1-1.5-2-3-2.9-4.6l-2.8-4.6c-0.5-0.8-0.9-1.5-1.4-2.3
	c-0.5-0.8-0.9-1.6-1.1-2.6c-0.2-0.9-0.2-1.9,0.2-2.8C240.2,113.6,241,112.9,241.9,112.8z"/>
<path fill="#241F20" d="M289.8,253c0-0.7,0-1.3,0-2l0.1-1c0-0.2,0-0.3,0.1-0.5l0.1-0.5l0.3-1c0.1-0.3,0.3-0.6,0.4-1
	c0.1-0.3,0.3-0.6,0.4-0.9l0.5-0.9c1.4-2.4,3.4-4.4,5.6-6c2.3-1.6,4.8-2.8,7.5-3.6c1.3-0.4,2.7-0.7,4.1-0.8c1.4-0.2,2.8-0.2,4.2-0.1
	c2.8,0.1,5.7,0.8,8.2,2.3c2.5,1.5,4.5,3.7,6,6.1c1.5,2.5,2.4,5.2,2.8,8.1c0.4,2.8,0.2,5.7-0.2,8.4c-2.2,11-8.4,20.6-16.3,28.1
	c-2,1.9-4.1,3.6-6.3,5.2c-1.1,0.7-2.3,1.5-3.4,2.2l-1.8,1c-0.6,0.3-1.2,0.7-1.8,1c-4.9,2.4-10,4.2-15.3,5.1
	c5.2-1.5,10.1-3.6,14.7-6.2c4.6-2.7,8.8-5.9,12.5-9.7c3.7-3.8,7-7.9,9.5-12.5c2.5-4.6,4.7-9.5,5.5-14.5c0.5-2.5,0.6-5.1,0.3-7.6
	c-0.3-2.5-1.1-4.9-2.3-7.1c-1.2-2.2-2.9-4.1-5-5.4c-2.1-1.3-4.5-2-7.1-2.2c-5.1-0.4-10.4,0.8-14.8,3.5c-2.2,1.3-4.2,3.1-5.7,5.3
	C290.9,247.8,290,250.3,289.8,253z"/>
<path fill="#241F20" d="M290.6,221.4c1.5-5.1,3.1-10.1,4.7-15.2c0.2-0.6,0.5-1.3,0.9-2c0.5-0.6,1.1-1.2,1.9-1.5
	c0.8-0.3,1.7-0.2,2.4-0.1c0.8,0.2,1.4,0.5,2.1,0.8c0.6,0.3,1.2,0.7,1.8,1.1c0.6,0.4,1.1,0.9,1.6,1.2c1,0.8,2.1,1.5,3.2,2
	c2.2,1.1,4.7,1.9,7,1.8c1.2,0,2.3-0.3,3.3-0.8c1-0.5,1.8-1.3,2.4-2.2c1.2-1.9,1.3-4.3,0.7-6.6c-0.3-1.1-0.8-2.2-1.5-3.2
	c-0.7-0.9-1.5-1.8-2.5-2.5c-1.9-1.5-4.2-2.5-6.6-3.2c-2.4-0.7-5-1.1-7.6-1.5c-2.6-0.4-5.3-0.8-7.9-1.5c-2.6-0.7-5.3-1.7-7.6-3.5
	c-1.1-0.8-2.2-1.9-3-3c-0.8-1.2-1.4-2.5-1.8-3.9c-0.7-2.8-0.3-5.7,0.9-8.3c1.3-2.5,3.5-4.5,6.1-5.4c2.6-1,5.4-1,7.9-0.1
	c-2.6-0.7-5.3-0.3-7.6,0.8c-2.3,1.1-4.2,3-5.2,5.3c-0.9,2.3-1.1,4.9-0.4,7.2c0.4,1.2,0.9,2.3,1.6,3.2c0.7,1,1.6,1.8,2.7,2.5
	c2,1.4,4.4,2.2,6.9,2.9c2.5,0.6,5.1,0.9,7.7,1.3c2.6,0.4,5.3,0.8,8,1.5c2.6,0.8,5.3,1.9,7.6,3.6c1.1,0.9,2.2,1.9,3,3.1
	c0.8,1.2,1.5,2.6,1.9,4c0.4,1.4,0.5,2.9,0.4,4.4c-0.1,1.5-0.6,3-1.5,4.3c-0.9,1.3-2.1,2.3-3.4,3c-1.4,0.7-2.9,1-4.4,1
	c-1.5,0-2.9-0.2-4.3-0.7c-1.4-0.4-2.6-1-3.8-1.7c-1.2-0.7-2.4-1.5-3.4-2.4c-0.6-0.5-1-0.9-1.5-1.3c-0.5-0.4-1-0.8-1.5-1.1
	c-1-0.6-2.2-1.1-3.1-0.8c-0.5,0.1-0.9,0.4-1.2,0.8c-0.3,0.4-0.6,1-0.8,1.6C294.6,211.6,292.7,216.5,290.6,221.4z"/>
<path fill="#241F20" d="M266.6,244.6c1.1-0.5,2.6-0.5,3.8,0.2c1.2,0.6,2.1,1.6,2.8,2.8c0.7,1.2,1.1,2.5,1.1,3.9c0,0.7-0.1,1.4-0.2,2
	c-0.1,0.7-0.3,1.3-0.5,1.9c-0.8,2.5-2.1,4.7-3.1,6.9c-0.5,1.1-0.9,2.1-1.2,3.3c-0.3,1.1-0.4,2.2-0.5,3.4c0,1.1,0,2.3,0.3,3.3
	c0.2,1.1,0.6,2.1,1.2,3.1c0.5,0.9,1.3,1.8,2.1,2.5c0.8,0.7,1.8,1.3,2.8,1.7c1,0.4,2.1,0.6,3.2,0.5c1.1-0.1,2.2-0.4,3.2-1
	c1-0.6,1.9-1.4,2.5-2.3c0.7-1,1.1-2.1,1.2-3.4c0.2,1.2,0,2.6-0.5,3.8c-0.5,1.2-1.4,2.2-2.4,3.1c-1.1,0.8-2.3,1.4-3.7,1.7
	c-1.4,0.2-2.8,0.1-4.1-0.2c-2.7-0.8-4.9-2.6-6.4-4.9c-1.5-2.4-2.1-5.2-2-7.9c0.1-2.7,0.9-5.3,2.1-7.7c1.2-2.3,2.5-4.4,3.4-6.5
	c0.5-1.1,0.8-2.2,0.9-3.3c0.1-1.1-0.1-2.2-0.5-3.3c-0.4-1.1-1.1-2-2-2.8C269.1,244.6,267.9,244.3,266.6,244.6z"/>
<path fill="#241F20" d="M325.4,290.6c1.8-0.6,3.8-0.6,5.6-0.1c1.9,0.5,3.6,1.5,4.9,3l0.3,0.3l-0.2,0.4c-1.8,3.5-3.6,7-5.5,10.5
	c-1.8,3.5-3.8,6.9-5.7,10.4c-0.9,1.7-1.9,3.5-2.9,5.2c-1,1.7-2,3.4-2.7,5.1c-0.4,0.9-0.7,1.7-1,2.6c-0.3,0.9-0.5,1.8-0.5,2.6
	c-0.2,1.7,0.3,3.3,1.3,4.5l-1-0.4c3.1,0,6.2-0.4,9.3-1.2c3-0.8,6-1.9,8.8-3.3c2.8-1.4,5.5-3.2,8-5.2c2.5-2,4.7-4.3,6.7-6.9
	c-1.6,2.8-3.6,5.4-6,7.7c-2.3,2.3-5,4.3-7.8,6c-2.9,1.7-5.9,3-9.1,3.9c-3.2,0.9-6.5,1.5-9.9,1.6l-0.6,0l-0.4-0.5
	c-0.8-0.9-1.4-2-1.7-3.1c-0.3-1.1-0.4-2.3-0.3-3.4c0.1-1.1,0.3-2.2,0.6-3.2c0.3-1,0.7-2,1.1-2.9c0.8-1.9,1.9-3.6,2.9-5.3
	c1-1.7,2-3.4,3-5.1c2-3.4,4-6.8,6.1-10.2c2-3.4,4.1-6.7,6.2-10.1l0.1,0.7c-1-1.4-2.5-2.5-4.2-3.2
	C329.1,290.5,327.2,290.3,325.4,290.6z"/>
<path fill="#241F20" d="M351.8,308.9c2-1,4-2,6-2.9c1.9-1,3.8-1.9,5.7-3c1.9-1,3.7-2.1,5.6-3.3c1.9-1.1,3.7-2.3,5.6-3.5
	c-1.1,2-2.7,3.7-4.3,5.2c-1.7,1.5-3.5,2.9-5.5,4c-2,1.1-4.1,2-6.3,2.6C356.4,308.6,354.1,309,351.8,308.9z"/>
<path fill="#241F20" d="M367.2,277c4.5-0.3,9.1-0.7,13.3-1.9c1.1-0.3,2.1-0.7,3.1-1.1c1-0.4,2-0.9,2.9-1.5c0.9-0.6,1.8-1.2,2.6-2
	c0.8-0.7,1.5-1.5,2.1-2.4c1.3-1.7,2.1-3.7,2.4-5.7c0.1-1,0.1-2.1,0-3.1c-0.2-1-0.4-2-0.8-3c-0.8-1.9-2-3.7-3.4-5.4
	c-1.4-1.7-3-3.2-4.6-4.8l-1.2-1.1l1.4-0.9c5.5-3.7,11-7.5,16.6-11.2c2.7-1.8,5.3-3.8,7.3-6.2c2-2.4,3.2-5.3,3.6-8.4
	c0.4-3.1,0.1-6.3-0.9-9.4c-0.5-1.5-1.1-3-1.8-4.5c-0.7-1.4-1.6-2.8-2.5-4.2c-3.8-5.4-8.9-9.7-13.9-14.1c5.4,3.9,10.9,7.9,15.1,13.2
	c4.3,5.2,7,12.2,6.4,19.2c-0.4,3.5-1.7,7-4,9.8c-2.2,2.8-5.1,4.9-7.8,6.8c-5.5,3.8-11.1,7.4-16.6,11.2l0.2-2.1
	c1.7,1.6,3.3,3.3,4.7,5.1c1.5,1.8,2.7,3.9,3.6,6.2c0.4,1.1,0.7,2.3,0.9,3.6c0.1,1.2,0.1,2.5-0.1,3.7c-0.4,2.4-1.5,4.7-3.1,6.5
	c-3,3.7-7.5,6-12,6.9C376.3,277.2,371.7,277.1,367.2,277z"/>
<path fill="#241F20" d="M410,164.9c4.1,0.7,8.3-0.5,11.6-2.8c3.3-2.3,5.9-5.6,7.1-9.4c1.2-3.8,1.1-7.9,0.1-11.7
	c-0.5-1.9-1.3-3.8-2.2-5.5c-0.9-1.7-2.1-3.4-3.4-4.9c-2.6-3-5.9-5.4-9.4-7.2c-3.5-1.9-7.4-3.2-11.3-4c-3.9-0.9-8-1.3-12.1-1.5
	c-4.1-0.2-8.2-0.1-12.3-0.1l-4.6,0.1l3.9-2.4c1.9-1.2,3.7-2.3,5.1-3.8c1.5-1.4,2.5-3.2,2.6-5.1c0.2-1.9-0.5-3.9-1.7-5.5
	c-0.6-0.8-1.3-1.6-2-2.4c-0.8-0.7-1.6-1.4-2.5-2c-0.9-0.6-1.8-1.2-2.8-1.7c-1-0.5-2-1-3-1.4c-2-0.9-4.1-1.6-6.2-2.1
	c-4.3-1.1-8.7-1.5-13.1-1.3c4.4-0.6,8.9-0.5,13.3,0.3c2.2,0.4,4.4,1,6.5,1.8c1.1,0.4,2.1,0.8,3.1,1.3c1,0.5,2.1,1,3,1.6
	c1,0.6,1.9,1.3,2.8,2.1c0.9,0.8,1.7,1.6,2.4,2.6c1.4,1.9,2.4,4.3,2.3,6.9c-0.1,1.3-0.4,2.5-1,3.6c-0.6,1.1-1.3,2.1-2.2,3
	c-1.7,1.7-3.6,3-5.5,4.3l-0.7-2.3c4.1-0.2,8.3-0.3,12.5-0.1c4.2,0.2,8.4,0.6,12.5,1.5c4.1,0.9,8.2,2.3,12,4.3c3.8,2,7.2,4.7,10,8
	c2.8,3.3,4.8,7.3,5.8,11.5c0.5,2.1,0.7,4.3,0.6,6.4c-0.1,2.2-0.5,4.3-1.3,6.3c-1.5,4.1-4.5,7.5-8.1,9.7c-1.8,1.1-3.8,1.9-5.9,2.2
	C414.1,165.5,412,165.4,410,164.9z"/>
<path fill="#241F20" d="M171.6,225.6c4.3,2.4,8.5,5.1,12.8,7.3c2.2,1.1,4.3,2.1,6.6,2.9c2.2,0.8,4.5,1.5,6.9,1.9
	c2.3,0.4,4.6,0.5,7,0.3c2.3-0.2,4.6-0.7,6.9-1.5c4.4-1.6,8.4-4.5,10.8-9c-0.6,2.4-1.9,4.7-3.7,6.5c-1.8,1.9-3.9,3.4-6.3,4.4
	c-2.3,1.1-4.9,1.8-7.4,2.1c-2.6,0.3-5.2,0.3-7.7-0.2c-2.5-0.5-5-1.2-7.3-2.2c-2.3-1-4.6-2.1-6.7-3.5
	C179.1,232.1,175.3,228.9,171.6,225.6z"/>
<path fill="#241F20" d="M176.5,195.2c2,2.5,4.7,4.5,7.6,5.7c2.9,1.3,6.1,1.7,9.2,1.4l-0.5,1.2l-4.7-5.6l-4.6-5.7l1.7-1.4
	c2.2,2.1,4.5,4,7,5.6c2.5,1.7,5.2,3,8,4.1c1.4,0.5,2.8,1,4.2,1.4c0.6,0.2,1.2,0.2,1.4,0.1c0.1,0,0.1,0,0.1-0.1
	c0-0.1,0.1-0.3,0.1-0.5c0-0.3-0.1-0.6-0.1-0.9c-0.1-0.3-0.2-0.6-0.3-1c-0.2-0.6-0.5-1.2-0.9-1.8c-0.7-1.1-1.7-2.1-2.8-2.8l1.8-1.9
	c1.6,2.5,3.8,4.7,6.2,6.4c2.4,1.8,5.2,3.1,8,3.9l-1.5,1.4c-0.3-2.2-1.2-4.4-2.7-6.1l-3.8-4.7l5.2,3.1l7.3,4.3l7.3,4.4l3.6,2.2
	c1.2,0.7,2.4,1.4,3.6,2.3c1.1,0.9,2.2,1.9,3.1,3.1c0.8,1.2,1.2,2.8,0.7,4.1c0.3-1.4-0.2-2.8-1.1-3.9c-0.9-1.1-2-1.9-3.1-2.7
	c-1.2-0.7-2.4-1.3-3.7-2l-3.8-2l-7.5-4l-7.5-4l1.4-1.7c1.8,2,3,4.5,3.4,7.2l0.3,1.8l-1.8-0.4c-3.2-0.8-6.3-2.2-9-4
	c-2.7-1.9-5.1-4.3-6.9-7l-3.4-5l5.2,3.1c1.5,0.9,2.8,2.2,3.7,3.6c0.5,0.7,0.9,1.5,1.1,2.4c0.1,0.4,0.3,0.8,0.4,1.3
	c0.1,0.4,0.2,0.9,0.2,1.4c0,0.5,0,1.1-0.3,1.7c-0.3,0.6-0.8,1.2-1.5,1.5c-0.6,0.3-1.2,0.3-1.8,0.3c-0.5,0-1-0.1-1.4-0.2
	c-1.6-0.5-3-1-4.5-1.6c-2.9-1.2-5.7-2.7-8.3-4.5c-2.6-1.8-5-3.9-7.2-6.2l1.7-1.4l4.4,5.8l4.4,5.9l0.9,1.2l-1.4,0.1
	c-3.4,0.2-6.8-0.6-9.7-2.1C180.8,200.2,178.3,197.9,176.5,195.2z"/>
<path fill="#241F20" d="M141.5,289.4c1.2,1.7,2.2,3.5,3.1,5.4c0.9,1.9,1.6,3.8,2.2,5.8c0.6,2,1,4.1,1.3,6.1c0.3,2.1,0.4,4.2,0.4,6.3
	l-1.9-1c0.6-0.5,1.5-0.8,2.3-0.9c0.8,0,1.5,0.1,2.2,0.3c1.3,0.4,2.3,1,3.3,1.5c0.3,0.1,0.5,0.2,0.7,0.3c0.3,0.1,0.6,0.3,0.9,0.4
	c0.6,0.3,1.1,0.6,1.6,0.9c1,0.6,2,1.3,3,1.9c0.5,0.3,0.9,0.6,1.4,0.9l1.5,0.8c0.2,0.1,0.5,0.3,0.7,0.4l0.8,0.3
	c0.5,0.2,1,0.4,1.5,0.6c1.1,0.3,2.1,0.7,3.2,0.9c1.1,0.3,2.2,0.5,3.3,0.7c4.5,0.8,9.1,1.1,13.8,1.8c4.6,0.6,9.3,1.8,13.4,4.2
	c-2.2-0.8-4.4-1.4-6.7-1.7c-2.3-0.4-4.6-0.6-6.9-0.7c-4.6-0.3-9.3-0.3-14-1c-2.4-0.3-4.7-0.8-7-1.6c-0.6-0.2-1.1-0.4-1.7-0.7
	l-0.9-0.3c-0.3-0.1-0.5-0.3-0.8-0.4c-0.5-0.3-1.1-0.6-1.6-0.9c-0.5-0.3-1-0.7-1.5-1c-1-0.7-1.9-1.3-2.9-1.9
	c-0.5-0.3-0.9-0.6-1.4-0.8c-0.2-0.1-0.5-0.2-0.7-0.3c-0.3-0.1-0.6-0.3-0.8-0.4c-1.1-0.5-2.1-1.1-3-1.5c-0.5-0.2-0.9-0.3-1.3-0.3
	c-0.4,0-0.6,0.1-0.9,0.3l-2.1,1.4l0.1-2.4c0.1-2,0.1-4,0-6c-0.2-2-0.4-4-0.8-6c-0.4-2-0.9-3.9-1.6-5.9
	C143.1,293.2,142.4,291.3,141.5,289.4z"/>
<path fill="#241F20" d="M146.4,313.1c1.6,4.7,5.1,8.2,9.2,10.4c4.1,2.3,8.7,3.2,13.5,3.4c4.7,0.2,9.6-0.2,14.4-0.5
	c4.9-0.3,9.8-0.5,14.7-0.4c-4.8,1.1-9.6,1.8-14.5,2.5c-4.8,0.7-9.8,1.3-14.8,1.1c-1.3-0.1-2.5-0.2-3.8-0.4c-1.2-0.2-2.5-0.4-3.7-0.8
	c-0.6-0.2-1.2-0.4-1.8-0.6c-0.6-0.2-1.2-0.4-1.8-0.7c-1.2-0.5-2.3-1.2-3.4-1.9c-2.1-1.4-4-3.2-5.5-5.3
	C147.6,317.9,146.7,315.5,146.4,313.1z"/>
<path fill="#241F20" d="M148.3,316.1c0.1,2.7,0.1,5.5,0.2,8.2c0.1,2.7,0.3,5.5,0.8,8.1c0.5,2.7,1.2,5.3,2.2,7.8c1,2.5,2.4,4.8,4,7
	c3.1,4.5,6.6,8.7,9.5,13.4c1.5,2.4,2.8,4.8,3.8,7.5c1,2.6,1.6,5.4,1.9,8.3c0.2,1.4,0.1,2.8,0.1,4.3c-0.2,1.4-0.3,2.8-0.5,4.2
	c-0.5,2.7-1.1,5.4-1.3,8c-0.2,2.6,0.1,5.1,1.4,7.1c1.3,2,3.5,3.3,5.9,4c2.4,0.7,5.1,0.9,7.7,0.8l4-0.3l4-0.5
	c5.3-0.8,10.5-2.3,15.4-4.4c9.9-4.1,18.9-10.6,25.8-18.7c3.5-4.1,6.4-8.6,9-13.4c1.3-2.4,2.7-4.8,4.2-7.1c1.5-2.3,3.2-4.6,5.1-6.7
	c3.8-4.1,8.3-7.4,12.4-10.9c4.1-3.5,7.8-7.5,11.1-11.8c6.6-8.6,11.5-18.6,14.3-29.2c-1.1,5.4-2.8,10.6-5,15.6c-2.2,5-5,9.8-8.2,14.3
	c-3.2,4.5-6.9,8.6-11,12.4c-4.1,3.7-8.4,7-12,11c-3.6,4-6.1,8.7-8.7,13.5c-2.6,4.8-5.5,9.6-9.1,13.9c-7.2,8.5-16.5,15.2-26.8,19.6
	c-5.2,2.1-10.6,3.7-16.1,4.5l-4.2,0.5l-4.2,0.2c-2.8,0.1-5.7-0.1-8.5-0.9c-1.4-0.4-2.8-1-4.1-1.9c-1.3-0.8-2.4-2-3.2-3.3
	c-0.8-1.3-1.4-2.8-1.6-4.3c-0.2-1.5-0.2-3-0.1-4.4c0.3-2.9,0.9-5.6,1.4-8.2c0.3-1.3,0.4-2.6,0.6-3.9c0-1.3,0.1-2.6,0-3.9
	c-0.2-2.6-0.7-5.2-1.6-7.7c-0.9-2.5-2.1-4.9-3.4-7.2c-2.7-4.7-6.1-9-9.1-13.6c-1.5-2.3-2.8-4.8-3.8-7.4c-1-2.6-1.6-5.3-2-8
	C147.9,327.1,148.2,321.6,148.3,316.1z"/>
<path fill="#241F20" d="M240,375.1c4.2,3.5,7.9,7.7,10.8,12.4c0.7,1.2,1.4,2.4,2.1,3.6l1.9,3.7c0.6,1.3,1.1,2.6,1.6,3.8l1.4,3.9
	l1.1,4c0.3,1.4,0.6,2.7,0.8,4.1l0.5,4.1c0.1,1.4,0.2,2.8,0.3,4.1c0.1,5.5-0.5,11.1-2,16.3c0.4-5.5,0.4-10.9-0.1-16.2
	c-0.2-1.3-0.4-2.7-0.5-4l-0.7-3.9c-0.3-1.3-0.6-2.6-0.9-3.9l-1.1-3.9l-1.3-3.8c-0.5-1.2-1-2.5-1.5-3.7l-1.6-3.7
	c-0.6-1.2-1.2-2.4-1.8-3.6C246.4,383.8,243.4,379.3,240,375.1z"/>
<path fill="#241F20" d="M335.5,335.4c0.1,3.6,0.2,7.2,0.6,10.7c0.1,0.9,0.2,1.8,0.3,2.7l0.1,1.3l0.2,1.3c0.1,0.9,0.2,1.8,0.4,2.6
	l0.5,2.6c0.7,3.5,1.4,6.9,2.4,10.3c1,3.4,2,6.8,3.4,10l0.5,1.2l0.5,1.2c0.3,0.8,0.7,1.6,1,2.4c0.7,1.6,1.5,3.2,2.3,4.8
	c1.6,3.2,3.3,6.3,5.2,9.2c1,1.4,2.1,2.8,3.3,4c1.2,1.2,2.5,2.4,4,3.2c2.9,1.8,6.5,2.8,10,2.2c-1.7,0.6-3.6,0.8-5.4,0.6
	c-1.8-0.2-3.6-0.8-5.3-1.5c-3.4-1.6-6.1-4.3-8.4-7.2c-2.3-2.9-4.1-6.1-5.8-9.2c-1.7-3.2-3.2-6.5-4.5-9.9c-1.3-3.4-2.4-6.9-3.3-10.4
	l-0.6-2.6l-0.5-2.7c-0.2-0.9-0.3-1.8-0.5-2.7c-0.1-0.9-0.3-1.8-0.4-2.7c-0.5-3.6-0.6-7.2-0.7-10.8C334.7,342.6,335,339,335.5,335.4z
	"/>
<path fill="#241F20" d="M147.8,319c0.6,2.7,1.1,5.5,1.7,8.2l0.7,4.1c0.2,1.3,0.5,2.7,1,3.9c0.4,1.2,1.1,2.3,1.9,3.1
	c0.8,0.8,1.9,1.2,3,1.3c1.2,0.1,2.4-0.1,3.7-0.4c0.6-0.1,1.3-0.4,1.9-0.6c0.6-0.2,1.3-0.4,1.9-0.7c2.5-0.9,5-2.1,7.5-3.4
	c2.5-1.2,4.9-2.5,7.5-3.7c2.5-1.2,5.2-2.2,7.9-3c2.7-0.7,5.6-1.2,8.4-1c-5.6,0.8-10.5,3.2-15.3,5.9l-7.3,4.1c-2.5,1.3-5,2.6-7.7,3.6
	c-0.7,0.3-1.4,0.5-2,0.7c-0.7,0.2-1.4,0.4-2.1,0.6c-1.4,0.3-3,0.6-4.6,0.3c-0.8-0.1-1.6-0.3-2.4-0.7c-0.8-0.4-1.5-0.9-2-1.5
	c-1.2-1.2-1.8-2.7-2.2-4.1c-0.4-1.4-0.6-2.9-0.7-4.3l-0.3-4.2C148,324.6,147.8,321.8,147.8,319z"/>
<path fill="#241F20" d="M276.4,72.3c0.1-0.7,0.4-1.5,0.8-2.1c0.4-0.6,1-1.2,1.7-1.6c1.3-0.8,2.9-1.2,4.5-1c0.8,0.1,1.6,0.4,2.2,0.9
	c0.2,0.1,0.3,0.3,0.5,0.4c0.1,0.1,0.3,0.3,0.4,0.4c0.3,0.3,0.5,0.6,0.7,1c0.8,1.4,1.1,3,1.3,4.5c0.7,6,1,12,0.9,18
	c0,1.5-0.1,3-0.1,4.5c-0.1,1.4-0.1,2.9,0.3,4c0.4,1.1,1.2,1.8,2.2,1.9c0.5,0.1,1.1,0,1.6-0.2c0.5-0.2,1-0.5,1.5-0.9
	c0.9-0.8,1.6-2,2.3-3.3c0.6-1.3,1.2-2.5,1.3-3.7c0-0.3,0-0.6,0-0.9c0-0.3-0.1-0.5-0.2-0.8c-0.2-0.5-0.5-1-0.8-1.3
	c-0.4-0.3-0.8-0.5-1.1-0.5c-0.4,0-0.8,0.2-1.3,0.5c-0.5,0.3-0.9,0.7-1.3,1.2c-0.3,0.5-0.6,1-0.8,1.6c-0.4,1.2-0.5,2.5-0.3,3.8
	c0.2,1.3,0.7,2.5,1.4,3.6c0.2,0.3,0.4,0.5,0.6,0.7c0.2,0.2,0.5,0.5,0.7,0.7c0.5,0.4,1,0.8,1.6,1.2c2.3,1.4,5.1,2.2,7.9,2.4
	c2.8,0.2,5.8,0,8.7-0.3c3-0.2,6-0.5,9.1-0.3c3.1,0.3,6.2,1,8.8,2.7c1.3,0.8,2.5,1.9,3.4,3.2c0.9,1.3,1.5,2.8,1.7,4.3
	c0.3,1.5,0.1,3.1-0.3,4.6c-0.5,1.5-1.4,2.7-2.7,3.6c1.1-1,1.9-2.3,2.3-3.7c0.3-1.4,0.3-2.9,0-4.3c-0.3-1.4-0.9-2.7-1.8-3.8
	c-0.9-1.1-2-2-3.3-2.7c-2.5-1.4-5.4-1.9-8.3-2c-2.9-0.1-5.8,0.3-8.8,0.6c-3,0.4-6,0.7-9.1,0.5c-3.1-0.2-6.3-0.9-9.1-2.6
	c-0.7-0.4-1.4-0.9-2-1.5c-0.3-0.3-0.6-0.6-0.9-0.9c-0.3-0.3-0.6-0.6-0.8-1c-1-1.4-1.6-3-1.9-4.7c-0.3-1.7-0.2-3.4,0.3-5.1
	c0.3-0.8,0.7-1.6,1.2-2.4c0.5-0.7,1.2-1.4,2-1.9c0.8-0.5,1.7-0.9,2.9-0.9c1.1,0,2.2,0.5,2.9,1.2c0.7,0.7,1.3,1.5,1.6,2.4
	c0.2,0.4,0.3,1,0.3,1.4c0,0.5,0,0.9,0,1.4c-0.2,1.8-0.9,3.3-1.6,4.7c-0.7,1.4-1.6,2.8-2.9,4c-0.6,0.6-1.5,1.1-2.3,1.4
	c-0.9,0.3-1.8,0.4-2.8,0.3c-1-0.1-2-0.5-2.7-1.2c-0.8-0.7-1.2-1.6-1.5-2.4c-0.5-1.7-0.4-3.4-0.3-4.9c0.1-1.5,0.2-3,0.3-4.4
	c0.3-5.9,0.3-11.9-0.1-17.8c-0.1-1.5-0.3-2.9-0.9-4.1c-0.6-1.3-1.7-2.2-3-2.5c-1.4-0.3-2.9-0.1-4.1,0.6c-0.6,0.3-1.2,0.8-1.7,1.3
	C276.9,70.9,276.6,71.5,276.4,72.3z"/>
<path fill="#241F20" d="M315.8,136.4c-1.2,1.6-2.1,3.4-2.7,5.3c-0.6,1.9-0.7,3.8-0.5,5.7l-0.4-0.6c2.4,1,4.9,1.6,7.4,1.8
	c1.3,0.1,2.5,0.1,3.8-0.1c1.3-0.1,2.5-0.3,3.7-0.7l5.2-1.4l-4.1,3.6c-1.6,1.4-2.3,3.8-2.1,6c0.2,2.3,1.3,4.5,3,5.9
	c1.7,1.5,4,2.3,6.4,2.5c2.4,0.2,4.9-0.1,7.2-0.9l1.6-0.6l0,1.7l0,6.1c0,2-0.1,4.1-0.1,6.1c0,2-0.1,4.1-0.2,6.1c-0.1,1-0.1,2-0.2,3.1
	c-0.1,0.5-0.3,1.2-0.9,1.4c-0.3,0.1-0.6,0-0.8-0.1c-0.2-0.1-0.4-0.4-0.3-0.7c0,0.3,0.2,0.5,0.4,0.5c0.2,0.1,0.5,0.1,0.7,0
	c0.4-0.2,0.5-0.7,0.5-1.2c0-1-0.2-2-0.2-3c-0.1-2-0.3-4.1-0.5-6.1c-0.1-2-0.3-4.1-0.4-6.1l-0.3-6.1l1.6,1.1
	c-2.6,1.1-5.4,1.6-8.2,1.4c-2.8-0.2-5.7-1.2-8-3.1c-1.2-1-2.1-2.2-2.7-3.5c-0.6-1.3-1-2.8-1.2-4.2c-0.1-1.5,0-3,0.5-4.4
	c0.5-1.4,1.4-2.8,2.6-3.7l1.1,2.2c-1.4,0.3-2.8,0.5-4.2,0.6c-1.4,0.1-2.8,0-4.2-0.2c-2.8-0.4-5.5-1.2-7.9-2.6l-0.4-0.2l0-0.4
	c-0.1-2.1,0.4-4.2,1.1-6.1C313.1,139.5,314.3,137.8,315.8,136.4z"/>
<path fill="#241F20" d="M378.2,138.7c0.4-0.5,0.8-0.9,1.3-1.2c0.5-0.3,1.1-0.5,1.7-0.7c1.2-0.3,2.5-0.2,3.6,0.2
	c0.6,0.2,1.2,0.5,1.7,0.8c0.5,0.4,1,0.8,1.4,1.3c0.8,1,1.4,2.1,1.8,3.3c0.8,2.4,0.7,5,0.1,7.4c-0.6,2.4-1.6,4.6-2.7,6.6l-2-1.7
	c1.3-1,2.7-2.1,4.2-3c1.5-0.9,3.2-1.7,5-2.1c1.8-0.4,3.8-0.3,5.6,0.3c0.9,0.3,1.8,0.8,2.6,1.4c0.8,0.6,1.4,1.4,1.9,2.3
	c0.5,0.9,0.7,1.8,0.9,2.7c0.2,0.9,0.3,1.7,0.3,2.6c0.1,1.7,0,3.5-0.3,5.2c-0.3,1.7-0.9,3.4-1.8,4.8c-0.5,0.7-1.1,1.4-1.8,1.9
	l-0.5,0.4l-0.6,0.3c-0.4,0.2-0.8,0.3-1.2,0.4c1.5-0.7,2.7-1.9,3.3-3.3c0.7-1.4,1-3,1.1-4.6c0.1-1.6,0-3.2-0.2-4.8
	c-0.2-1.6-0.6-3.2-1.3-4.3c-1.3-2.4-4.6-3.1-7.4-2.5c-2.9,0.7-5.5,2.6-8.1,4.5l-4.9,3.7l2.9-5.4c1.1-2,2.1-4,2.8-6
	c0.3-1,0.5-2.1,0.6-3.1c0.1-1,0-2.1-0.2-3.1c-0.4-2-1.6-3.9-3.5-4.8c-1-0.5-2-0.7-3.1-0.6c-0.5,0-1.1,0.2-1.6,0.3
	C379.2,138.1,378.7,138.3,378.2,138.7z"/>
<path fill="#241F20" d="M375.9,186.3c3.1,0.8,5.9,2.5,8.1,4.9c2.2,2.4,3.8,5.4,4.5,8.6c0.6,3.3,0.3,6.7-1,9.8c-1.2,3.1-3.2,6-6,8
	l-0.6-2.4c1,0.1,1.9,0.4,2.8,0.9c0.8,0.5,1.6,1,2.3,1.7c1.3,1.3,2.2,3,2.7,4.8c0.2,0.9,0.3,1.9,0.2,2.8c-0.1,1-0.3,1.9-0.6,2.8
	c-0.7,1.8-1.8,3.3-3.1,4.5c-1.4,1.2-3,2.1-4.7,2.6c-0.9,0.2-1.8,0.4-2.7,0.4c-0.9,0-1.8,0-2.7-0.1c-3.5-0.6-6.7-2.4-8.9-5l1.5-0.8
	c0.3,1.5,0.2,3.1-0.2,4.5c-0.4,1.5-1,2.8-1.9,4c-1.7,2.4-4.3,4.1-7.1,4.5c2.7-0.8,4.9-2.7,6.3-5.1c1.3-2.3,1.9-5.1,1.2-7.6l-0.8-3
	l2.3,2.2c2.2,2.1,5,3.6,8,3.9c0.7,0.1,1.5,0.1,2.2,0c0.7-0.1,1.4-0.2,2.1-0.4c0.7-0.2,1.3-0.5,2-0.9c0.6-0.4,1.2-0.8,1.7-1.3
	c2.1-1.9,3.3-4.8,2.6-7.4c-0.6-2.7-2.8-5.1-5.4-5.4l-3.3-0.4l2.7-2c2.3-1.7,4.2-4.1,5.3-6.8c1.2-2.7,1.7-5.7,1.3-8.6
	c-0.3-2.9-1.6-5.8-3.4-8.2C381.3,189.5,378.8,187.5,375.9,186.3z"/>
<path fill="#010101" d="M214.3,274.4c3.4-1.3,2.9-6.9-0.2-8.9s-7.1-1.6-10.7-1.1c-3.8,0.5-7.7,1.1-10.8,3.3
	c-5.5,3.7-7.1,11.1-6.9,17.8c0.3,10.4,4.2,21.2,12.7,27.1s21.9,5,27.7-3.6c3.7-5.5,3.7-12.9,1.5-19.2s-6.1-11.8-10.1-17.1"/>
</svg>
