<?xml version="1.0" encoding="utf-8"?>
<!-- Generator: Adobe Illustrator 22.1.0, SVG Export Plug-In . SVG Version: 6.00 Build 0)  -->
<svg version="1.0" id="Calque_1" xmlns="http://www.w3.org/2000/svg" xmlns:xlink="http://www.w3.org/1999/xlink" x="0px" y="0px"
	 viewBox="0 0 500 500" enable-background="new 0 0 500 500" xml:space="preserve">
<circle fill="#F9F9FA" cx="246.1" cy="238.3" r="211.7"/>
<path fill="#241F20" d="M264.5,217.4c-1.7-1.1-3.5-1.9-5.3-2.2c-0.9-0.1-1.8-0.2-2.7-0.1c-0.9,0-1.7,0.2-2.1,0.6
	c-0.2,0.1-0.3,0.4-0.3,0.6c0,0.1,0,0.2,0,0.2c0,0,0,0.1,0.1,0.1c0.1,0.1,0.5,0.2,1,0.4c0.5,0.1,1,0.2,1.4,0.4
	c1.9,0.5,3.8,1.1,5.7,1.9c-2,0.1-4,0-6-0.2c-0.5-0.1-1-0.1-1.5-0.2c-0.5-0.1-1.1-0.1-1.8-0.5c-0.3-0.2-0.7-0.6-0.9-1
	c-0.2-0.4-0.3-0.8-0.2-1.2c0.1-0.8,0.4-1.5,1-2c0.6-0.5,1.2-0.7,1.8-0.9c0.6-0.1,1.2-0.2,1.7-0.2c1.1,0,2.2,0.2,3.2,0.6
	C261.7,214.3,263.5,215.6,264.5,217.4z"/>
<path fill="#241F20" d="M280.6,221.2c1.1-1.7,2.7-3.1,4.5-4c0.9-0.5,1.9-0.8,2.9-1.1c0.5-0.1,1.1-0.2,1.7-0.2c0.6,0,1.4,0.3,2,0.8
	c0.6,0.5,0.9,1.3,1,2c0.1,0.7,0,1.3-0.3,1.9c-0.2,0.6-0.5,1.1-1,1.6c-0.2,0.2-0.5,0.4-0.8,0.6c-0.1,0.1-0.3,0.2-0.4,0.2l-0.4,0.1
	c-1.1,0.3-2.3,0.2-3.3,0c-1-0.3-1.9-0.7-2.8-1.2c1,0.1,2,0.2,2.9,0.2c0.9,0,1.8-0.2,2.5-0.5l0.3-0.1l0.2-0.1
	c0.1-0.1,0.2-0.2,0.3-0.4c0.2-0.3,0.4-0.6,0.5-0.9c0.2-0.7,0.1-1.4-0.2-1.6c-0.2-0.3-1-0.4-1.8-0.2c-0.9,0.1-1.8,0.3-2.7,0.6
	C284,219.3,282.3,220.1,280.6,221.2z"/>
<path fill="#241F20" d="M287.1,161.2c0.6,0.6,1.5,0.4,2.3,0.1c5-1.6,9.9-3.2,15.1-4c5.2-0.8,10.6-0.7,15.4,1.2
	c4.4,1.7,8.2,4.8,12.7,6.3c-2.1-3.1-4.9-5.8-8-7.9c-6.5-4.3-14.5-5.6-22.2-4.7C300.9,152.4,282.7,156.6,287.1,161.2z"/>
<path fill="#241F20" d="M253.2,156c-7.5-5-17.2-6.6-26.1-4.8s-17,6.7-23.2,13.3c4-1.5,7.5-4,11.4-5.8c7.4-3.5,16.1-4.4,24.1-2.5
	c3.1,0.7,6.1,1.6,9.2,2.4c1.2,0.3,3.8,1.6,5,1C255.5,158.6,254.8,157.1,253.2,156z"/>
<path fill="#241F20" d="M294.3,179.6c-0.8,0.3-1.7,0.5-2.6,0.7c-0.9,0.2-1.8,0.3-2.7,0.3l-1.2,0.1l1-0.8c3.1-2.7,6.4-5.3,10.2-7.2
	c1.9-1,3.9-1.7,6-2.2c2.1-0.5,4.3-0.6,6.5-0.4c2.2,0.3,4.3,1,6.2,1.9c1,0.4,1.9,0.9,2.8,1.4l2.7,1.5c3.6,2,7.1,4.1,10.6,6.4
	c-3.8-1.5-7.6-3.2-11.3-5l-2.8-1.3c-0.9-0.4-1.8-0.9-2.8-1.2c-1.9-0.7-3.7-1.4-5.6-1.6c-1.9-0.2-3.9-0.1-5.8,0.3
	c-1.9,0.4-3.8,1-5.6,1.9c-3.6,1.6-7,3.9-10.5,6.2l-0.3-0.8c0.9,0.1,1.7,0.1,2.6,0.1C292.5,179.8,293.4,179.7,294.3,179.6z"/>
<path fill="#241F20" d="M245.2,177.5c0.9-0.4,2-0.7,3-0.9c1.1-0.1,2.1-0.1,3.2,0.1l-0.5,0.2c0.2-0.2,0-0.6-0.2-0.9
	c-0.2-0.3-0.7-0.5-1.2-0.6c-0.5-0.2-1.1-0.3-1.7-0.6c-0.6-0.3-1.1-0.7-1.5-1.1c-0.9-0.8-1.5-1.8-2.3-2.5c-0.4-0.4-0.7-0.7-1.1-1
	c-0.4-0.3-0.8-0.6-1.3-0.8c-0.9-0.5-1.9-0.8-3-1.1c-1.1-0.3-2.1-0.7-3.2-1c-2.1-0.6-4.2-1-6.2-0.8c-2.1,0.1-4.1,0.7-6.1,1.5
	c-1,0.4-2,0.9-3,1.3c-1,0.5-2,1-3,1.5c-1,0.5-2,1-3,1.5c-1,0.5-2.1,0.9-3.1,1.3c-2.1,0.8-4.4,1.3-6.6,1.3c4.4-0.8,8.2-3.2,12-5.4
	c1-0.6,1.9-1.1,2.9-1.7c1-0.5,2-1.1,3.1-1.5c2.1-0.9,4.4-1.7,6.8-1.8c0.6,0,1.2,0,1.8,0c0.6,0,1.2,0.1,1.8,0.2
	c1.2,0.2,2.3,0.5,3.4,0.8c1.1,0.3,2.2,0.7,3.2,1c1.1,0.4,2.2,0.8,3.2,1.4c0.5,0.3,1,0.6,1.5,1c0.5,0.4,0.9,0.9,1.3,1.3
	c0.7,0.9,1.3,1.8,2,2.6c0.3,0.4,0.7,0.7,1.1,1c0.4,0.3,0.8,0.4,1.4,0.7c0.3,0.1,0.6,0.2,0.8,0.4c0.3,0.2,0.6,0.4,0.8,0.7
	c0.2,0.3,0.3,0.6,0.4,1c0,0.4-0.1,0.8-0.3,1.1l-0.2,0.2l-0.3-0.1c-1-0.3-2-0.4-3-0.4C247.2,177.1,246.2,177.2,245.2,177.5z"/>
<path fill="#241F20" d="M289.4,175.1c2.5-2.9,5.5-5.4,8.8-7.4c1.7-1,3.5-1.8,5.4-2.4c1.9-0.6,3.9-0.9,5.9-0.8c2,0.1,4,0.4,5.9,1.2
	c1.9,0.7,3.6,1.7,5.2,2.8c3.2,2.2,5.9,5,8.4,7.9c-3.1-2.3-6.1-4.6-9.3-6.5c-3.2-1.9-6.7-3.1-10.2-3.2c-3.6-0.1-7.1,1-10.5,2.6
	C295.6,170.8,292.5,172.9,289.4,175.1z"/>
<path fill="#241F20" d="M251.4,171.4c-3.3-2.1-6.6-3.9-10.2-5.3c-3.5-1.3-7.2-2.2-10.9-2.4c-7.4-0.5-15,1.7-21.1,6.5
	c2.4-3.1,5.8-5.4,9.5-6.9c3.7-1.5,7.8-2.1,11.8-1.8c4,0.2,7.9,1.4,11.5,3.1C245.4,166.2,248.7,168.5,251.4,171.4z"/>
<path fill="#241F20" d="M243.7,207.3c-0.3,2-1,3.9-2,5.6c-1,1.8-2.2,3.4-3.4,4.9c-2.5,3.1-5.2,5.9-7.4,9.1c-1.2,1.5-2.2,3.2-3.1,4.8
	c-1,1.7-1.8,3.4-2.4,5.2c-1.3,3.6-2.1,7.4-1.9,11.4c-1.1-3.8-0.9-8,0.3-11.9c0.5-2,1.3-3.8,2.2-5.6c0.9-1.8,2-3.5,3.2-5.1
	c1.2-1.6,2.5-3.2,3.8-4.6c1.4-1.5,2.7-2.9,4.1-4.3C239.7,213.9,242.3,211,243.7,207.3z"/>
<path fill="#241F20" d="M302,213.3c1.1,1.4,1.9,3,2.6,4.6c0.7,1.6,1.3,3.3,1.9,4.9c0.7,1.6,1.4,3.1,2.3,4.5c0.9,1.4,2,2.7,3.1,4.1
	c1.1,1.3,2.2,2.7,3.3,4.2c1,1.5,2,3,2.7,4.7c0.3,0.8,0.6,1.7,0.9,2.6c0.2,0.9,0.3,1.8,0.4,2.7c0,0.9-0.1,1.8-0.3,2.7
	c-0.2,0.9-0.6,1.7-1,2.5c0.2-0.9,0.4-1.7,0.4-2.6c0-0.9,0-1.7-0.2-2.5c-0.3-1.7-0.9-3.2-1.7-4.7c-1.5-3-3.9-5.5-6.1-8.2
	c-1.1-1.4-2.2-2.8-3.1-4.4c-0.9-1.6-1.7-3.3-2.2-5C303.8,219.9,303.3,216.5,302,213.3z"/>
<path fill="#241F20" d="M228.1,242.4c6.7-2.5,13.4-4.7,20.1-6.9c1.7-0.5,3.4-1.1,5.1-1.6c1.7-0.5,3.6-0.8,5.5-0.9
	c1.9,0,3.7,0.4,5.5,0.7c1.7,0.4,3.3,0.6,5,0.6c1.7,0,3.4-0.2,5.2-0.3c0.9-0.1,1.8-0.1,2.7-0.2c0.9,0,1.8,0,2.7,0
	c3.6,0.1,7.2,0.6,10.7,1.4c7,1.6,13.6,4.2,20.1,7.1c-6.8-2.1-13.5-4.2-20.4-5.4c-3.4-0.6-6.9-1-10.4-1c-0.9,0-1.7,0-2.6,0.1
	c-0.9,0-1.7,0.1-2.6,0.2c-1.7,0.2-3.5,0.4-5.4,0.4c-0.9,0-1.9-0.1-2.8-0.2c-0.9-0.1-1.8-0.3-2.7-0.5c-1.7-0.4-3.4-0.7-5-0.8
	c-3.3-0.1-6.7,1.1-10.1,2C241.8,239,235,240.8,228.1,242.4z"/>
<path fill="#241F20" d="M245.5,243c4.2-1.6,8.8-2.2,13.4-1.8c2.3,0.2,4.5,0.7,6.6,0.8c2.1,0.2,4.3,0,6.5-0.3
	c2.2-0.2,4.5-0.3,6.8-0.3c2.3,0,4.5,0.1,6.7,0.3c4.5,0.3,8.9,1,13.3,1.8c-4.5,0.1-8.9-0.1-13.4-0.1c-2.2,0-4.4,0-6.6,0.1
	c-2.2,0.1-4.4,0.2-6.6,0.4c-2.2,0.2-4.5,0.4-6.9,0.2c-2.3-0.3-4.5-0.8-6.6-1.2C254.4,242.2,249.9,242.3,245.5,243z"/>
<path fill="#241F20" d="M233.2,252.6c5.3,4.8,11.1,9,17.5,12c6.3,3,13.2,4.9,20.2,5c7,0.2,14-1.4,20.1-4.7c6.2-3.3,11.6-8.1,16.8-13
	c-4.5,5.5-9.7,10.7-15.9,14.5c-3.1,1.9-6.6,3.3-10.1,4.2c-1.8,0.4-3.6,0.8-5.4,1c-1.8,0.2-3.7,0.3-5.5,0.2c-1.8,0-3.7-0.2-5.5-0.5
	c-1.8-0.3-3.6-0.6-5.4-1.1c-1.8-0.5-3.5-1.1-5.2-1.8c-1.7-0.7-3.3-1.5-4.9-2.3C243.5,262.7,237.8,258,233.2,252.6z"/>
<path fill="#241F20" d="M298.8,254.4c-1.8,1.7-4,3.1-6.4,4c-2.4,1-4.9,1.5-7.4,1.9c-5,0.7-10.1,0.7-15.1,0.5c-2.5-0.1-5-0.3-7.5-0.6
	c-2.5-0.3-5-0.7-7.4-1.2c-2.5-0.5-4.9-1-7.3-1.7c-1.2-0.3-2.4-0.7-3.6-1.2c-1.2-0.6-2.2-1.4-2.9-2.5c0.8,1,1.9,1.5,3.1,1.9
	c1.2,0.4,2.4,0.6,3.6,0.7c2.5,0.4,4.9,0.7,7.4,1.1c2.5,0.3,4.9,0.6,7.4,0.8c2.5,0.2,4.9,0.4,7.4,0.5c2.5,0.1,4.9,0.2,7.4,0.2
	c2.5,0.1,4.9,0,7.4-0.2C289.7,258.2,294.6,257.2,298.8,254.4z"/>
<path fill="#241F20" d="M240.5,246.7c-0.3,0.1-0.3,0.4-0.2,0.7c0,0.3,0.2,0.5,0.3,0.7c0.3,0.5,0.6,0.8,1.1,1.2
	c0.8,0.6,1.9,1,2.9,1.1c1,0.1,2.1-0.1,3.1-0.3c1-0.3,2-0.7,3-1l0.3,0.8c0,0,0,0,0,0c0,0,0,0,0,0c0,0,0,0,0.1-0.1c0-0.1,0-0.1,0-0.2
	c0-0.1,0-0.1,0-0.1c0,0,0,0,0,0c0,0,0,0,0.1,0c0.1,0.1,0.3,0.2,0.5,0.3c0.4,0.2,0.8,0.3,1.2,0.4c0.8,0.3,1.7,0.5,2.5,0.7
	c0.2,0,0.4,0.1,0.6,0.1c-0.1,0,0,0,0.1,0l0.2,0c0.1,0,0.2,0,0.4,0c0.5,0,0.9,0.1,1.4,0.2c0.9,0.2,1.8,0.4,2.6,0.5
	c0.9,0.2,1.7,0.3,2.5,0.2c0.4,0,0.8-0.1,1.2-0.1c0.4-0.1,0.8-0.2,1.3-0.3c1.7-0.4,3.3-0.9,4.9-1.6l0,0l0.6-0.3l0.5,0.5
	c0.7,0.7,1.4,1.3,2.1,1.7c0.7,0.3,1.6,0.4,2.6,0.5c0.9,0.1,1.9-0.1,2.9-0.2c1-0.2,2.1-0.4,3.2-0.4c2.3,0,4.2,1,6.1,0.9
	c2,0,4-0.5,5.9-1l0.1,0l0.1,0c1.4,0.6,3,0.9,4.6,0.7c1.6-0.2,3.1-0.8,4.4-1.7c-1.3,1-2.7,1.7-4.3,2c-1.6,0.3-3.3,0.2-4.8-0.4l0.2,0
	c-1.9,0.6-3.9,1.2-6.1,1.4c-2.2,0.2-4.2-0.7-6.1-0.5c-1.9,0.1-3.8,1-6.1,1c-0.5,0-1.1,0-1.6,0c-0.6-0.1-1.2-0.2-1.7-0.4
	c-1.2-0.5-2-1.2-2.8-1.9l1.1,0.2l0,0c-1.7,0.6-3.5,1-5.3,1.3c-0.5,0.1-0.9,0.1-1.4,0.2c-0.5,0.1-1,0.1-1.5,0c-1,0-1.9-0.2-2.8-0.4
	c-0.9-0.2-1.7-0.5-2.6-0.7c-0.4-0.1-0.8-0.2-1.3-0.3l-0.7-0.1c-0.3-0.1-0.5-0.1-0.7-0.2c-0.9-0.3-1.7-0.6-2.6-0.9
	c-0.4-0.2-0.8-0.3-1.3-0.5c-0.2-0.1-0.4-0.2-0.7-0.4c-0.1-0.1-0.1-0.1-0.2-0.2c0,0-0.1-0.1-0.1-0.1c0-0.1-0.1-0.1-0.1-0.2
	c0-0.2,0.1-0.5,0.2-0.5c0.1,0,0.1-0.1,0.1-0.1l0.1-0.1l0.3,0.8c-1,0.3-2.1,0.7-3.2,0.9c-1.1,0.2-2.2,0.3-3.3,0.1
	c-1.1-0.2-2.2-0.6-3-1.3c-0.4-0.4-0.8-0.8-1-1.3c-0.1-0.2-0.2-0.5-0.3-0.8C240.1,247.2,240.2,246.8,240.5,246.7z"/>
<path fill="#241F20" d="M189.7,207c-0.2,3.1-0.3,6.2-0.3,9.3c0,3.1,0.1,6.2,0.3,9.3c0.4,6.2,1.2,12.4,2.4,18.4
	c1.2,6.1,2.7,12.1,5.2,17.8c2.4,5.7,5.8,10.8,9.8,15.6c4,4.7,8.4,9,13.1,13.1c2.3,2.1,4.7,4.1,7.1,6c2.4,1.9,4.9,3.8,7.4,5.5
	c2.6,1.7,5.2,3.3,7.9,4.7c2.7,1.4,5.6,2.5,8.5,3.4c2.9,0.9,5.9,1.5,8.9,1.7c3,0.3,6.1,0.1,9.1-0.3c6-0.9,12-2.7,17.7-4.8
	c5.8-2.2,11.4-4.8,16.8-7.8c5.4-3,10.6-6.4,15.6-10c2.5-1.8,4.9-3.8,7.2-5.8c2.3-2.1,4.4-4.3,6.4-6.6c1.9-2.4,3.6-4.9,5-7.6
	c1.4-2.7,2.5-5.6,3.4-8.5c1.7-5.9,2.6-12.1,3.2-18.2c0.7-6.2,1.2-12.4,1.4-18.6c0.1-3.1,0.2-6.2,0.2-9.3c0-3.1,0-6.2,0-9.3
	c0.2,3.1,0.3,6.2,0.4,9.3c0.1,3.1,0.1,6.2,0,9.3c-0.1,6.2-0.4,12.5-0.9,18.7c-0.6,6.2-1.3,12.4-3,18.5c-0.8,3-1.9,6-3.3,8.9
	c-1.4,2.8-3.1,5.5-5.1,8c-3.9,5-8.7,9.2-13.7,12.9c-5,3.8-10.3,7.2-15.7,10.3c-5.5,3.1-11.2,5.8-17,8c-2.9,1.1-5.9,2.1-8.9,3
	c-3,0.9-6.1,1.6-9.3,2c-3.1,0.4-6.3,0.6-9.5,0.3c-3.2-0.2-6.3-0.8-9.4-1.8c-3-0.9-6-2.2-8.8-3.6c-2.8-1.4-5.5-3.1-8.1-4.8
	c-2.6-1.8-5.1-3.7-7.5-5.6c-2.4-2-4.8-4-7.1-6.1c-4.6-4.2-9.1-8.6-13.1-13.5c-4-4.9-7.4-10.3-9.8-16.1c-2.4-5.8-3.9-12-4.9-18.1
	c-1.1-6.2-1.7-12.4-2-18.6c-0.1-3.1-0.1-6.2-0.1-9.3C189.2,213.2,189.4,210.1,189.7,207z"/>
<path fill="#241F20" d="M269.4,57.8c-3.9-1.6-8.1-2.3-12.2-2.4c-4.2-0.1-8.3,0.4-12.4,1.4c-8.1,2-15.6,5.9-22.5,10.6
	c-3.4,2.4-6.7,4.9-9.9,7.7c-3.2,2.7-6.2,5.6-9.2,8.5c-5.9,5.9-11.5,12.1-16.7,18.6l-1.9,2.5l-1,1.2c-0.3,0.4-0.6,0.8-0.9,1.3
	c-1.2,1.7-2.5,3.4-3.6,5.1l-3.5,5.2l-3.3,5.3c-4.2,7.2-8,14.7-11,22.4c-3.1,7.7-5.5,15.7-7.2,23.8c-1.7,8.1-2.6,16.4-3,24.8
	c-0.9,16.7-0.1,33.4-0.5,50.2c-0.2,8.4-0.7,16.8-2,25.2c-0.4,2.1-0.7,4.2-1.1,6.2c-0.5,2.1-0.9,4.1-1.4,6.2c-0.5,2-1,4.1-1.6,6.1
	c-0.6,2-1.2,4-1.8,6c-5.1,16-11.7,31.5-16.4,47.5c-2.4,8-4.2,16.2-5,24.5L121,369l-0.1,1.6c0,0.5,0,1-0.1,1.6
	c-0.1,2.1,0,4.2,0.2,6.2c0.2,2.1,0.7,4.1,1.4,6.1c0.7,2,1.8,3.8,3.1,5.4c-1.4-1.6-2.5-3.4-3.3-5.3c-0.8-2-1.3-4-1.5-6.1
	c-0.3-2.1-0.4-4.2-0.3-6.3c0-0.5,0-1.1,0-1.6l0.1-1.6l0.2-3.1c0.7-8.4,2.4-16.7,4.6-24.8c4.5-16.2,11-31.7,15.8-47.7
	c2.4-8,4.4-16.1,5.6-24.3c1.2-8.2,1.7-16.6,1.8-24.9c0.3-16.7-0.6-33.5,0.3-50.3c0.5-8.4,1.4-16.8,3.2-25.1
	c1.8-8.3,4.3-16.3,7.4-24.2c6.3-15.6,15.1-30.2,25.8-43.3c5.3-6.5,11-12.7,17.1-18.6c3-2.9,6.1-5.8,9.3-8.5
	c3.2-2.7,6.6-5.3,10.1-7.6c7-4.7,14.7-8.4,22.9-10.3c4.1-0.9,8.3-1.4,12.5-1.2C261.3,55.3,265.5,56.2,269.4,57.8z"/>
<path fill="#241F20" d="M274.4,58.3c0,0.1,0.1,0.3,0,0.4c-0.1,0.1-0.3,0-0.4-0.1c-0.2-0.1-0.4-0.3-0.5-0.6c-0.1-0.1-0.1-0.2-0.1-0.4
	c0-0.1,0.1-0.2,0.2-0.3c0.2-0.1,0.5-0.2,0.7-0.2c1,0,2,0.5,3,0.3c2-0.3,4.1-0.3,6.1,0.1c4,0.8,7.7,2.7,11.2,4.7
	c7,4.1,13.9,8.3,20.7,12.8c6.7,4.5,13.2,9.4,19.3,14.9c6.1,5.4,11.6,11.5,16.2,18.3c4.7,6.7,8.2,14.2,10.9,21.9
	c2.7,7.7,4.7,15.6,6.4,23.6c1.7,8,2.9,16,3.8,24.1c0.4,4,0.8,8.1,1,12.2c0.2,4.1,0.4,8.1,0.5,12.2c0.3,8.1,0.7,16.1,2.1,24
	c1.4,7.9,3.9,15.6,6.7,23.1c2.8,7.5,6.1,14.9,9.3,22.4c0.8,1.9,1.6,3.7,2.4,5.6c0.8,1.9,1.5,3.8,2.3,5.6c0.8,1.9,1.4,3.8,2.1,5.7
	c0.7,1.9,1.3,3.9,2,5.8c2.5,7.8,4.3,15.8,4.9,23.9c0.6,8.1,0.1,16.4-1.5,24.3c-1.7,8-4.4,15.7-8,23c-1.9,3.6-3.9,7.1-6.2,10.5
	c-2.3,3.4-4.9,6.5-7.6,9.5c2.6-3.1,5.1-6.3,7.3-9.7c2.3-3.3,4.2-6.9,6-10.5c3.5-7.3,5.9-15,7.4-22.9c1.5-7.9,1.9-16,1.2-24
	c-0.7-8-2.6-15.9-5.1-23.5c-0.7-1.9-1.3-3.8-2-5.7c-0.7-1.9-1.4-3.8-2.2-5.6l-1.1-2.8c-0.4-0.9-0.8-1.9-1.2-2.8
	c-0.8-1.9-1.6-3.7-2.4-5.6c-3.2-7.4-6.5-14.8-9.4-22.4c-2.9-7.6-5.4-15.4-6.9-23.5c-1.5-8.1-1.9-16.2-2.2-24.3
	c-0.1-4.1-0.3-8.1-0.5-12.1c-0.2-4-0.5-8-0.9-12.1c-0.8-8-2-16-3.7-23.9c-1.6-7.9-3.6-15.7-6.2-23.3c-1.3-3.8-2.8-7.5-4.5-11.1
	c-0.9-1.8-1.8-3.6-2.8-5.3l-1.6-2.6l-0.8-1.3c-0.3-0.4-0.6-0.8-0.8-1.2c-4.5-6.7-9.8-12.8-15.7-18.2c-5.9-5.5-12.3-10.4-18.9-15
	c-6.6-4.6-13.5-9-20.4-13.2c-3.4-2.1-7-4-11-4.9c-2-0.4-4-0.6-6-0.3c-0.5,0.1-1,0-1.5-0.1c-0.5-0.1-1-0.3-1.5-0.3
	c-0.2,0-0.5,0.1-0.7,0.2c-0.1,0.1-0.2,0.1-0.2,0.3c0,0.1,0,0.2,0,0.4c0.1,0.2,0.3,0.4,0.5,0.6c0.1,0.1,0.2,0.1,0.3,0.1
	C274.5,58.6,274.4,58.5,274.4,58.3z"/>
<path fill="#241F20" d="M290.1,89.9c2.5,2.2,5,4.4,7.2,6.8c2.3,2.4,4.4,5,6.4,7.6c4,5.3,7.6,11,10.7,16.8
	c6.3,11.7,11.2,24.1,16.2,36.4c2.5,6.1,5,12.3,7.7,18.3c2.7,6.1,5.6,12,8.8,17.8c3.1,5.8,6.3,11.7,9,17.9c2.6,6.2,4.5,12.7,5.8,19.2
	c1.3,6.6,2.1,13.2,2.6,19.8c0.3,3.3,0.5,6.6,0.8,9.9c0.2,3.3,0.4,6.6,0.5,10c0.3,6.7,0.3,13.3-0.2,20c-0.3,3.3-0.6,6.7-1.2,10
	c-0.6,3.3-1.3,6.6-2.2,9.8c-1.9,6.4-4.5,12.6-7.6,18.5c-3.1,5.9-6.7,11.5-10.5,17c-3.8,5.4-7.9,10.7-12,15.9
	c-2.1,2.6-4.1,5.2-6.3,7.8c-2.2,2.5-4.6,4.8-7.4,6.6c2.7-1.9,5.1-4.3,7.2-6.8c2.1-2.5,4-5.2,6-7.9c4-5.3,7.9-10.7,11.6-16.2
	c3.7-5.5,7.2-11.1,10.2-17c3-5.9,5.4-12,7.2-18.3c0.8-3.2,1.5-6.4,2-9.6c0.5-3.2,0.9-6.5,1.1-9.8c0.4-6.6,0.4-13.2,0.1-19.8
	c-0.3-6.6-0.8-13.2-1.4-19.8c-0.6-6.6-1.4-13.1-2.6-19.6c-1.3-6.5-3.1-12.8-5.6-18.8c-2.5-6.1-5.7-11.9-8.8-17.7
	c-3.1-5.9-6.1-11.9-8.7-18c-2.7-6.1-5.1-12.3-7.5-18.5c-4.8-12.4-9.5-24.8-15.6-36.5c-3-5.9-6.4-11.6-10.2-17
	c-1.9-2.7-4-5.3-6.2-7.7C294.9,94.4,292.6,92.1,290.1,89.9z"/>
<path fill="#241F20" d="M374.4,268.1l0.9,4.2c0.3,1.4,0.6,2.8,0.8,4.2c0.6,2.8,1.1,5.7,1.5,8.5c0.8,5.7,1.3,11.5,1.1,17.3
	c-0.2,5.8-1.2,11.6-3,17.2c-1.8,5.6-4.3,10.9-7.2,15.9c-3,5-6.3,9.7-9.9,14.3c-3.6,4.5-7.5,8.8-11.4,13c-4,4.2-7.9,8.4-12.5,12
	c-2.3,1.8-4.7,3.5-7.2,4.8l-1,0.5l-1,0.5c-0.6,0.3-1.3,0.6-2,0.8c-0.7,0.3-1.4,0.5-2.1,0.7c-0.7,0.2-1.4,0.4-2.1,0.5
	c0.7-0.2,1.4-0.4,2-0.7c0.7-0.3,1.3-0.5,2-0.8c0.6-0.3,1.3-0.6,1.9-0.9l0.9-0.5l0.9-0.6c2.4-1.5,4.7-3.2,6.8-5.1
	c4.3-3.8,8.1-8.1,11.9-12.4c3.8-4.3,7.6-8.6,11.1-13.2c3.5-4.5,6.8-9.2,9.7-14.1c2.9-4.9,5.3-10,7.1-15.4c0.9-2.7,1.6-5.4,2.2-8.2
	c0.5-2.8,0.9-5.6,1.1-8.4c0.4-5.7,0.1-11.4-0.4-17.1C376.1,279.5,375.1,273.8,374.4,268.1z"/>
<path fill="#241F20" d="M385.7,287.2c1.5,4.9,3,9.8,4,14.8c1,5,1.5,10.2,0.9,15.4c-0.5,5.2-2,10.2-3.7,15.1c-0.9,2.4-1.9,4.8-3,7.1
	l-0.8,1.8l-0.8,1.7c-0.6,1.2-1.1,2.3-1.7,3.5c-4.7,9.1-10.4,17.8-16.9,25.7c-6.5,7.9-13.9,15.1-22,21.4c7.5-6.9,14.5-14.4,20.7-22.4
	c3.1-4,6-8.2,8.7-12.5c0.7-1.1,1.4-2.1,2-3.2l1.9-3.3l1.9-3.3c0.6-1.1,1.2-2.2,1.8-3.4c0.6-1.1,1.1-2.3,1.7-3.4l0.8-1.7l0.8-1.7
	c1.1-2.3,2.1-4.6,3-7c1.9-4.7,3.3-9.5,4-14.5c0.6-5,0.4-10-0.3-15.1C387.9,297.2,386.8,292.2,385.7,287.2z"/>
<path fill="#241F20" d="M273.1,72.6l-2.8,4.3c-1,1.4-2,2.8-3,4.1c-2.1,2.7-4.2,5.4-6.5,7.9c-4.5,5.2-9.2,10.1-13.9,15
	c-4.7,4.9-9.5,9.8-14,14.8c-4.5,5.1-8.8,10.3-12.5,16c-1.8,2.8-3.6,5.7-5.2,8.7c-1.6,3-3,6-4.3,9.2c-2.6,6.2-4.8,12.7-6.8,19.2
	l-11.9,39.1c-2,6.5-4,13-5.6,19.6c-1.6,6.6-2.6,13.3-2.5,20c0.1,6.7,1.7,13.3,3.7,19.7c2.1,6.4,4.6,12.8,6.7,19.3
	c2.2,6.5,3.8,13.2,4.6,20c0.8,6.8,1,13.7,0.4,20.5c-0.6,6.8-1.9,13.6-3.8,20.1c-1,3.3-2.1,6.5-3.4,9.6c-0.3,0.8-0.7,1.6-1,2.3
	l-1.1,2.3c-0.8,1.5-1.6,3-2.3,4.5c0.7-1.5,1.5-3.1,2.2-4.6l1-2.4c0.3-0.8,0.7-1.6,1-2.4c1.2-3.2,2.3-6.4,3.2-9.7
	c1.8-6.6,2.9-13.3,3.3-20c0.5-6.8,0.2-13.6-0.7-20.3c-0.9-6.7-2.6-13.3-4.9-19.7c-2.2-6.4-4.8-12.7-7-19.2c-2.1-6.5-3.8-13.3-4-20.3
	c-0.2-6.9,0.9-13.8,2.4-20.5c1.6-6.7,3.6-13.2,5.6-19.7l6-19.5c2-6.5,3.9-13,6-19.5c2.1-6.5,4.3-13,7-19.3c1.4-3.1,2.8-6.3,4.5-9.3
	c1.6-3,3.5-5.9,5.4-8.8c3.9-5.7,8.3-10.9,12.9-16c4.6-5,9.5-9.8,14.3-14.6c4.8-4.8,9.7-9.6,14.2-14.6c2.3-2.5,4.5-5.1,6.6-7.8
	c1-1.3,2.1-2.7,3.1-4L273.1,72.6z"/>
<path fill="#241F20" d="M251.3,72.4c-2.5,2.3-5,4.6-7.4,7l-1.8,1.8l-1.8,1.8c-1.2,1.2-2.4,2.4-3.6,3.6c-4.8,4.8-9.4,9.8-13.9,14.8
	c-2.3,2.5-4.4,5.1-6.6,7.7l-3.2,3.9c-1.1,1.3-2.1,2.7-3.1,4c-4.1,5.4-8,10.9-11.6,16.6c-3.6,5.7-6.9,11.6-9.9,17.6
	c-3,6-5.7,12.2-8,18.6c-0.6,1.6-1.1,3.2-1.7,4.8l-1.5,4.8c-0.5,1.6-0.9,3.2-1.3,4.9c-0.5,1.6-0.8,3.3-1.2,4.9
	c-1.5,6.6-2.6,13.2-3.2,19.9c-0.6,6.7-0.7,13.4-0.4,20.1c0.4,6.7,1.4,13.4,2.9,19.9c1.5,6.6,3.5,13,5.5,19.5
	c1.9,6.5,3.8,13.1,4.9,19.8c2.3,13.5,2.1,27.3,0.3,40.7c-0.9,6.7-2.3,13.4-3.9,20l-1.3,4.9l-1.3,4.9l-1.4,4.9l-1.5,4.8l1.4-4.9
	l1.3-4.9l1.2-4.9l1.1-5c1.4-6.6,2.6-13.3,3.4-20c1.6-13.4,1.7-27-0.8-40.3c-2.4-13.2-7.6-25.8-10.8-39.1c-1.5-6.7-2.5-13.4-3-20.3
	c-0.4-6.8-0.3-13.7,0.3-20.5c0.6-6.8,1.7-13.6,3.3-20.2c1.5-6.6,3.5-13.2,5.9-19.6c2.4-6.4,5.1-12.7,8.2-18.7
	c3.1-6.1,6.5-11.9,10.2-17.7c3.7-5.7,7.7-11.2,11.9-16.6c1.1-1.3,2.1-2.7,3.2-4l3.3-3.9c2.2-2.6,4.4-5.1,6.7-7.6
	C231.2,90.6,241,81.2,251.3,72.4z"/>
<path fill="#241F20" d="M227.4,79.6c-2.3,2.5-4.6,5.1-6.9,7.6c-2.3,2.6-4.6,5.1-6.8,7.7c-4.5,5.2-8.9,10.4-13.2,15.8
	c-8.6,10.7-16.5,21.9-23.4,33.7c-6.8,11.8-12.6,24.3-16.7,37.3c-4.1,13-6.6,26.5-6.7,40.1c-0.1,6.8,0.5,13.6,1.4,20.4
	c0.9,6.8,2.1,13.5,3.3,20.3c1.2,6.8,2.4,13.5,3.2,20.4c0.8,6.8,1.2,13.8,1.1,20.7c-0.1,13.8-1.8,27.5-4.3,41
	c-1.2,6.8-2.7,13.5-4.3,20.2c-0.8,3.3-1.6,6.7-2.4,10l-2.5,10c2.9-13.4,5.9-26.8,8.1-40.3c2.2-13.5,3.8-27.2,3.7-40.8
	c0-0.9,0-1.7,0-2.6l-0.1-2.6l-0.1-2.6c0-0.9-0.1-1.7-0.2-2.6c-0.2-3.4-0.5-6.8-1-10.2c-0.8-6.8-2.1-13.5-3.3-20.3
	c-1.2-6.7-2.4-13.5-3.4-20.4c-0.9-6.8-1.5-13.7-1.4-20.7c0.1-13.9,2.7-27.6,6.9-40.8c4.3-13.1,10.1-25.7,17.2-37.5
	c7.1-11.8,15.3-22.9,24-33.5c4.4-5.3,8.9-10.4,13.6-15.5c2.3-2.5,4.7-5,7-7.5C222.6,84.6,225,82.1,227.4,79.6z"/>
<path fill="#241F20" d="M225.7,166.4c-0.9,2.3-0.4,4.8,0.8,6.5c1.2,1.8,3.2,2.8,5.3,2.9c1.1,0.1,2.1-0.1,3.1-0.5
	c0.5-0.2,1-0.4,1.4-0.7c0.4-0.3,0.9-0.6,1.3-1c1.6-1.5,2.7-3.7,3.1-6.1c0.5,2.4-0.2,5.2-1.8,7.3c-0.4,0.5-0.9,1-1.4,1.4
	c-0.5,0.4-1.1,0.8-1.8,1.1c-0.6,0.3-1.3,0.5-2,0.6c-0.7,0.1-1.4,0.2-2,0.1c-0.7,0-1.4-0.2-2-0.3c-0.7-0.2-1.3-0.5-1.9-0.8
	c-0.6-0.4-1.1-0.8-1.6-1.3c-0.5-0.5-0.9-1.1-1.2-1.7c-0.3-0.6-0.5-1.3-0.6-1.9c-0.1-0.7-0.2-1.3-0.1-2c0.1-0.7,0.2-1.3,0.4-1.9
	C225,167.4,225.3,166.8,225.7,166.4z"/>
<path fill="#241F20" d="M302.3,171.5c-0.3,1.1-0.6,2.2-0.7,3.3c-0.1,1.1,0.2,2,0.7,2.8c0.5,0.8,1.4,1.3,2.3,1.8
	c0.9,0.4,1.9,0.7,2.9,0.8c2.1,0.2,4.2-0.1,5.9-1.2c1.7-1.1,3.1-2.9,3.2-5.2c0.4,1.1,0.3,2.4-0.1,3.6c-0.4,1.2-1.1,2.2-2.1,3.1
	c-1,0.8-2.2,1.4-3.4,1.7c-1.2,0.3-2.5,0.4-3.7,0.3c-1.2-0.1-2.5-0.5-3.6-1.1c-1.1-0.6-2.2-1.5-2.8-2.7c-0.3-0.6-0.5-1.3-0.5-1.9
	c0-0.7,0.1-1.3,0.2-1.9C301,173.4,301.6,172.4,302.3,171.5z"/>
<path fill="#241F20" d="M310.7,199.8c-3.8,4.5-2.9,11.1-1.3,16.8c1.8,6.2,5.3,13,11.6,14.6c6.9,1.8,14.2-4.6,14.5-11.7
	C336,208.2,323.7,184.4,310.7,199.8z"/>
<path fill="#241F20" d="M215,203.1c-2.5,0.6-4.7,2-6.8,3.6c-6.2,4.7-11.7,11.4-11.5,19.2c0.1,2.6,0.8,5.2,2.6,7.1
	c2.4,2.6,6.3,3.2,9.8,2.8c5.8-0.6,11.2-3.8,14.6-8.6C229.2,219.4,229.2,199.9,215,203.1z"/>
</svg>
