<?xml version="1.0" encoding="utf-8"?>
<!-- Generator: Adobe Illustrator 22.1.0, SVG Export Plug-In . SVG Version: 6.00 Build 0)  -->
<svg version="1.0" id="Calque_1" xmlns="http://www.w3.org/2000/svg" xmlns:xlink="http://www.w3.org/1999/xlink" x="0px" y="0px"
	 viewBox="0 0 500 500" enable-background="new 0 0 500 500" xml:space="preserve">
<circle fill="#F9F9FA" cx="246.1" cy="238.3" r="211.7"/>
<path fill="#241F20" d="M162.4,260.8c-0.5,4.1,1.5,8.2,4.1,11.5c3.3,4.3,8.1,8.2,13.5,7.8c6-0.4,10.4-5.8,13-11.2
	c1.4-3,2.5-6.2,2.7-9.4C196.5,238.3,164.4,244.3,162.4,260.8z"/>
<path fill="#241F20" d="M268,249.9c-0.5,4.1,1.5,8.2,4.1,11.5c3.3,4.3,8.1,8.2,13.5,7.8c6-0.4,10.4-5.8,13-11.2
	c1.4-3,2.5-6.2,2.7-9.4C302.2,227.4,270.1,233.3,268,249.9z"/>
<path fill="#241F20" d="M137.4,137c-1.5,5.3-2.3,10.8-2.6,16.4c-0.3,5.5-0.1,11.1,0.5,16.6c1.2,11,3.6,21.8,6.2,32.6l15.3,64.7
	c2.6,10.8,5,21.6,8.1,32.2c3.1,10.6,6.8,21,11.8,30.8c2.5,4.9,5.4,9.6,8.7,13.9c3.3,4.4,6.9,8.5,11,12.2c4,3.7,8.4,7,13.1,9.7
	c4.7,2.7,9.7,4.9,15,6.3c5.2,1.4,10.7,2,16.1,1.8c5.4-0.2,10.8-1.3,15.9-3.1c10.3-3.6,19.6-9.9,27.3-17.6c7.8-7.7,14-16.9,19-26.7
	c2.5-4.9,4.7-9.9,6.8-15c2.1-5.1,3.9-10.3,5.7-15.5c6.9-21,13.2-42.3,17.3-64c2.1-10.9,3.5-21.8,4.2-32.9c0.3-5.5,0.4-11.1,0.3-16.6
	c0-1.4-0.1-2.8-0.2-4.1l-0.2-4.1c-0.2-2.8-0.5-5.5-0.8-8.3c0.3,2.8,0.7,5.5,0.9,8.3l0.3,4.1c0.1,1.4,0.2,2.8,0.2,4.1
	c0.2,5.5,0.2,11.1,0,16.6c-0.5,11.1-1.8,22.1-3.7,33c-3.9,21.9-10,43.2-16.7,64.3c-1.7,5.3-3.5,10.5-5.6,15.7
	c-2,5.2-4.3,10.3-6.8,15.2c-2.5,5-5.4,9.8-8.6,14.4c-3.2,4.6-6.8,8.9-10.7,12.9c-7.9,7.9-17.4,14.4-28.1,18.1
	c-5.3,1.9-10.9,3-16.5,3.3c-5.6,0.3-11.3-0.4-16.8-1.8c-5.5-1.5-10.7-3.7-15.5-6.6c-4.9-2.8-9.4-6.2-13.5-10
	c-4.1-3.8-7.9-8-11.2-12.5c-3.3-4.5-6.2-9.3-8.8-14.3c-5.1-9.9-8.8-20.5-11.9-31.2c-3.1-10.7-5.4-21.5-7.9-32.3l-14.7-64.8
	c-2.4-10.8-4.7-21.7-5.7-32.8c-0.5-5.5-0.7-11.1-0.3-16.6C134.9,147.8,135.8,142.3,137.4,137z"/>
<path fill="#241F20" d="M333.6,236.5c1.2-1.2,2.5-2.4,3.8-3.4c1.4-1,2.8-2,4.3-2.8c1.5-0.8,3.1-1.6,4.7-2.1c1.7-0.5,3.5-0.9,5.4-0.6
	c0.2,0,0.5,0.1,0.7,0.2c0.2,0.1,0.5,0.2,0.7,0.2c0.5,0.2,0.9,0.5,1.3,0.7c0.8,0.5,1.5,1.1,2.1,1.9c0.6,0.7,1.1,1.5,1.5,2.3
	c0.4,0.8,0.7,1.7,1,2.6c0.5,1.8,0.6,3.6,0.5,5.4c-0.1,0.9-0.2,1.8-0.4,2.7c-0.2,0.9-0.5,1.7-0.8,2.6c-1.3,3.3-3.1,6.3-5,9.1
	c-1.9,2.8-3.9,5.7-6.3,8.1c-1.2,1.2-2.6,2.4-4.1,3.3c-1.5,1-3.1,1.7-4.8,2.1c-1.7,0.4-3.5,0.6-5.2,0.4c-1.7-0.2-3.4-0.8-4.8-1.8
	c3,1.6,6.6,1.5,9.6,0.4c3.1-1.1,5.7-3.1,7.9-5.6c2.2-2.5,4-5.3,5.8-8.1c1.8-2.8,3.6-5.7,4.7-8.7c0.6-1.5,1-3.1,1.1-4.6
	c0.1-0.8,0.1-1.6,0-2.3c-0.1-0.8-0.2-1.6-0.4-2.3c-0.2-0.8-0.4-1.5-0.8-2.2c-0.3-0.7-0.7-1.4-1.2-2c-0.5-0.6-1-1.1-1.6-1.6
	c-0.3-0.2-0.6-0.4-0.9-0.6c-0.2-0.1-0.3-0.1-0.5-0.2c-0.2,0-0.3-0.1-0.5-0.1c-1.4-0.3-3.1-0.1-4.6,0.3c-1.6,0.4-3.1,1-4.7,1.7
	c-1.5,0.7-3,1.5-4.5,2.3C336.3,234.5,334.9,235.4,333.6,236.5z"/>
<path fill="#241F20" d="M149.6,238.4c-3.2-0.7-6.1-2.4-9.1-3.6c-1.5-0.6-3-1.1-4.5-1.1c-0.4,0-0.7,0-1.1,0.1l-0.5,0.1l-0.5,0.1
	c-0.7,0.2-1.4,0.5-2,0.9c-1.3,0.8-2.3,1.9-3.1,3.1c-0.8,1.3-1.3,2.7-1.5,4.2c-0.4,3,0.2,6.1,1.4,9c1.2,2.9,2.8,5.6,4.9,8
	c2,2.4,4.5,4.5,7.1,6.2c5.3,3.4,11.7,5.3,18.2,5.2c-6.5,1.2-13.4-0.3-19.2-3.6c-2.9-1.6-5.6-3.8-7.8-6.3c-2.3-2.5-4.1-5.4-5.4-8.6
	c-0.6-1.6-1.1-3.2-1.4-4.9c-0.3-1.7-0.3-3.5,0-5.2c0.6-3.5,2.6-6.8,5.8-8.5c0.8-0.4,1.6-0.7,2.5-0.9l0.7-0.1l0.7,0
	c0.4,0,0.9,0,1.3,0c1.8,0.2,3.4,0.8,4.9,1.6C143.9,235.3,146.5,237.3,149.6,238.4z"/>
<path fill="#241F20" d="M221.2,133.4c1.6-2.3,3.1-4.6,4.5-6.9c1.4-2.4,2.8-4.7,4.1-7.2c1.3-2.4,2.5-4.9,3.6-7.4
	c1.1-2.5,2.2-5,3.1-7.6l2,0.8c-0.7,1.5-1.2,3.1-1.7,4.7c-0.5,1.6-0.9,3.2-1.3,4.9c-0.2,0.8-0.3,1.6-0.4,2.5
	c-0.1,0.4-0.1,0.8-0.2,1.2c-0.1,0.4-0.1,0.8-0.1,1.2c0,0.8,0,1.5,0.2,2.2c0.2,0.6,0.5,1.1,0.9,1.2l-0.9,0.1c1.9-1.2,3.7-2.6,5.4-4.2
	c1.7-1.6,3.2-3.3,4.6-5.1c1.4-1.8,2.6-3.8,3.7-5.9c0.3-0.5,0.5-1.1,0.9-1.6c0.3-0.5,0.8-1,1.4-1.3c0.3-0.1,0.7-0.2,1-0.2
	c0.3,0,0.6,0.2,0.9,0.3c0.3,0.2,0.5,0.4,0.6,0.7c0.1,0.3,0.1,0.6-0.1,0.9c0.1-0.3,0.1-0.6,0-0.8c-0.1-0.2-0.4-0.4-0.6-0.6
	c-0.5-0.3-1.1-0.3-1.5,0c-0.5,0.3-0.8,0.7-1,1.2c-0.3,0.5-0.4,1-0.7,1.6c-0.4,1.1-0.9,2.2-1.5,3.3c-0.6,1.1-1.2,2.1-1.8,3.1
	c-1.3,2-2.8,3.9-4.5,5.6c-1.7,1.7-3.6,3.3-5.6,4.6l-0.4,0.3l-0.5-0.2c-0.6-0.2-1.1-0.6-1.5-1.1c-0.4-0.5-0.6-1-0.8-1.5
	c-0.3-1-0.4-2-0.3-2.9c0-0.2,0-0.5,0.1-0.7l0.1-0.7c0-0.4,0.1-0.9,0.2-1.3c0.1-0.9,0.3-1.7,0.4-2.6c0.7-3.4,1.8-6.8,3.2-10l2,0.8
	c-1,2.6-2.2,5.1-3.4,7.6c-1.2,2.5-2.6,4.9-4,7.3c-1.5,2.4-3,4.7-4.7,6.9C224.9,129.2,223.1,131.4,221.2,133.4z"/>
<path fill="#241F20" d="M250.1,116.8c0.6-2.3,1.5-4.5,2.7-6.6c1.2-2.1,2.7-4.1,4.6-5.6c2-1.6,4.4-2.6,6.9-2.8c1.2-0.1,2.5,0,3.7,0.3
	c1.2,0.4,2.3,1,3.1,1.8c-2.2-0.9-4.5-0.9-6.6-0.4c-2.1,0.5-4.1,1.5-5.7,2.8c-1.7,1.4-3.2,3-4.6,4.8C252.9,113,251.6,115,250.1,116.8
	z"/>
<path fill="#241F20" d="M261.9,114.3c1-2.2,2.8-4.2,5-5.6c2.1-1.4,4.6-2.3,7.2-2.5c2.6-0.2,5.2,0.2,7.5,1.3c2.3,1,4.4,2.6,5.8,4.7
	c-2.1-1.4-4.2-2.4-6.4-3c-2.2-0.6-4.5-0.9-6.7-0.7c-2.2,0.2-4.5,0.8-6.5,1.8C265.6,111.3,263.7,112.6,261.9,114.3z"/>
<path fill="#241F20" d="M278.7,114.9l-3.7-0.5l0.1-0.3c4.1,0.4,8.2,0.2,12.4,0.1c4.1-0.1,8.3-0.2,12.5,0.5c4.2,0.6,8.3,2.2,11.8,4.7
	c1.8,1.3,3.4,2.8,4.6,4.6c1.3,1.8,2.1,3.9,2.5,6.2l0.5,3l-2.3-2c-1.3-1.1-2.6-2.1-4-3c-1.4-0.9-2.8-1.9-4.3-2.7
	c-1.5-0.8-3-1.6-4.5-2.3c-1.5-0.7-3.1-1.2-4.7-1.6l0.6-2.1c3.4,1.4,6.8,2.9,10,4.6c3.3,1.7,6.5,3.7,9.3,6.1c2.8,2.4,5.3,5.3,7.1,8.6
	c1.8,3.3,2.8,7,2.7,10.6c-0.3-3.7-1.6-7.1-3.5-10.2c-1.9-3-4.4-5.7-7.3-7.9c-2.8-2.2-6-4-9.2-5.5c-3.3-1.6-6.6-2.9-10-4.3l0.6-2.1
	c1.8,0.3,3.5,1,5.1,1.7c1.6,0.7,3.2,1.5,4.7,2.4c3.1,1.7,6,3.7,8.7,6l-1.8,1c-0.3-1.9-1-3.7-2.1-5.3c-1.1-1.6-2.5-3-4-4.2
	c-1.6-1.2-3.3-2.2-5.2-2.9c-1.8-0.8-3.8-1.4-5.7-1.7c-4-0.7-8.1-0.9-12.2-1c-4.1-0.1-8.3-0.2-12.4-1l0.1-0.3L278.7,114.9z"/>
<path fill="#241F20" d="M345.2,214.8c1.2-3.6,2.1-7.2,2.9-10.8c0.8-3.6,1.3-7.3,1.7-11c0.3-3.7,0.5-7.4,0.4-11.1
	c-0.1-3.7-0.3-7.4-0.8-11.1l1.6,0.4c-2.3,3.6-3.1,8-2.4,12.1l-1.8-0.4c2.2-3.1,3.5-6.9,3.8-10.7c0.4-3.9,0.2-7.8-0.2-11.8
	c-0.4-4-1-7.9-1.3-12c-0.4-4.1-0.3-8.1-0.3-12.1c0-4-0.1-8-0.8-11.8c-0.3-1.9-0.8-3.8-1.4-5.7c-0.6-1.9-1.3-3.7-2-5.6
	c-1.5-3.7-3.4-7.2-5.3-10.7c-1-1.7-2-3.5-3-5.2l-1.5-2.6c-0.1-0.2-0.2-0.3-0.3-0.4c-0.1-0.1-0.1-0.1-0.1-0.1c0,0,0,0,0,0
	c0,0,0.1,0,0.1,0c0.1,0,0.1-0.1,0.2-0.2c0-0.1,0-0.1,0-0.1c0,0,0,0-0.1,0c-0.1,0-0.2-0.1-0.5-0.1c-0.1,0-0.2,0.1-0.2,0.1
	c0,0,0,0-0.1,0.1l0,0.8c-3.3-4.3-7.5-8-12.3-10.6c-2.4-1.3-5-2.4-7.6-3.2c-2.6-0.8-5.4-1.3-8.1-1.6c2.8,0.1,5.5,0.5,8.2,1.2
	c2.7,0.7,5.3,1.6,7.9,2.9c2.5,1.2,4.9,2.7,7.1,4.5c2.2,1.8,4.2,3.8,6,6l0.3,0.4l-0.3,0.4c-0.1,0.1-0.1,0.2-0.2,0.2
	c-0.1,0.1-0.2,0.2-0.4,0.2c-0.4,0.1-0.7,0-0.8-0.2c-0.3-0.2-0.4-0.4-0.5-0.7c-0.1-0.2-0.1-0.5,0-0.9c0.1-0.2,0.2-0.4,0.4-0.5
	c0.1-0.1,0.2-0.1,0.3-0.1c0.1,0,0.1,0,0.2-0.1c0.5-0.1,1,0.1,1.3,0.4c0.3,0.2,0.5,0.5,0.7,0.7c0.6,0.9,1.1,1.7,1.6,2.6
	c1.1,1.7,2.1,3.4,3.2,5.2c2.1,3.5,4,7,5.7,10.8c0.8,1.9,1.6,3.8,2.2,5.7c0.6,1.9,1.2,3.9,1.5,6c0.8,4.1,0.9,8.2,0.9,12.2
	c0,4,0,8,0.4,12c0.3,4,0.9,7.9,1.3,12c0.4,4,0.6,8.1,0.1,12.3c-0.4,4.1-1.9,8.2-4.4,11.7l-1.4,1.9l-0.4-2.4
	c-0.8-4.6,0.3-9.5,2.9-13.4l1.3-2l0.3,2.4c0.4,3.7,0.6,7.5,0.5,11.3c-0.1,3.8-0.3,7.5-0.8,11.2c-0.5,3.7-1.2,7.4-2.2,11
	C347.7,207.8,346.6,211.3,345.2,214.8z"/>
<path fill="#241F20" d="M194.6,57.2c-3.3,0.3-6.5,0.8-9.5,1.8c-3,1-5.9,2.2-8.7,3.8c-2.7,1.6-5.3,3.5-7.6,5.7
	c-2.3,2.2-4.3,4.7-6.1,7.5c1-3.2,2.7-6.1,4.8-8.7c2.2-2.6,4.8-4.8,7.7-6.5c2.9-1.7,6.1-3,9.4-3.6C188,56.6,191.4,56.5,194.6,57.2z"
	/>
<path fill="#241F20" d="M186,114.4c2-0.4,4-0.9,5.9-1.5c1.9-0.6,3.7-1.4,5.3-2.6c1.5-1.2,2.7-2.8,3.3-4.5c0.6-1.7,0.6-3.6-0.2-5.2
	l1.6,0.2c-1.3,1.5-2,3.5-2.4,5.6c-0.5,2.1-0.7,4.3-1.2,6.6c-0.5,2.3-1.3,4.6-2.6,6.5c-1.3,2-2.9,3.8-4.8,5.2c-1,0.7-2,1.3-3,1.8
	c-0.5,0.2-1.1,0.5-1.6,0.7l-0.8,0.3c-0.2,0.1-0.5,0.2-0.7,0.3c-0.4,0.2-0.8,0.5-1,0.8c-0.1,0.1-0.2,0.2-0.2,0.3c0,0,0,0.1,0,0.1
	c0,0,0,0.1,0.1,0.1c0.1,0.2,0.4,0.3,0.9,0.4c0.4,0.1,1,0,1.6,0c4.3-0.1,8.6-1.8,12-4.8c-2.9,3.4-7.2,5.7-11.9,6.2
	c-0.3,0-0.6,0-0.9,0.1c-0.3,0-0.6,0-0.9,0c-0.3,0-0.7-0.1-1-0.2c-0.4-0.1-0.7-0.4-1-0.7c-0.1-0.2-0.2-0.4-0.3-0.6
	c-0.1-0.2-0.1-0.5-0.1-0.7c0-0.5,0.2-0.9,0.4-1.2c0.5-0.6,1-1,1.5-1.3c0.3-0.2,0.6-0.3,0.8-0.4l0.8-0.3c0.5-0.2,1-0.4,1.4-0.7
	c0.9-0.5,1.8-1.1,2.6-1.7c0.8-0.6,1.6-1.4,2.3-2.2c0.7-0.8,1.3-1.6,1.9-2.5c0.6-0.9,1-1.8,1.4-2.8c0.4-1,0.7-2,0.9-3
	c0.5-2.1,0.7-4.3,1.2-6.6c0.5-2.2,1.4-4.6,3.1-6.5l1-1.1l0.6,1.3c0.5,1.1,0.8,2.2,0.7,3.4c0,1.1-0.3,2.3-0.7,3.3
	c-0.9,2-2.3,3.8-4.1,5c-1.8,1.2-3.8,1.9-5.8,2.3C190,114.1,188,114.3,186,114.4z"/>
<path fill="#241F20" d="M206.7,124.6c0.2-0.5,0.3-0.7,0.4-0.8c0.1-0.2,0.2-0.2,0.2-0.2c0.1,0,0.1,0.1,0.1,0.3c0,0.2,0,0.4,0,0.9
	c-0.2,0.5-0.3,0.7-0.4,0.8c-0.1,0.2-0.2,0.2-0.2,0.2c-0.1,0-0.1-0.1-0.1-0.3C206.6,125.3,206.6,125.1,206.7,124.6z"/>
<path fill="#241F20" d="M167.1,118.2c0.5-1.2,0.9-2.3,1.2-3.5c0.3-1.2,0.6-2.4,0.7-3.6c0.1-1.2,0.2-2.4,0.2-3.6
	c0-1.2-0.1-2.4-0.3-3.6l1.6,0.3c-0.9,1.9-1.7,3.8-2.7,5.7c-0.9,1.9-1.8,3.8-2.7,5.7c-0.9,1.9-1.8,3.8-2.8,5.6
	c-0.5,0.9-0.9,1.9-1.5,2.9c-0.3,0.5-0.6,1-1.1,1.4c-0.4,0.5-0.9,0.9-1.5,1.2c-1.1,0.6-2.4,0.9-3.6,0.8c-1.2-0.1-2.3-0.3-3.3-0.6
	c-2.1-0.6-4-1.4-5.9-1.7c-1-0.2-1.9-0.2-2.8,0.1c-0.9,0.2-1.7,0.7-2.4,1.4c-1.3,1.4-2.1,3.5-1.5,5.6c-0.4-1-0.6-2.1-0.4-3.1
	c0.1-0.5,0.2-1.1,0.4-1.6c0.2-0.5,0.5-1,0.8-1.4c0.7-0.9,1.6-1.6,2.7-2c1.1-0.4,2.3-0.5,3.4-0.4c2.2,0.2,4.3,0.9,6.3,1.3
	c1,0.2,2,0.4,2.9,0.4c0.9,0,1.7-0.2,2.4-0.6c1.4-0.8,2.2-2.7,3.1-4.6c0.9-1.9,1.9-3.7,2.8-5.6c0.9-1.9,1.9-3.7,2.9-5.6
	c1-1.9,2-3.7,3-5.5l1.4-2.5l0.2,2.8c0.1,1.3,0.1,2.6,0,3.9c-0.1,1.3-0.3,2.5-0.6,3.8c-0.3,1.2-0.7,2.5-1.2,3.6
	C168.3,116.1,167.7,117.2,167.1,118.2z"/>
<path fill="#241F20" d="M171.9,130c0.7-1.2,1.4-2.2,2.1-3.2l2.1-3l2.1-3c0.7-1,1.4-2.1,2.3-3.1c0.1,1.4-0.2,2.7-0.7,3.9
	c-0.4,1.3-1.1,2.4-1.8,3.5c-0.8,1.1-1.7,2.1-2.7,2.9C174.3,128.9,173.2,129.6,171.9,130z"/>
<path fill="#241F20" d="M138.2,227.9l-2.3-1.8l-2.2-1.9c-0.7-0.7-1.3-1.4-2-2.1c-0.6-0.7-1.3-1.5-1.9-2.2c-2.4-3.1-4.4-6.4-6.1-9.9
	c-3.4-7-5.8-14.4-8.1-21.8l1.8-0.2c-0.4,5,0.6,10.2,2.9,14.6l-1.8,1c-3-5-5.7-10.2-8.1-15.5c-2.4-5.3-4.6-10.7-6.4-16.3
	c-1.8-5.6-3.2-11.4-2.9-17.4c0.2-3,0.7-6,1.8-8.8c1.1-2.8,2.7-5.5,4.9-7.6l-0.3,0.8c-0.5-4.2-0.3-8.5,0.4-12.6c0.7-4.2,2-8.2,3.7-12
	c1.7-3.8,3.8-7.5,6.2-10.9l1.8-2.5l2-2.4l2.1-2.3l2.2-2.2l-2,2.4l-1.9,2.4l-1.8,2.5l-1.7,2.6c-2.2,3.5-4.1,7.2-5.6,11
	c-1.5,3.8-2.6,7.8-3.2,11.8c-0.6,4-0.7,8.1-0.1,12.1l0.1,0.4l-0.3,0.3c-1.9,2-3.4,4.4-4.3,7c-1,2.6-1.5,5.4-1.6,8.2
	c-0.2,5.6,1.1,11.2,2.9,16.7c1.8,5.5,3.9,10.8,6.2,16.1c2.4,5.2,5,10.4,7.9,15.4l-1.8,1c-2.4-4.9-3.4-10.4-2.8-15.7l0.5-4.8l1.3,4.6
	c1,3.7,2.1,7.4,3.3,11.1c1.2,3.7,2.5,7.3,4.1,10.8c1.6,3.5,3.4,6.9,5.6,10c0.6,0.8,1.2,1.5,1.7,2.3l1.9,2.2l2,2.1L138.2,227.9z"/>
<path fill="#241F20" d="M137.2,82.7c0.4-1.5,1.3-2.9,2.4-4.1c1.1-1.2,2.4-2.2,3.9-2.9c1.5-0.7,3-1.2,4.6-1.4c1.6-0.2,3.2,0,4.7,0.5
	c-1.6,0.4-3,0.8-4.4,1.2c-1.4,0.5-2.7,1-4,1.7c-1.3,0.6-2.5,1.4-3.7,2.2C139.6,80.8,138.5,81.7,137.2,82.7z"/>
<path fill="#241F20" d="M237.9,76.6c1.3-1.6,2.7-2.9,4.3-4.2c1.6-1.2,3.3-2.3,5.2-3.2c1.9-0.8,3.9-1.4,6-1.6c2.1-0.1,4.2,0.2,6,1.2
	c-2,0-3.9,0.2-5.7,0.6c-1.8,0.4-3.6,1.1-5.3,1.9c-1.7,0.8-3.4,1.7-5.1,2.6C241.5,74.8,239.8,75.8,237.9,76.6z"/>
<path fill="#241F20" d="M249.4,86.1c1.4-1.8,2.9-3.5,4.6-5c1.7-1.5,3.6-2.9,5.7-3.9c2.1-1,4.5-1.6,6.8-1.6c2.4,0,4.8,0.5,6.6,1.9
	c-2.2-0.5-4.4-0.5-6.5-0.1c-2.1,0.3-4.1,1-6,1.9c-1.9,0.9-3.8,2-5.6,3.2C253.3,83.7,251.4,85,249.4,86.1z"/>
<path fill="#241F20" d="M296.9,90.3c2.9-2,6.7-2.8,10.3-2.2c1.8,0.3,3.6,0.9,5.2,1.8c0.2,0.1,0.4,0.2,0.6,0.3l0.6,0.4
	c0.4,0.3,0.8,0.6,1.1,0.8l0.3,0.2l0.2,0.2c0.2,0.1,0.3,0.3,0.5,0.4c0.3,0.3,0.7,0.5,1,0.8c2.7,2,5.8,3.6,8.6,5.9
	c1.4,1.1,2.7,2.4,3.7,3.9c0.5,0.8,0.9,1.6,1,2.6c0.2,0.9,0.1,1.8-0.1,2.7c0-1.8-0.7-3.3-1.8-4.6c-1.1-1.2-2.5-2.2-3.9-3.2
	c-2.9-1.8-6-3.4-8.9-5.5c-0.4-0.3-0.7-0.5-1.1-0.8c-0.2-0.1-0.4-0.3-0.5-0.4l-0.5-0.4c-0.3-0.3-0.6-0.5-0.9-0.8l-0.5-0.4l-0.5-0.3
	c-1.4-0.9-2.9-1.5-4.5-1.9C303.7,89,300.2,89.1,296.9,90.3z"/>
<path fill="#241F20" d="M335.3,117.8c1.2,0.2,2.2,0.8,3,1.7c0.8,0.9,1.4,1.9,1.7,3.1c0.3,1.1,0.4,2.4,0.1,3.5
	c-0.2,1.2-0.8,2.3-1.7,3c0-1.2,0-2.2-0.1-3.1c-0.1-1-0.3-1.9-0.5-2.8c-0.3-0.9-0.6-1.8-1-2.7C336.4,119.6,335.9,118.7,335.3,117.8z"
	/>
<path fill="#241F20" d="M206.8,74.3c-2.3-0.3-4.4-1.5-6.3-2.6c-1.9-1.2-3.7-2.3-5.6-3.1c-1.9-0.7-3.9-1.1-5.7-0.3
	c-0.9,0.4-1.8,0.9-2.4,1.7c-0.3,0.4-0.6,0.8-0.8,1.3c-0.2,0.5-0.3,1-0.3,1.6c-0.2-0.5-0.3-1.1-0.3-1.7c0-0.6,0.2-1.2,0.5-1.8
	c0.6-1.1,1.4-2.1,2.5-2.7c0.5-0.3,1.1-0.6,1.8-0.7c0.7-0.2,1.3-0.2,1.9-0.2c1.3,0,2.5,0.3,3.6,0.7c2.3,0.9,4.1,2.3,5.8,3.8
	C203.2,71.7,204.8,73.1,206.8,74.3z"/>
<path fill="#241F20" d="M181.5,78.6c-1.8,0.2-3.5,0.2-5.3,0.2c-1.7,0-3.4-0.1-5.2-0.2l-2.6-0.2l-1.3-0.1c-0.4,0-0.8,0-1.2,0
	c-0.8,0-1.6,0.1-2.3,0.3c-0.7,0.2-1.4,0.6-1.8,1.5c0-0.4,0.1-0.9,0.3-1.4c0.2-0.4,0.6-0.8,1-1.1c0.8-0.6,1.7-0.9,2.7-1.1
	c0.5-0.1,0.9-0.2,1.4-0.2c0.4,0,0.9,0,1.3-0.1c0.9,0,1.8,0,2.6,0c1.8,0.1,3.5,0.3,5.2,0.7C178.1,77.3,179.8,77.8,181.5,78.6z"/>
<path fill="#241F20" d="M167.8,88.9c-1.9-0.2-3.8-0.3-5.6-0.1c-1.8,0.2-3.6,0.5-5.3,1.1c-1.7,0.6-3.3,1.3-4.9,2.2
	c-1.6,0.9-3,2.1-4.4,3.4c0.6-1.9,1.9-3.5,3.4-4.9c1.5-1.3,3.3-2.3,5.2-3c1.9-0.6,4-0.9,6-0.7C164.2,87.2,166.2,87.8,167.8,88.9z"/>
<path fill="#241F20" d="M134.6,107.8c-1.8,0.5-3.4,1.3-4.7,2.4c-1.3,1.1-2.5,2.4-3.4,3.8c-1,1.4-1.8,3-2.5,4.6
	c-0.8,1.6-1.5,3.3-2.5,5c0-1.9,0.3-3.8,0.8-5.6c0.5-1.8,1.2-3.6,2.3-5.3c1.1-1.6,2.6-3.1,4.4-4C130.6,107.8,132.7,107.4,134.6,107.8
	z"/>
<path fill="#241F20" d="M122.2,162.3c0.3,0.4,0.4,0.7,0.5,0.9c0,0.2,0,0.4-0.1,0.5c-0.1,0.1-0.2,0.2-0.4,0.2c-0.2,0-0.5-0.1-0.9-0.3
	c-0.3-0.4-0.4-0.7-0.5-0.9c0-0.2,0-0.4,0.1-0.5c0.1-0.1,0.2-0.2,0.4-0.2C121.5,162.1,121.8,162.1,122.2,162.3z"/>
<path fill="#241F20" d="M241,188.4c2.3-2.6,4.8-5,7.3-7.4c2.5-2.4,5.2-4.6,7.9-6.8l0.5,0.6c-2.4,2.4-4.6,4.9-6.7,7.6
	c-2.1,2.7-4,5.4-5.7,8.3l-1-0.9c4.3-3,8.4-6.2,12.3-9.7c3.9-3.5,7.6-7.2,11.1-11.1l1.2,1.5c-4.3,2.6-7.9,6.5-10.3,11l-1.5-1.4
	c6.5-3.8,12.6-8.3,17.9-13.6l5.5-5.5l-3.7,6.8c-1.6,2.9-4.1,5.3-7,6.7l-1.1-2c5.8-3.7,12.5-5.9,19.3-6.5l2.3-0.2l-1.3,1.9
	c-2.2,3.3-6.1,5.3-10.1,5.2l-5.6-0.1l5.3-2c3.4-1.3,7.2-1.6,10.8-0.9l2.2,0.4l-1.8,1.4c-0.9,0.7-2,1-3,0.9c-1-0.1-2.1-0.5-2.8-1.3
	l-1.6-1.8l2.4,0.1c6.2,0.2,12.4,1.1,18.3,2.8c6,1.7,11.7,4,17.1,7.1l-0.8,1.2c-3-2.1-6-4.2-9.2-6.1c-3.1-1.9-6.4-3.6-9.8-4.8
	c-3.4-1.2-7.1-1.9-10.7-1.9c-3.6,0-7.3,0.8-10.6,2.5c3.2-1.9,6.9-2.8,10.6-3c3.7-0.1,7.4,0.4,11,1.5c3.6,1.1,6.9,2.7,10.2,4.5
	c3.2,1.8,6.3,3.9,9.4,5.9l-0.8,1.2c-5.3-2.9-11-5.1-16.8-6.6c-5.8-1.5-11.9-2.4-17.9-2.5l0.8-1.7c0.3,0.4,0.9,0.6,1.5,0.7
	c0.6,0,1.1-0.1,1.5-0.4l0.5,1.8c-3.2-0.6-6.6-0.2-9.6,0.9l-0.4-2.1c3.2,0.1,6.4-1.6,8.2-4.3l1,1.7c-6.5,0.6-12.8,2.7-18.2,6.2
	l-1.1-2c2.5-1.3,4.7-3.3,6.1-5.8l1.8,1.3c-5.5,5.4-11.7,10.1-18.5,13.9l-3.2,1.8l1.7-3.2c2.6-4.8,6.5-8.8,11.2-11.6l5.7-3.4
	l-4.5,4.9c-3.6,3.9-7.4,7.6-11.4,11c-4,3.4-8.3,6.6-12.7,9.6l-2.6,1.7l1.7-2.7c1.8-2.9,3.8-5.7,6-8.3c2.2-2.6,4.5-5.1,7-7.4l0.5,0.6
	c-2.8,2.1-5.5,4.2-8.1,6.5C246,183.6,243.5,185.9,241,188.4z"/>
<path fill="#241F20" d="M186.5,186.6c-1.6-0.6-3.2-1.2-4.8-1.8c-1.6-0.6-3.2-1.3-4.8-1.9c-3.2-1.3-6.4-2.7-9.5-4.1l0.4-0.8
	c3.2,1.9,6.7,3.5,10.2,4.7l-0.5,1.2c-3.5-1.6-7-3.1-10.6-4.1c-1.8-0.5-3.6-0.8-5.5-0.9c-1.8-0.1-3.7,0.1-5.4,0.5
	c-1.8,0.4-3.5,1.1-5.1,1.9c-0.4,0.2-0.8,0.4-1.2,0.7l-1.2,0.7c-0.7,0.5-1.5,1.1-2.2,1.7c-2.8,2.4-4.9,5.5-6.1,8.9l-2-0.9
	c1.9-3.3,4.5-6.2,7.2-8.8c2.7-2.6,5.7-4.9,8.6-7.2l1.4,1.8c-2.8,2.2-5.5,4.6-8.5,6.8l-3.8,2.9l2.1-4.3c1.1-2.2,2.8-4.2,4.7-5.6
	c1.9-1.5,4.2-2.6,6.5-3.3c4.6-1.4,9.4-1.6,14.1-1.2c4.7,0.4,9.3,1.6,13.7,3.3c2.2,0.9,4.3,1.9,6.3,3.2c2,1.2,3.9,2.7,5.5,4.5
	l1.4,1.6l-2.1-0.4c-3.6-0.6-7.1-1.7-10.5-3c-3.4-1.4-6.6-3.1-9.7-5.1l0.3-0.6c2.2,1.1,4.4,2.4,6.4,3.9
	C183.8,182.4,185.5,184.3,186.5,186.6z M186.5,186.6c-0.5-1.1-1.3-2.1-2.1-3.1c-0.8-0.9-1.8-1.7-2.8-2.4c-2-1.5-4.2-2.6-6.4-3.6
	l0.3-0.6c3.1,1.8,6.3,3.4,9.7,4.6c3.4,1.2,6.8,2.1,10.4,2.6l-0.7,1.2c-1.5-1.6-3.3-2.9-5.3-4.1c-1.9-1.1-4-2.1-6.1-2.9
	c-2.1-0.8-4.3-1.4-6.5-1.9c-2.2-0.5-4.4-0.8-6.7-1c-4.5-0.3-9.1-0.1-13.2,1.3c-2.1,0.7-4.1,1.7-5.8,3c-1.7,1.3-3.1,3-4.1,4.9
	l-1.7-1.4c2.8-2.2,5.5-4.6,8.4-6.9l1.4,1.8c-2.9,2.3-5.8,4.5-8.5,7c-2.6,2.5-5,5.2-6.8,8.3l-2-0.9c1.4-3.8,3.8-7.1,6.9-9.7
	c0.7-0.7,1.6-1.2,2.4-1.8l1.3-0.8c0.4-0.3,0.9-0.5,1.3-0.7c1.8-0.9,3.7-1.6,5.6-2c2-0.4,4-0.6,5.9-0.4c2,0.1,3.9,0.5,5.8,1.1
	c3.8,1.1,7.3,2.8,10.7,4.4l-0.5,1.2c-3.6-1.3-7-3.1-10.3-5.1l0.4-0.8c3.1,1.5,6.2,3,9.3,4.5l4.7,2.2
	C183.3,185.3,184.9,186,186.5,186.6z"/>
<path fill="#241F20" d="M256.6,218.8c-1.4-0.2-2.8-0.4-4.1-0.7l-0.3,0l0-0.3c0.4-3,1.9-5.8,4.1-7.9c0.6-0.5,1.2-1,1.8-1.4l1.8-1.2
	c1.2-0.8,2.4-1.6,3.7-2.4c2.5-1.6,5-3.1,7.8-4.4c2.7-1.2,5.6-2.3,8.6-2.7c0.4-0.1,0.8-0.1,1.1-0.2l1.1-0.1c0.8-0.1,1.5-0.1,2.3-0.1
	c0.8,0,1.5,0,2.3,0.1c0.7,0.1,1.5,0.1,2.2,0.2c3,0.4,5.9,1.1,8.7,2c5.6,1.9,10.8,5,15.3,8.8c-5-3.1-10.3-5.6-15.8-7.1
	c-2.8-0.8-5.6-1.3-8.4-1.6c-0.7-0.1-1.4-0.1-2.1-0.1c-0.7,0-1.4-0.1-2.1,0c-0.7,0-1.4,0-2.1,0.1l-1,0.1c-0.3,0-0.7,0.1-1,0.2
	c-1.4,0.2-2.7,0.6-4.1,1c-1.3,0.4-2.7,0.9-4,1.5c-2.6,1.2-5.2,2.5-7.7,4l-3.8,2.2l-1.9,1.1c-0.6,0.3-1.2,0.7-1.7,1.1
	c-2.2,1.7-3.8,4.2-4.5,7l-0.2-0.3C253.9,218,255.3,218.4,256.6,218.8z"/>
<path fill="#241F20" d="M198.3,219.9c1.4-0.6,2.9-1.2,3.9-2.3c0.5-0.5,0.8-1.2,0.9-1.8c0.1-0.7-0.1-1.4-0.4-1.8
	c-0.4-0.5-0.8-0.7-1.5-0.6c-0.3,0-0.7,0.1-1.1,0.1c-0.4,0-0.9,0-1.3,0c-0.9-0.1-1.7-0.3-2.4-0.7c-0.8-0.4-1.5-0.8-2.1-1.3
	c-1.3-1-2.4-2.1-3.6-3.1c-1.1-1-2.2-2-3.4-2.7c-2.4-1.5-5.3-2-8.2-1.9c-2.9,0.1-5.8,0.9-8.6,2c-2.8,1.1-5.5,2.5-8.2,3.9
	c-2.7,1.4-5.3,3-7.6,4.9c-2.3,1.9-4.3,4.3-5.5,7.2c0.7-3,2.5-5.8,4.7-8c2.2-2.2,4.8-4,7.5-5.6c1.3-0.8,2.7-1.6,4-2.3
	c1.4-0.7,2.8-1.4,4.2-2.1c2.9-1.2,6-2.2,9.3-2.3c3.2-0.1,6.6,0.6,9.5,2.4c1.4,0.9,2.6,2,3.7,3.1c1.1,1.1,2.1,2.2,3.3,3.1
	c0.6,0.5,1.1,0.9,1.8,1.2c0.6,0.3,1.3,0.6,1.9,0.7c0.3,0,0.7,0.1,1,0.1c0.4,0,0.8,0,1.2,0c0.4,0,0.9,0.1,1.4,0.3
	c0.4,0.2,0.8,0.6,1.1,1c0.5,0.8,0.5,1.8,0.4,2.6c-0.2,0.8-0.7,1.6-1.3,2.2C201.3,219.2,199.8,219.5,198.3,219.9z"/>
<path fill="#241F20" d="M254.1,201c3.2-4.8,7.9-8.5,13.2-10.9c2.6-1.2,5.5-2.1,8.3-2.6c2.9-0.5,5.8-0.7,8.7-0.6
	c2.9,0.1,5.8,0.6,8.6,1.3c2.8,0.7,5.6,1.7,8.2,3c5.2,2.5,10,5.9,14,9.9c-4.6-3.3-9.5-6.2-14.7-8.3c-2.6-1-5.3-1.9-8-2.5
	c-2.7-0.6-5.5-1-8.2-1.1c-2.8-0.1-5.5,0-8.3,0.5c-2.7,0.4-5.4,1.2-8,2.1C262.8,193.8,258,196.8,254.1,201z"/>
<path fill="#241F20" d="M200.4,207.1c-4.1-3.5-8.6-6.2-13.5-8c-2.5-0.9-5-1.6-7.5-2c-2.6-0.4-5.1-0.6-7.7-0.6c-2.6,0-5.2,0.4-7.7,1
	c-2.5,0.5-5,1.4-7.4,2.4c-4.8,2.1-9.2,5-13.1,8.7c3.2-4.3,7.5-7.9,12.3-10.3c2.4-1.3,5-2.2,7.7-2.9c2.7-0.7,5.4-1.1,8.1-1.1
	c2.7,0,5.5,0.2,8.2,0.7c2.7,0.6,5.3,1.4,7.8,2.5C192.5,199.6,197,202.9,200.4,207.1z"/>
<path fill="#241F20" d="M274,201.3c-0.9,1.7-1.2,3.6-1.2,5.4c0.1,1.8,0.7,3.5,1.7,4.9c1,1.3,2.6,2.2,4.3,2.7
	c1.7,0.5,3.5,0.8,5.2,0.6c1.7-0.1,3.4-0.7,4.8-1.6c0.7-0.5,1.3-1.1,1.9-1.7c0.5-0.7,1-1.4,1.4-2.2c1.4-3.2,0.9-7.2-1.5-10.2
	c1.5,1.2,2.7,2.9,3.3,4.8c0.3,1,0.4,2,0.4,3c0,1-0.2,2.1-0.5,3c-0.7,2-2,3.7-3.6,5c-1.7,1.3-3.8,2-5.9,2.1c-2.1,0.2-4.1-0.2-6.1-0.9
	c-1-0.4-1.9-0.8-2.8-1.4c-0.4-0.3-0.8-0.6-1.2-1c-0.2-0.2-0.4-0.4-0.5-0.6c-0.2-0.2-0.3-0.4-0.5-0.6c-1.2-1.8-1.6-3.9-1.4-5.9
	C272,204.7,272.7,202.8,274,201.3z"/>
<path fill="#241F20" d="M164.7,208.8c-0.5,0.7-0.6,1.6-0.6,2.4c0,0.8,0.1,1.6,0.3,2.4c0.1,0.4,0.2,0.8,0.4,1.1
	c0.2,0.4,0.3,0.7,0.5,1.1c0.4,0.7,0.8,1.4,1.4,1.9c0.5,0.6,1.1,1.1,1.7,1.6c0.6,0.4,1.3,0.8,2,1c0.7,0.2,1.4,0.4,2.2,0.4l0.3,0
	l0.3,0c0.2,0,0.4,0,0.5,0c0.4-0.1,0.7-0.1,1.1-0.2c2.9-0.7,5.5-3.1,6.1-6.1c0.1-0.2,0.1-0.4,0.1-0.6c0-0.2,0.1-0.4,0.1-0.6
	c0-0.4,0-0.8,0-1.2c-0.1-0.8-0.2-1.6-0.5-2.3c-0.5-1.6-1.4-3-2.3-4.5c1.3,1.1,2.4,2.5,3.3,4.1c0.8,1.6,1.4,3.4,1.1,5.4
	c-0.1,1-0.4,1.9-0.8,2.7c-0.4,0.9-1,1.6-1.6,2.3c-1.3,1.4-3,2.4-4.9,2.9c-1.9,0.5-3.9,0.4-5.7-0.4c-0.9-0.4-1.7-0.9-2.4-1.5
	c-0.7-0.6-1.4-1.3-1.9-2c-1.1-1.5-1.8-3.3-1.9-5.1c-0.1-0.9,0-1.8,0.1-2.7C163.7,210.3,164.1,209.4,164.7,208.8z"/>
<path fill="#241F20" d="M208.5,191.5c1.6,1.1,3,2.6,4,4.3c0.5,0.9,0.9,1.8,1.2,2.8c0.2,0.5,0.3,1,0.4,1.5c0.1,0.5,0.2,1,0.2,1.5
	c0.2,2,0,4.1-0.6,6c-0.6,1.9-1.6,3.6-2.7,5.2c0.3-1.9,0.7-3.8,1-5.6c0.2-1.8,0.3-3.6,0.1-5.3c-0.1-0.9-0.2-1.8-0.4-2.6
	c-0.2-0.9-0.4-1.7-0.7-2.6C210.3,194.8,209.5,193.2,208.5,191.5z"/>
<path fill="#241F20" d="M233.3,206.7c-1.2-0.8-2.1-1.9-2.7-3.3c-0.6-1.3-0.9-2.8-0.8-4.3c0-1.5,0.4-2.9,1.1-4.2
	c0.7-1.3,1.6-2.4,2.9-3.1c-0.5,1.3-0.9,2.5-1.2,3.7c-0.3,1.2-0.4,2.4-0.5,3.6c0,1.2,0,2.4,0.2,3.7
	C232.5,204.2,232.8,205.4,233.3,206.7z"/>
<path fill="#241F20" d="M214.2,252.1c-1.6,2.2-2.5,4.6-2.7,7.1c-0.2,2.5,0.1,5,1.2,7.2c1.1,2.1,2.7,4.2,4.9,4.6
	c1.1,0.2,2.4,0.1,3.6-0.3c1.3-0.3,2.5-0.8,3.8-1.3c-1,0.9-2.1,1.7-3.4,2.3c-1.2,0.6-2.7,1.1-4.2,1c-0.8-0.1-1.6-0.2-2.3-0.6
	c-0.7-0.3-1.3-0.8-1.9-1.3c-1.1-1-1.9-2.2-2.6-3.5c-1.3-2.6-1.5-5.7-0.9-8.4C210.3,256.1,211.9,253.6,214.2,252.1z"/>
<path fill="#241F20" d="M243.2,268.4c-0.1-0.4,0-0.8,0.2-1.2c0.2-0.4,0.5-0.7,0.9-0.9c0.3-0.3,0.8-0.4,1.2-0.6
	c0.4-0.1,0.8-0.2,1.2-0.3c0.7-0.1,1.4-0.2,1.9-0.4c0.5-0.2,1-0.5,1.4-0.9c0.8-0.8,1.3-1.8,1.3-3c0-1.2-0.5-2.5-1.5-3.6
	c1.5,0.3,2.9,1.6,3.3,3.3c0.2,0.8,0.2,1.8-0.1,2.7c-0.3,0.9-0.8,1.6-1.4,2.3c-0.3,0.3-0.7,0.6-1.1,0.8c-0.4,0.2-0.8,0.4-1.3,0.5
	c-0.9,0.2-1.7,0.1-2.4,0.1c-0.4,0-0.7-0.1-1-0.1c-0.3,0-0.6,0-0.9,0.1C244.2,267.4,243.6,267.7,243.2,268.4z"/>
<path fill="#241F20" d="M202.8,306.6c3.4-4.5,9-7.3,14.8-7.7c0.4,0,0.7-0.1,1.1-0.1c0.4,0,0.7,0,1.1,0c0.7,0,1.5,0.1,2.2,0.2
	c0.7,0.1,1.4,0.2,2.2,0.4c0.7,0.2,1.4,0.4,2.1,0.6c1.4,0.4,2.6,0.9,3.9,1.2c1.3,0.3,2.5,0.4,3.8,0.3c2.5-0.2,4.9-1.5,7.6-2.5
	c0.7-0.2,1.4-0.5,2.1-0.6c0.4-0.1,0.7-0.1,1.1-0.2c0.4-0.1,0.7-0.1,1.1-0.1c1.5-0.2,2.9-0.1,4.3,0.1c2.8,0.3,5.6,0.9,8.3,1.2
	c1.4,0.2,2.7,0.2,4.1,0.1c1.4-0.1,2.7-0.5,4-1c-1.2,0.8-2.5,1.3-3.9,1.6c-1.4,0.3-2.8,0.4-4.3,0.4c-2.8-0.1-5.6-0.4-8.3-0.6
	c-0.7,0-1.4,0-2,0l-1,0l-1,0.1c-0.3,0-0.6,0.1-1,0.2c-0.3,0.1-0.6,0.1-0.9,0.2c-0.6,0.2-1.2,0.4-1.9,0.6c-1.2,0.5-2.5,1.1-3.8,1.6
	c-1.3,0.5-2.8,1-4.3,1.2c-1.6,0.2-3.1,0-4.5-0.4c-1.4-0.4-2.8-0.8-4.1-1.3c-0.6-0.2-1.3-0.4-1.9-0.6c-0.6-0.1-1.3-0.3-1.9-0.4
	c-1.3-0.2-2.6-0.3-4-0.3C212.3,300.7,206.9,302.8,202.8,306.6z"/>
<path fill="#241F20" d="M204.4,298.2c2.7-4.2,7.6-6.9,12.8-7.3c1.3-0.1,2.6,0,3.9,0.2c1.3,0.2,2.5,0.5,3.7,0.8
	c2.4,0.6,4.7,1.1,6.8,0.7c1-0.2,1.9-0.7,2.9-1.4c0.5-0.3,1-0.7,1.6-1.1c0.6-0.4,1.2-0.7,1.9-0.9c1.4-0.4,2.8-0.3,4.1-0.1
	c1.3,0.2,2.5,0.5,3.7,0.9c4.7,1.4,9.4,3,14,4.7c-4.9-0.8-9.7-1.9-14.5-3c-1.2-0.3-2.4-0.5-3.5-0.7c-1.1-0.1-2.2-0.1-3.2,0.2
	c-0.9,0.3-1.8,1-2.8,1.7c-0.5,0.4-1.1,0.8-1.7,1.1c-0.3,0.1-0.7,0.3-1,0.4c-0.3,0.1-0.7,0.2-1,0.3c-1.4,0.3-2.8,0.2-4.1,0
	c-1.3-0.2-2.5-0.5-3.7-0.8c-1.2-0.3-2.3-0.7-3.5-0.9c-1.1-0.2-2.3-0.4-3.5-0.4C212.6,292.7,207.9,294.6,204.4,298.2z"/>
<path fill="#241F20" d="M207,310.6c4.1,1.8,8.1,3.9,12.3,5.2c2.1,0.7,4.2,1.1,6.4,1.4c2.1,0.3,4.3,0.4,6.5,0.2
	c2.2-0.1,4.3-0.4,6.5-0.8c2.1-0.4,4.2-1.1,6.3-1.8c2.1-0.7,4.1-1.6,6-2.7c1.9-1.1,3.6-2.5,5-4.3c-1,2-2.6,3.8-4.4,5.2
	c-1.8,1.4-3.8,2.6-5.9,3.5c-2.1,1-4.3,1.7-6.5,2.2c-2.2,0.5-4.5,0.9-6.8,1c-2.3,0.1-4.6,0-6.9-0.4c-0.6-0.1-1.1-0.2-1.7-0.3
	l-0.8-0.2l-0.8-0.2c-1.1-0.3-2.2-0.7-3.3-1.1C214.4,315.8,210.6,313.3,207,310.6z"/>
<path fill="#241F20" d="M329.6,266c-2.9,11.2-4.6,22.6-5.4,34.1c-0.1,1.4-0.2,2.9-0.2,4.3c-0.1,1.4-0.2,2.9-0.2,4.3l-0.1,4.3l0,2.2
	l0,2.2l0,4.3c0,1.4,0.1,2.9,0.1,4.3c0,1.4,0.1,2.9,0.1,4.3l0.2,4.3l0.1,2.2l0.1,2.2l0.3,4.3l0.7,8.6c0.5,5.7,1,11.5,1.6,17.2
	l0.8,8.6c0.3,2.9,0.5,5.7,1.1,8.5c0.6,2.8,1.5,5.5,3.3,7.7c0.9,1.1,1.9,2.1,3.1,2.8c0.6,0.4,1.2,0.7,1.9,0.9
	c0.7,0.2,1.4,0.4,2.1,0.5c-0.7,0-1.4-0.1-2.2-0.3c-0.7-0.2-1.4-0.5-2-0.8c-1.3-0.7-2.5-1.6-3.4-2.7c-2-2.2-3.2-5-3.9-7.9
	c-0.7-2.9-1-5.8-1.4-8.6c-0.4-2.9-0.8-5.7-1.1-8.6c-0.8-5.7-1.4-11.5-2-17.2c-0.3-2.9-0.5-5.8-0.7-8.7l-0.3-4.3l-0.1-2.2l-0.1-2.2
	c-0.5-11.6-0.6-23.2,0.6-34.8C323.6,288.4,325.8,276.9,329.6,266z"/>
<path fill="#241F20" d="M233.7,375.7c2.1,6,2.7,12.7,1.9,19.1c-0.4,3.2-1.2,6.4-2.3,9.5c-1.1,3.1-2.6,6-4.4,8.8
	c-1.8,2.7-3.9,5.3-6.2,7.5c-2.4,2.2-4.9,4.3-7.7,6c-5.5,3.4-11.8,5.6-18.2,6.1c6.2-1.5,12.1-4,17.2-7.6c2.6-1.8,5-3.8,7.2-6
	c2.2-2.2,4.2-4.6,5.8-7.2c1.7-2.6,3.1-5.4,4.2-8.3c1.2-2.9,2-5.9,2.6-9C234.9,388.3,234.9,381.9,233.7,375.7z"/>
</svg>
