<?xml version="1.0" encoding="utf-8"?>
<!-- Generator: Adobe Illustrator 22.1.0, SVG Export Plug-In . SVG Version: 6.00 Build 0)  -->
<svg version="1.0" id="Calque_1" xmlns="http://www.w3.org/2000/svg" xmlns:xlink="http://www.w3.org/1999/xlink" x="0px" y="0px"
	 viewBox="0 0 500 500" enable-background="new 0 0 500 500" xml:space="preserve">
<circle fill="#F9F9FA" cx="246.1" cy="238.3" r="211.7"/>
<path fill="#241F20" d="M156.4,237.6l-0.5,11.6l-0.5,11.5l-1,23.1l-1.1,23.1c-0.3,7.7-0.3,15.4,0.9,22.9c0.6,3.8,1.6,7.4,3,10.9
	c0.2,0.4,0.3,0.9,0.5,1.3l0.6,1.3c0.2,0.4,0.4,0.9,0.6,1.3l0.7,1.2c0.9,1.7,2,3.2,3.1,4.7c4.7,6,10.7,10.7,16.7,15.6
	c6,4.9,12,9.6,18.3,14c6.3,4.3,12.9,8.3,19.9,11.4c6.9,3.1,14.3,5.4,21.8,6.2c3.8,0.4,7.6,0.3,11.3-0.1c3.8-0.4,7.5-1.3,11-2.6
	c7.2-2.5,13.8-6.4,20.2-10.7c3.2-2.2,6.3-4.4,9.3-6.8c3.1-2.3,6.2-4.6,9.1-7.1c2.9-2.5,5.6-5.1,7.9-8.2c2.3-3,3.9-6.5,5.1-10.1
	c1.2-3.6,2-7.4,2.7-11.1l2.1-11.4l4.3-22.7l2.2-11.4l2.2-11.4l-1.9,11.4l-1.9,11.4l-3.8,22.8l-2,11.4c-0.7,3.8-1.4,7.6-2.7,11.3
	c-1.2,3.7-2.9,7.3-5.2,10.5c-2.3,3.2-5.1,6-8,8.5c-2.9,2.6-6,4.9-9.1,7.3c-3.1,2.3-6.2,4.6-9.4,6.9c-6.4,4.4-13.1,8.4-20.5,11
	c-3.7,1.3-7.5,2.2-11.4,2.7c-3.9,0.5-7.8,0.5-11.7,0.1c-7.8-0.7-15.4-3.1-22.5-6.3c-7.1-3.2-13.8-7.3-20.1-11.7
	c-6.4-4.4-12.4-9.2-18.4-14.1c-3-2.5-6-4.9-8.8-7.5c-2.9-2.6-5.6-5.4-8.1-8.5c-1.2-1.6-2.3-3.2-3.3-4.9l-0.7-1.3
	c-0.2-0.4-0.4-0.9-0.6-1.3l-0.6-1.3c-0.2-0.5-0.4-0.9-0.5-1.4c-1.4-3.7-2.4-7.5-3-11.3c-1.2-7.7-1-15.5-0.6-23.2
	c0.4-7.7,0.9-15.4,1.4-23.1l1.5-23.1l0.8-11.5L156.4,237.6z"/>
<path fill="#241F20" d="M215.2,133.8c2.2,3.1,3.9,6.5,5.6,9.8c0.8,1.7,1.7,3.3,2.7,5c1,1.6,2,3.2,3.2,4.6c1.2,1.4,2.6,2.7,4.1,3.7
	c1.5,1,3.2,1.8,5,2.2c3.6,0.9,7.4,0.7,10.8-0.4c1.7-0.6,3.4-1.4,4.9-2.4c1.5-1,2.9-2.3,4.1-3.7c2.4-2.8,4-6.1,4.9-9.7
	c0.4-1.8,0.7-3.6,0.7-5.4c0.1-1.8-0.1-3.6-0.6-5.3c-0.5-1.7-1.5-3.2-2.9-4.1c-1.4-0.9-3.1-1.2-4.8-1c-1.7,0.2-3.3,0.9-4.6,2
	c-1.3,1.1-2.3,2.6-3,4.2c-0.7,1.6-1,3.4-1.1,5.2c-0.1,1.8,0,3.6,0.4,5.4c0.7,3.5,2.4,6.8,5,9.2c2.6,2.4,6.1,3.8,9.5,3.8
	c1.7,0,3.4-0.4,5-1.2c0.8-0.4,1.5-0.9,2.2-1.4c0.7-0.5,1.3-1.1,1.9-1.8c1.2-1.3,2.1-2.8,2.8-4.5c0.7-1.6,1.2-3.4,1.5-5.2
	c0.3-1.8,0.4-3.6,0.5-5.4c0-0.9,0-1.8-0.1-2.8c0-0.9-0.1-1.9-0.2-2.7c-0.2-1.8-0.7-3.5-1.4-5c-0.4-0.7-0.9-1.4-1.5-1.9
	c-0.6-0.5-1.3-0.8-2-0.9l0.8-0.3c-0.9,1-1.7,2.1-2.2,3.3c-0.5,1.3-0.8,2.6-0.9,4c-0.1,1.4,0.1,2.7,0.4,4.1c0.3,1.3,0.9,2.6,1.5,3.8
	c0.7,1.2,1.6,2.2,2.6,3.1c1,0.9,2.2,1.5,3.5,2c1.3,0.5,2.6,0.7,4,0.8c1.4,0.1,2.8-0.1,4.1-0.3c1.4-0.3,2.7-0.8,3.9-1.4
	c1.2-0.6,2.4-1.4,3.4-2.4c1-0.9,1.9-2,2.6-3.2c0.7-1.2,1.2-2.5,1.6-3.8c1.5-5.4,0.2-11.6-3.2-16l0.7,0.3c-1.2,0.2-2.3,1-3.1,2
	c-0.8,1-1.2,2.3-1.4,3.7c-0.1,1.3,0,2.7,0.5,3.9c0.1,0.3,0.3,0.6,0.5,0.9c0.2,0.3,0.4,0.6,0.6,0.8c0.2,0.3,0.4,0.5,0.7,0.7
	c0.2,0.2,0.5,0.5,0.8,0.7c1.1,0.8,2.3,1.4,3.7,1.8c1.3,0.4,2.7,0.6,4.1,0.6c1.4,0,2.8-0.2,4.1-0.5c1.4-0.3,2.7-0.8,3.9-1.5
	c5-2.6,9-7.4,10-13c1.1-5.6-0.3-11.7-3.9-16.2c3.8,4.4,5.4,10.5,4.4,16.3c-0.3,1.4-0.7,2.9-1.3,4.2c-0.6,1.3-1.3,2.6-2.2,3.8
	c-1.7,2.4-4,4.3-6.6,5.7c-1.3,0.7-2.7,1.3-4.1,1.6c-0.7,0.2-1.4,0.3-2.2,0.5c-0.7,0.1-1.5,0.2-2.2,0.2c-1.5,0-3-0.2-4.4-0.6
	c-1.4-0.4-2.8-1-4.1-2c-0.3-0.2-0.6-0.5-0.9-0.7c-0.3-0.3-0.5-0.5-0.8-0.8c-0.3-0.3-0.5-0.6-0.7-0.9c-0.2-0.3-0.4-0.7-0.6-1
	c-0.6-1.4-0.9-3-0.7-4.6c0.2-1.5,0.7-3,1.6-4.3c0.9-1.3,2.4-2.3,4-2.6l0.4-0.1l0.3,0.3c3.9,4.8,5.3,11.4,3.8,17.4
	c-0.4,1.5-1,2.9-1.7,4.3c-0.8,1.3-1.8,2.6-2.9,3.7c-1.2,1-2.4,2-3.8,2.7c-1.4,0.7-2.8,1.2-4.4,1.6c-1.5,0.3-3.1,0.5-4.6,0.4
	c-1.6-0.1-3.1-0.4-4.6-0.9c-1.5-0.6-2.9-1.3-4.1-2.3c-1.2-1-2.2-2.3-3-3.6c-0.8-1.4-1.4-2.8-1.8-4.4c-0.3-1.5-0.5-3.1-0.4-4.7
	c0.1-1.6,0.4-3.1,1-4.6c0.6-1.5,1.5-2.8,2.6-4l0.3-0.4l0.5,0.1c1.1,0.1,2.2,0.6,3.1,1.3c0.9,0.7,1.5,1.6,2,2.5
	c1,1.8,1.5,3.8,1.7,5.7c0.1,1,0.2,1.9,0.2,2.9c0,1,0.1,1.9,0.1,2.9c0,1.9-0.1,3.9-0.5,5.8c-0.3,1.9-0.9,3.8-1.7,5.6
	c-0.8,1.8-1.9,3.5-3.2,5c-0.7,0.7-1.4,1.4-2.2,2.1c-0.8,0.6-1.6,1.2-2.5,1.6c-1.8,0.9-3.9,1.4-5.9,1.4c-4.1,0-8-1.6-10.9-4.3
	c-2.9-2.7-4.8-6.5-5.5-10.3c-0.4-1.9-0.5-3.9-0.4-5.9c0.1-2,0.5-3.9,1.3-5.8c0.8-1.8,1.9-3.6,3.5-4.9c1.6-1.3,3.6-2.1,5.6-2.3
	c2-0.2,4.2,0.2,6,1.4c1.8,1.2,2.9,3.1,3.5,5c0.6,1.9,0.7,3.9,0.6,5.8c-0.1,1.9-0.4,3.9-0.9,5.7c-1,3.7-2.8,7.3-5.3,10.2
	c-1.3,1.5-2.7,2.7-4.4,3.8c-1.6,1.1-3.4,1.9-5.2,2.5c-3.7,1.1-7.7,1.2-11.4,0.2c-1.9-0.5-3.6-1.3-5.2-2.4c-1.6-1.1-2.9-2.5-4.2-3.9
	c-1.2-1.5-2.2-3.1-3.1-4.7c-0.9-1.6-1.7-3.3-2.5-5C218.9,140.3,217.3,136.9,215.2,133.8z"/>
<path fill="#241F20" d="M218.7,104.5c0.3,2.9,1.5,5.7,3.3,8c1.9,2.2,4.3,4,7,4.9c2.7,0.9,5.7,0.8,8.5,0c2.7-0.9,5.2-2.5,7.1-4.6
	c1.9-2.1,3.1-4.8,3.5-7.6c0.3-2.8-0.1-5.7-1.5-8.1c-0.7-1.2-1.6-2.3-2.6-3.1c-1.1-0.8-2.3-1.5-3.7-1.9c-2.6-0.8-5.6-0.6-7.9,0.8
	l0.4-0.6c-0.4,6,2.8,12,7.8,15.2c1.3,0.8,2.6,1.4,4,1.9c1.4,0.4,2.9,0.6,4.4,0.6c1.5,0,3-0.3,4.4-0.6c1.4-0.4,2.8-1,4.1-1.8
	c1.3-0.8,2.5-1.7,3.5-2.7c1-1.1,1.9-2.2,2.7-3.5c0.7-1.3,1.2-2.7,1.6-4.1c0.3-1.4,0.4-2.9,0.3-4.4c-0.1-1.5-0.4-2.9-0.9-4.4
	c-0.5-1.4-1.2-2.7-2-4c-0.8-1.2-1.8-2.4-2.9-3.4c-1.1-1-2.4-1.8-3.7-2.4l1.4-0.7c-1.3,5.3,0.1,11.2,3.4,15.7
	c1.6,2.2,3.8,4.1,6.2,5.4c1.2,0.7,2.5,1.1,3.8,1.4c1.3,0.3,2.7,0.3,3.9,0c2.6-0.5,4.8-2.3,6.2-4.6c1.4-2.3,2.2-5.1,2-7.8
	c-0.2-2.8-1.2-5.4-2.7-7.8c-1.5-2.4-3.4-4.6-5.5-6.4l1.1-0.3c-0.6,1.9-0.6,4-0.2,5.9c0.4,2,1.3,3.9,2.5,5.5c1.2,1.7,2.7,3.1,4.5,4.1
	c1.7,1.1,3.7,1.7,5.8,1.8c2,0.1,4.1-0.4,6-1.3c1.9-0.9,3.5-2.2,4.9-3.8c1.4-1.6,2.4-3.4,3-5.4c0.6-2,0.8-4.2,0.4-6.2
	c0.5,2.1,0.4,4.2-0.2,6.3c-0.6,2.1-1.6,4-2.9,5.6c-1.3,1.7-3,3.1-4.9,4.1c-1.9,1-4.1,1.6-6.3,1.5c-2.2,0-4.3-0.7-6.2-1.7
	c-1.9-1.1-3.6-2.6-4.9-4.3c-1.3-1.7-2.3-3.8-2.8-5.9c-0.5-2.1-0.5-4.4,0.1-6.6l0.3-1l0.8,0.7c2.3,1.9,4.3,4.1,5.9,6.7
	c1.6,2.5,2.8,5.4,3,8.5c0.3,3.1-0.5,6.2-2.1,8.9c-0.8,1.3-1.8,2.5-3.1,3.5c-1.2,1-2.7,1.7-4.3,2c-1.6,0.4-3.2,0.3-4.7,0
	c-1.5-0.3-3-0.8-4.3-1.6c-2.7-1.4-5.1-3.4-6.9-5.9c-3.6-4.9-5.2-11.3-3.8-17.4l0.3-1.2l1.1,0.5c1.5,0.7,2.9,1.7,4.2,2.7
	c1.2,1.1,2.3,2.4,3.3,3.8c0.9,1.4,1.6,2.9,2.2,4.5c0.5,1.6,0.9,3.2,1,4.9c0.1,1.7,0,3.3-0.3,5c-0.4,1.6-1,3.2-1.8,4.7
	c-0.8,1.4-1.9,2.8-3,4c-1.2,1.2-2.5,2.2-3.9,3c-1.4,0.8-3,1.5-4.6,1.9c-1.6,0.4-3.3,0.7-4.9,0.7c-1.7,0-3.3-0.3-4.9-0.8
	c-1.6-0.5-3.1-1.3-4.5-2.2c-1.4-0.9-2.6-2-3.7-3.3c-1.1-1.3-2-2.6-2.8-4.1c-0.7-1.5-1.3-3-1.7-4.7c-0.3-1.6-0.4-3.3-0.3-4.9l0-0.4
	l0.4-0.2c2.8-1.6,6.2-1.8,9.2-0.8c1.5,0.5,2.9,1.2,4.1,2.2c1.2,1,2.2,2.2,2.9,3.6c1.5,2.7,1.9,5.9,1.5,9c-0.4,3-1.8,5.9-3.9,8.1
	c-2.1,2.2-4.8,3.8-7.7,4.7c-2.9,0.8-6.1,0.8-8.9-0.2c-2.8-1-5.3-2.9-7.1-5.2C219.9,110.4,218.8,107.5,218.7,104.5z"/>
<path fill="#241F20" d="M327.2,143.1c-0.5,2.3-0.8,4.6-0.6,7c0.2,2.3,0.8,4.6,2.1,6.5c1.3,1.8,3.3,3.2,5.4,3.7
	c2.1,0.6,4.4,0.1,6.1-1.4c0.8-0.7,1.5-1.6,2.2-2.5c0.3-0.5,0.6-1,0.9-1.4l0.4-0.8c0.1-0.2,0.3-0.5,0.3-0.8c0.9-2.1,1.4-4.3,1.5-6.6
	c0.2-4.5-1.1-9.1-3.8-12.6l1.2,0.3c-1,0.5-1.7,1.3-2.2,2.3c-0.5,1-0.7,2.2-0.7,3.3c0,1.2,0.3,2.3,0.8,3.3c0.5,1,1.3,1.9,2.3,2.6
	c1.9,1.4,4.3,2.1,6.7,2.2c2.4,0.1,4.9-0.3,7.2-1.3c2.3-0.9,4.2-2.4,5.7-4.4c1.5-2,2.4-4.3,2.8-6.7c0.4-2.4,0.4-5-0.3-7.3
	c-0.6-2.4-1.9-4.6-3.6-6.3l1.3-0.2c-0.4,0.6-0.6,1.4-0.6,2.1c0,0.8,0.1,1.5,0.3,2.3c0.5,1.5,1.5,2.8,2.8,3.7c0.6,0.5,1.4,0.8,2.1,1
	c0.7,0.2,1.6,0.2,2.4,0.1c1.6-0.2,3.2-0.8,4.5-1.8c1.3-1,2.4-2.3,3.2-3.8c0.8-1.5,1.2-3.2,1.4-4.9c0.1-1.7,0-3.4-0.4-5.1
	c-0.3-1.7-0.9-3.3-1.6-4.9c0.8,1.5,1.5,3.2,1.9,4.9c0.4,1.7,0.7,3.5,0.6,5.2c-0.1,1.8-0.4,3.5-1.2,5.2c-0.8,1.6-1.9,3.1-3.3,4.2
	c-1.4,1.1-3.1,2-5,2.2c-0.9,0.1-1.9,0.1-2.8-0.1c-0.9-0.2-1.8-0.6-2.6-1.1c-1.6-1-2.8-2.6-3.5-4.4c-0.3-0.9-0.5-1.9-0.5-2.9
	c0-1,0.3-2,0.8-2.9l0.5-1l0.8,0.8c2,1.9,3.5,4.4,4.2,7c0.8,2.6,0.9,5.4,0.4,8.2c-0.4,2.7-1.5,5.3-3.1,7.6c-0.8,1.1-1.8,2.1-2.9,3
	c-1.1,0.9-2.3,1.6-3.6,2.1c-2.5,1.1-5.3,1.6-8.1,1.5c-2.8-0.2-5.6-0.9-7.9-2.7c-1.1-0.9-2.1-1.9-2.8-3.3c-0.7-1.3-1-2.8-1-4.2
	c0-1.4,0.3-2.9,0.9-4.2c0.7-1.3,1.8-2.5,3.1-3.2l0.7-0.4l0.5,0.6c1.5,2,2.6,4.2,3.3,6.6c0.7,2.4,0.9,4.8,0.8,7.3
	c-0.2,2.4-0.8,4.8-1.8,7.1c-1,2.2-2.4,4.3-4.3,5.9c-0.5,0.4-1,0.7-1.6,1c-0.6,0.3-1.2,0.5-1.8,0.6c-1.3,0.2-2.5,0.1-3.7-0.2
	c-2.4-0.7-4.4-2.3-5.8-4.3c-1.3-2.1-1.9-4.5-1.9-6.9C326.1,147.7,326.5,145.4,327.2,143.1z"/>
<path fill="#241F20" d="M336.5,101.7c-1,2-0.7,4.4,0.3,6.3c1,1.9,2.7,3.4,4.6,4.1c1,0.3,2,0.4,3,0.3c1-0.1,2-0.4,2.9-0.9
	c1.8-0.9,3.4-2.4,4.4-4.2c0.5-0.9,0.9-1.8,1.1-2.8c0.2-1,0.3-2,0.3-3.1c-0.1-2.1-0.6-4.1-1.5-6c-0.4-0.9-1-1.8-1.6-2.7
	c-0.3-0.4-0.6-0.8-1-1.2c-0.3-0.3-0.7-0.6-1.1-0.9c-0.4-0.3-0.8-0.5-1.3-0.7c-0.4-0.2-0.9-0.3-1.3-0.3c-0.4,0-0.8,0-1.1,0.1
	c-0.3,0.1-0.4,0.3-0.6,0.6l0-0.8c1.7,3.3,5.1,5.6,8.8,6.2c1.8,0.3,3.8,0.1,5.4-0.6c1.7-0.7,3-2,3.6-3.7c0.6-1.7,0.5-3.7,0.1-5.5
	c-0.5-1.9-1.5-3.5-2.9-4.9c-1.4-1.4-3.1-2.5-4.8-3.4c-1.8-0.9-3.7-1.6-5.6-2.3c2,0.5,3.9,1,5.8,1.8c1.9,0.8,3.7,1.8,5.3,3.2
	c1.6,1.4,2.9,3.2,3.5,5.2c0.7,2,0.9,4.3,0.2,6.4c-0.3,1.1-0.9,2.1-1.7,2.9c-0.7,0.9-1.7,1.5-2.7,2c-2,0.9-4.3,1.1-6.4,0.9
	c-1.1-0.1-2.1-0.4-3.2-0.8c-1-0.4-2-0.9-2.9-1.5c-1.8-1.2-3.3-2.9-4.3-4.8l-0.2-0.4l0.2-0.4c0.3-0.7,0.8-1.4,1.6-1.8
	c0.7-0.4,1.5-0.4,2.2-0.3c1.4,0.2,2.5,0.7,3.5,1.4c0.5,0.4,1,0.8,1.4,1.3c0.4,0.5,0.7,0.9,1.1,1.4c0.7,1,1.3,2,1.8,3
	c1,2.1,1.5,4.5,1.6,6.8c0,1.2-0.1,2.4-0.4,3.5c-0.3,1.2-0.8,2.3-1.4,3.3c-1.3,2-3.1,3.6-5.3,4.6c-1.1,0.5-2.2,0.8-3.4,0.8
	c-1.2,0.1-2.4-0.1-3.5-0.5c-2.2-0.9-3.9-2.7-4.8-4.8c-0.4-1.1-0.7-2.2-0.7-3.3C335.6,103.8,335.9,102.7,336.5,101.7z"/>
<path fill="#241F20" d="M227.1,74c2.9,0.6,5.8,1.2,8.7,1.5c2.9,0.3,5.9,0.4,8.8-0.1c2.9-0.4,5.7-1.6,8-3.3c2.3-1.7,4.3-4,5.2-6.8
	c0.1-0.3,0.2-0.7,0.3-1c0-0.2,0.1-0.3,0.1-0.5l0.1-0.5c0.1-0.7,0.1-1.4,0-2.1c-0.2-1.4-0.8-2.7-1.5-3.9c-0.8-1.2-1.8-2.2-3-2.9
	c-1.2-0.8-2.5-1.3-3.9-1.3c-1.4-0.1-2.7,0.3-3.8,1.1c-1.1,0.8-1.9,1.9-1.8,3.2c0.1,1.2,1.1,2.2,2.3,2.8c0.6,0.3,1.3,0.6,1.9,0.7
	c0.7,0.2,1.4,0.3,2.1,0.4c1.4,0.1,2.8,0,4.2-0.3c1.4-0.3,2.8-0.7,4-1.4c1.2-0.6,2.4-1.5,3.2-2.5c0.4-0.5,0.6-1.1,0.7-1.7
	c0.1-0.6,0-1.2-0.2-1.8c-0.4-1.2-1.4-2.1-2.5-3c-1.1-0.9-2.3-1.7-3.6-2.5c-2.5-1.5-5.1-2.7-7.9-3.5c-2.7-0.8-5.6-1-8.4-0.7
	c-2.8,0.4-5.5,1.4-7.8,3c-1.2,0.8-2.2,1.7-3.1,2.8c-0.2,0.3-0.4,0.6-0.6,0.8c-0.2,0.3-0.4,0.6-0.6,0.9c-0.3,0.6-0.7,1.2-0.9,1.8
	c-0.4,1.2-0.3,2.6,0.1,3.8c0.2,0.6,0.5,1.1,0.9,1.4c0.4,0.3,0.8,0.4,1.3,0.2l-0.7,0.9c0.1-4.9-2-9.7-5.4-13.2
	c-0.2-0.2-0.4-0.4-0.7-0.6l-0.7-0.6c-0.5-0.4-0.9-0.8-1.5-1.1c-1-0.7-2.1-1.2-3.2-1.7c-2.3-0.8-4.7-1.2-7.1-1.1
	c-4.9,0.2-9.6,2.5-12.8,6.1c-0.8,0.9-1.4,1.9-1.9,3c-0.5,1.1-0.7,2.2-0.5,3.2c0.1,1,0.7,2,1.4,2.7c0.8,0.7,1.8,1.1,2.7,0.9l-0.8,1
	c0-1.3-0.7-2.5-1.9-3.3c-1.1-0.8-2.6-1.2-4.1-1.3c-1.5-0.1-3,0.3-4.2,1c-0.3,0.2-0.6,0.4-0.9,0.6l-0.4,0.4l-0.4,0.4
	c-0.5,0.5-1,1.1-1.4,1.8c-1.7,2.6-2.5,5.7-3.2,8.8c-0.2,0.8-0.3,1.6-0.5,2.4c-0.1,0.7-0.1,1.5-0.1,2.2c0.1,0.7,0.2,1.4,0.5,2
	c0.3,0.5,0.7,0.8,1.2,0.8l-1,1c-0.1-0.9-0.4-1.8-0.9-2.6c-0.5-0.8-1.2-1.4-2-1.9c-1.6-1.1-3.5-1.6-5.5-1.7c-2-0.1-3.9,0.3-5.7,1.2
	c-0.4,0.2-0.8,0.5-1.2,0.8c-0.4,0.3-0.8,0.6-1.1,1c-0.7,0.7-1.4,1.4-2,2.3c-1.2,1.6-2,3.5-2.7,5.4c-0.7,1.9-1.1,4-1.4,6
	c-0.2,1-0.3,2.1-0.4,3.1l-0.1,0.8c0,0.2,0,0.5,0,0.7c0,0.5,0.1,1,0.2,1.4c0.2,0.9,0.5,1.9,1.1,2.6c0.3,0.4,0.6,0.6,0.9,0.7
	c0.3,0.1,0.6,0,1-0.1l-0.3,0.6c0-0.7-0.1-1.3-0.2-1.9c-0.2-0.6-0.4-1.2-0.7-1.8c-0.6-1.2-1.6-2.2-2.6-3c-2.2-1.6-4.9-2.5-7.6-2.5
	c-0.7,0-1.4,0.1-2,0.2c-0.7,0.1-1.3,0.3-1.9,0.6c-0.3,0.1-0.6,0.3-0.9,0.4l-0.9,0.5c-0.3,0.2-0.6,0.4-0.8,0.6
	c-0.3,0.2-0.6,0.4-0.8,0.7c-2.1,1.8-3.5,4.3-4.4,7c-0.9,2.7-1.2,5.5-1,8.3c0.2,2.8,1,5.6,2,8.2c2.2,5.3,5.5,10,8.9,14.5
	c-3.5-4.5-7-9.1-9.3-14.4c-1.1-2.6-2-5.4-2.3-8.3c-0.3-2.9,0-5.8,0.9-8.6c0.8-2.8,2.3-5.4,4.5-7.4c0.3-0.3,0.6-0.5,0.8-0.7
	c0.3-0.2,0.6-0.5,0.9-0.7l0.9-0.6c0.3-0.2,0.7-0.4,1-0.5c0.7-0.3,1.4-0.5,2.1-0.7c0.7-0.2,1.5-0.2,2.2-0.2c3-0.1,6,0.8,8.4,2.6
	c1.2,0.9,2.3,2,3,3.3c0.4,0.7,0.7,1.4,0.9,2.1c0.2,0.7,0.3,1.5,0.3,2.3l0,0.4l-0.3,0.2c-0.6,0.3-1.3,0.5-2,0.3
	c-0.7-0.2-1.2-0.7-1.6-1.1c-0.4-0.5-0.7-1-0.9-1.5c-0.2-0.5-0.4-1.1-0.5-1.6c-0.1-0.6-0.2-1.1-0.2-1.7c0-0.3,0-0.6,0-0.9l0.1-0.8
	c0.1-1.1,0.2-2.1,0.4-3.2c0.3-2.1,0.8-4.2,1.4-6.3c0.7-2.1,1.6-4.1,2.8-5.9c0.6-0.9,1.4-1.7,2.1-2.5c0.4-0.4,0.8-0.7,1.3-1.1
	c0.5-0.3,0.9-0.7,1.4-0.9c2-1.1,4.3-1.5,6.5-1.5c2.2,0.1,4.5,0.7,6.4,1.9c1,0.6,1.8,1.5,2.5,2.5c0.7,1,1.1,2.1,1.2,3.3l0.2,1.1
	l-1.1-0.1c-0.5-0.1-1.1-0.2-1.6-0.5c-0.5-0.3-0.9-0.8-1.1-1.2c-0.5-0.9-0.7-1.8-0.8-2.7c-0.1-0.9,0-1.8,0.1-2.7
	c0.1-0.9,0.3-1.6,0.5-2.5c0.7-3.2,1.5-6.6,3.4-9.5c0.5-0.7,1-1.4,1.7-2.1l0.5-0.5l0.5-0.4c0.3-0.3,0.7-0.6,1.1-0.8
	c1.6-0.9,3.4-1.3,5.2-1.3c1.8,0.1,3.6,0.6,5.1,1.6c0.8,0.5,1.5,1.2,1.9,2.1c0.5,0.9,0.7,1.8,0.8,2.8l0,0.8l-0.8,0.2
	c-0.8,0.2-1.7,0.1-2.4-0.1c-0.8-0.2-1.4-0.7-2-1.2c-1.1-1-1.9-2.4-2.1-4c-0.2-1.5,0.1-3,0.7-4.3c0.6-1.3,1.3-2.5,2.2-3.5
	c3.6-4.1,8.9-6.6,14.3-6.8c2.7-0.2,5.4,0.3,8,1.2c1.3,0.5,2.5,1.1,3.6,1.9c0.6,0.4,1.1,0.8,1.6,1.2l0.8,0.7c0.3,0.2,0.5,0.5,0.7,0.7
	l0.7,0.7l0.6,0.8c0.4,0.5,0.8,1.1,1.2,1.6c0.7,1.1,1.4,2.3,1.9,3.6c1.1,2.5,1.5,5.2,1.5,7.9l0,0.8l-0.7,0.1c-0.2,0-0.5,0.1-0.7,0.1
	c-0.3,0-0.5,0-0.8-0.1c-0.3-0.1-0.5-0.1-0.7-0.2c-0.2-0.1-0.5-0.3-0.7-0.4c-0.8-0.6-1.2-1.5-1.5-2.3c-0.3-0.8-0.4-1.6-0.4-2.5
	c0-0.8,0.1-1.7,0.3-2.5c0.1-0.4,0.3-0.8,0.5-1.2c0.2-0.3,0.3-0.7,0.6-1c0.2-0.3,0.4-0.7,0.6-1c0.2-0.3,0.5-0.6,0.7-0.9
	c1-1.2,2.2-2.3,3.5-3.1c2.6-1.7,5.6-2.8,8.6-3.2c3.1-0.4,6.2-0.1,9.1,0.8c3,0.8,5.7,2.1,8.3,3.7c1.3,0.8,2.5,1.7,3.7,2.6
	c0.6,0.5,1.2,1,1.7,1.6c0.5,0.6,1,1.3,1.3,2.2c0.3,0.8,0.4,1.7,0.2,2.6c-0.2,0.9-0.5,1.7-1,2.3c-1,1.3-2.4,2.2-3.7,2.9
	c-1.4,0.7-2.9,1.1-4.4,1.4c-1.5,0.3-3.1,0.4-4.6,0.2c-0.8-0.1-1.5-0.2-2.3-0.4c-0.8-0.2-1.5-0.5-2.2-0.8c-0.7-0.4-1.4-0.9-1.9-1.5
	c-0.5-0.6-1-1.5-1-2.4c0-0.2,0-0.4,0-0.6l0-0.3l0.1-0.3c0.1-0.4,0.3-0.8,0.5-1.2c0.4-0.7,1-1.3,1.7-1.8c1.3-0.9,3-1.3,4.6-1.2
	c1.6,0.1,3.1,0.7,4.4,1.6c1.3,0.9,2.4,2,3.3,3.3c0.8,1.3,1.4,2.8,1.6,4.3c0.1,0.8,0.1,1.6,0,2.3L259,64c0,0.2-0.1,0.4-0.1,0.6
	c-0.1,0.4-0.2,0.7-0.3,1.1c-1,2.9-3.1,5.3-5.6,7c-2.5,1.7-5.4,2.8-8.3,3.2c-3,0.4-6,0.3-8.9-0.1C232.9,75.3,230,74.6,227.1,74z"/>
<path fill="#241F20" d="M170.8,112.7c2.3-1.8,3.5-4.7,3.5-7.6l0.3,0.2c-3.5,1-6.7,3.1-9.1,5.8c-2.5,2.7-4.2,6-5,9.5
	c-0.8,3.5-0.5,7.2,0.6,10.6c1.1,3.4,3.1,6.5,5.8,8.8l-1.4,1.1c-1.6-2.8-3.7-5.4-6.2-7.3c-1.3-0.9-2.7-1.7-4.1-2.2
	c-1.5-0.5-3-0.7-4.6-0.6c-3.1,0.1-6.1,1.6-7.5,4.2c-0.3,0.7-0.6,1.3-0.8,2.1c-0.2,0.7-0.3,1.5-0.2,2.2c0,0.7,0.2,1.5,0.4,2.1
	c0.3,0.7,0.6,1.3,1.1,1.8l2.9,3.3l-4-1.7c-1.6-0.7-3.4-0.8-5.2-0.4c-1.7,0.4-3.4,1.3-4.8,2.4c-2.8,2.3-4.9,5.7-5.5,9.3
	c-0.6,3.7-0.1,7.5,1,11.2c1.1,3.7,2.6,7.3,4.3,10.8l0.8,1.7l-1.7-0.6c-0.7-0.3-1.5-0.4-2.3-0.4c-0.8,0-1.6,0.2-2.3,0.5
	c-0.8,0.3-1.5,0.7-2.1,1.1c-0.7,0.5-1.3,1.1-1.8,1.7c-0.5,0.6-0.9,1.3-1.3,2.1c-0.3,0.7-0.5,1.6-0.6,2.4c-0.2,1.7,0,3.3,0.5,5
	c0.5,1.6,1.3,3.1,2.4,4.5c1,1.4,2.3,2.5,3.7,3.5c2.8,2,6.1,3.4,9.4,4.5c-3.4-0.9-6.7-2.1-9.7-4.1c-1.5-1-2.9-2.1-4-3.5
	c-1.1-1.4-2.1-2.9-2.7-4.6c-0.3-0.9-0.6-1.7-0.7-2.6c-0.1-0.9-0.2-1.8-0.1-2.7c0.1-0.9,0.3-1.8,0.6-2.7c0.3-0.9,0.8-1.7,1.4-2.4
	c1.1-1.5,2.7-2.7,4.4-3.4c0.9-0.3,1.8-0.6,2.8-0.6c1,0,1.9,0.1,2.9,0.4l-1,1.1c-1.7-3.5-3.4-7.1-4.6-11c-1.2-3.8-1.8-7.9-1.2-12
	c0.3-2.1,1-4.1,2.1-5.9c1.1-1.8,2.4-3.4,4-4.7c1.6-1.3,3.5-2.3,5.6-2.8c2.1-0.5,4.4-0.4,6.4,0.4l-1.2,1.7c-0.6-0.7-1.2-1.6-1.5-2.5
	c-0.3-0.9-0.5-1.8-0.5-2.8c0-0.9,0.1-1.9,0.3-2.8c0.2-0.9,0.6-1.8,1-2.6c0.5-0.8,1-1.6,1.7-2.2c0.7-0.7,1.5-1.2,2.3-1.6
	c1.6-0.9,3.4-1.3,5.3-1.4c0.9,0,1.8,0,2.7,0.1c0.9,0.1,1.8,0.4,2.6,0.6c1.7,0.6,3.3,1.5,4.7,2.6c2.8,2.2,4.9,5,6.6,7.9l2.7,4.8
	l-4.1-3.7c-2.9-2.6-5-6-6.1-9.7c-1.1-3.7-1.3-7.6-0.4-11.4c0.9-3.7,2.9-7.1,5.6-9.8c2.7-2.7,6-4.7,9.7-5.6l0.3-0.1l0,0.3
	C174.6,108.1,173.1,111,170.8,112.7z"/>
<path fill="#241F20" d="M334.1,178.8c0.6-0.9,1.6-1.6,2.7-1.9c1.1-0.3,2.3-0.3,3.4-0.1c2.2,0.5,4.3,1.9,5.3,4c1,2.1,1.1,4.5,0.6,6.8
	c-0.5,2.2-1.4,4.4-2.7,6.3c-1.2,1.9-2.7,3.7-3.9,5.5c-1.2,1.8-2.3,3.8-2.6,5.9c-0.4,2,0.5,4.1,1.9,5.6c0.7,0.7,1.6,1.3,2.5,1.6
	c0.9,0.3,1.9,0.1,2.6-0.4l0.8,1.2c-3.6,2.9-6.2,6.9-7.8,11.2c-1.5,4.3-2,9-1.2,13.5l-1.6-0.5l5.4-5.5l1.2,1.5
	c-0.4,0.3-0.7,0.7-0.9,1.2c-0.2,0.5-0.2,1-0.1,1.6c0,0.3,0.1,0.6,0.2,0.8c0.1,0.3,0.2,0.5,0.4,0.8c0.3,0.5,0.7,1,1.1,1.3
	c0.2,0.2,0.5,0.3,0.7,0.5c0.3,0.1,0.5,0.2,0.8,0.3c0.2,0.1,0.6,0.1,0.8,0.1c0.3,0,0.6,0,0.9-0.1c0.6-0.1,1.2-0.3,1.7-0.6
	c0.6-0.3,1.1-0.6,1.6-1c1-0.8,1.8-1.9,2.4-3c0.6-1.1,1.1-2.4,1.4-3.7c0.7-2.6,1.1-5.5,2-8.3l1.7,1.1c-0.4,0.4-0.7,0.9-0.7,1.5
	c0,0.6,0.2,1.3,0.5,1.9c0.7,1.2,2,2.2,3.3,2.4c0.3,0.1,0.7,0.1,1,0c0.3-0.1,0.7-0.1,1-0.3c0.7-0.2,1.3-0.6,1.9-1.1
	c1.2-0.9,2.1-2.2,2.9-3.6c0.4-0.7,0.7-1.5,1-2.2c0.3-0.8,0.5-1.6,0.7-2.4c0.4-1.6,0.7-3.2,0.8-4.9c0.3-3.3,0-6.6-0.9-9.8l1.4,0.6
	c-0.3,0.2-0.4,0.4-0.5,0.7c-0.1,0.3-0.1,0.7,0,1.1c0.2,0.8,0.8,1.5,1.4,1.9c0.2,0.1,0.4,0.1,0.6,0.2c0.2,0,0.4,0.1,0.6,0.1
	c0.4,0,0.9,0,1.4-0.1c0.9-0.2,1.8-0.7,2.7-1.2c3.4-2.2,6-5.8,7.4-9.7c1.4-3.9,1.7-8.3,0.9-12.4c-0.8-4.1-2.8-8-6-10.8l-0.6-0.5
	l0.7-0.4c2.6-1.4,4.7-3.5,6.3-6c1.6-2.5,2.5-5.4,2.6-8.4c0.1-3-0.7-5.9-2.1-8.6c-1.4-2.6-3.5-4.9-6-6.5c2.6,1.5,4.8,3.7,6.3,6.4
	c1.5,2.6,2.4,5.7,2.4,8.7c0,3.1-0.9,6.1-2.4,8.8c-1.5,2.7-3.8,5-6.5,6.5l0.1-0.9c3.4,2.9,5.6,7.1,6.6,11.4c0.9,4.4,0.7,9-0.7,13.2
	c-1.4,4.2-4.1,8.1-7.9,10.7c-1,0.6-2,1.2-3.2,1.5c-1.2,0.3-2.5,0.3-3.8-0.3c-1.3-0.6-2.1-1.8-2.5-3.1c-0.2-0.7-0.2-1.4,0-2.1
	c0.2-0.7,0.7-1.4,1.3-1.8l1.1-0.7l0.3,1.2c0.9,3.4,1.3,6.9,1,10.5c-0.1,1.8-0.4,3.5-0.8,5.2c-0.2,0.9-0.4,1.7-0.7,2.5
	c-0.3,0.8-0.7,1.7-1.1,2.5c-0.8,1.6-1.9,3.1-3.4,4.3c-0.8,0.6-1.6,1.1-2.5,1.4c-0.5,0.2-0.9,0.3-1.4,0.3c-0.5,0.1-1.1,0.1-1.6,0
	c-1-0.2-2-0.6-2.8-1.2c-0.8-0.6-1.5-1.3-2-2.2c-0.5-0.9-0.9-1.9-0.8-3c0-0.6,0.1-1.1,0.4-1.6c0.2-0.5,0.6-1,1-1.4l2.9-2.7l-1.2,3.8
	c-0.8,2.6-1.2,5.4-2,8.2c-0.4,1.4-0.9,2.8-1.6,4.2c-0.4,0.7-0.8,1.3-1.3,1.9c-0.5,0.6-1,1.2-1.6,1.7c-0.6,0.5-1.2,1-2,1.3
	c-0.7,0.4-1.5,0.6-2.3,0.8c-0.8,0.1-1.6,0.2-2.5,0c-0.4-0.1-0.8-0.3-1.2-0.4c-0.4-0.2-0.8-0.4-1.1-0.7c-0.7-0.5-1.2-1.2-1.6-1.9
	c-0.2-0.3-0.4-0.7-0.5-1.1c-0.1-0.4-0.3-0.8-0.3-1.2c-0.1-0.8-0.1-1.7,0.2-2.6c0.3-0.9,0.9-1.6,1.7-2.1l1.2,1.5l-5.5,5.4l-1.3,1.2
	l-0.3-1.7c-0.9-4.8-0.3-9.9,1.4-14.5c1.7-4.6,4.6-8.7,8.5-11.7l0.8,1.2c-0.5,0.4-1.2,0.6-1.8,0.7c-0.7,0.1-1.3,0-2-0.1
	c-1.2-0.4-2.3-1.1-3.1-2c-0.8-0.9-1.4-2-1.8-3.1c-0.4-1.1-0.5-2.4-0.3-3.6c0.4-2.3,1.6-4.4,2.9-6.3c1.3-1.9,2.8-3.5,4-5.4
	c1.2-1.8,2.2-3.8,2.7-5.9c0.5-2.1,0.5-4.4-0.4-6.4c-0.9-2-2.8-3.4-4.9-4c-1.1-0.3-2.2-0.3-3.3-0.1
	C335.7,177.3,334.7,177.9,334.1,178.8z"/>
<path fill="#241F20" d="M145,226.4c-2-2.9-4.2-5.5-6.7-7.9c-1.3-1.2-2.6-2.3-4-3.3c-1.4-1-2.8-2-4.3-2.9l0.9-0.1
	c-1.1,1.1-1.9,2.5-2.5,4c-0.6,1.5-0.9,3.1-1.1,4.7c-0.2,1.6-0.1,3.2,0,4.8c0.2,1.6,0.5,3.2,0.8,4.9c0.7,3.2,1.6,6.5,2.2,9.9
	c0.6,3.4,0.6,6.9,0.5,10.3c-0.1,3.4-0.3,6.7-0.1,10c0.2,3.3,0.8,6.5,2.2,9.5c0.7,1.5,1.6,2.8,2.7,4c1.1,1.1,2.5,2.1,4,2.7
	c1.5,0.7,3.1,1,4.8,1c1.6,0,3.3-0.5,4.7-1.4c-1.3,1-3,1.7-4.7,1.8c-1.7,0.1-3.5-0.1-5.1-0.7c-1.6-0.6-3.2-1.5-4.5-2.7
	c-1.3-1.2-2.3-2.6-3.2-4.2c-1.6-3.1-2.4-6.6-2.7-10c-0.3-3.4-0.2-6.8-0.1-10.2c0.1-3.3,0-6.6-0.6-9.9c-0.5-3.2-1.4-6.5-2.1-9.8
	c-0.3-1.7-0.6-3.4-0.8-5.1c-0.1-1.7-0.1-3.5,0.1-5.2c0.2-1.7,0.7-3.5,1.4-5.1c0.7-1.6,1.7-3.1,3-4.4l0.4-0.4l0.5,0.3
	c1.5,1,2.9,2,4.3,3.2c1.4,1.1,2.6,2.4,3.8,3.6C141.3,220.4,143.4,223.3,145,226.4z"/>
<path fill="#241F20" d="M338,243.8c2.4-3.1,5.6-5.7,9.2-7.3c0.9-0.4,1.9-0.8,2.9-1c1-0.2,2.1-0.3,3.1-0.2c1.1,0.1,2.1,0.6,3,1.3
	c0.9,0.7,1.6,1.6,2.1,2.5c1,1.9,1.4,4,1.4,6c0,2-0.2,4.1-0.7,6c-0.9,4-2.6,7.6-4.6,11.1c-2,3.4-4.2,6.7-6.3,9.9
	c-1.1,1.6-2.1,3.3-3.1,4.9c-1,1.6-1.9,3.4-2.9,5.1c-1.9,3.4-3.9,6.9-6.9,9.7c-1.5,1.4-3.2,2.5-5.1,3.1c-0.5,0.1-1,0.3-1.4,0.4
	c-0.5,0.1-1,0.1-1.5,0.1c-1,0-2-0.3-2.7-1.1c0.7,0.7,1.8,0.8,2.7,0.8c0.5,0,0.9-0.1,1.4-0.3c0.5-0.1,0.9-0.3,1.3-0.5
	c1.8-0.8,3.3-1.9,4.6-3.3c1.3-1.4,2.4-2.9,3.4-4.6c1-1.6,1.9-3.4,2.8-5.1c1.7-3.5,3.7-7,5.8-10.3c2.1-3.3,4.3-6.5,6.2-9.9
	c1.9-3.3,3.6-6.8,4.4-10.5c0.5-1.8,0.7-3.7,0.8-5.6c0-1.8-0.3-3.7-1-5.3c-0.4-0.8-0.9-1.5-1.5-2.1c-0.7-0.5-1.4-0.9-2.3-1.1
	c-1.7-0.3-3.6,0.1-5.4,0.8C344,238.8,340.7,241,338,243.8z"/>
<path fill="#241F20" d="M224.8,276c-2,1.6-3,4-2.8,6.2c0.2,2.2,1.7,4,3.7,4.8c1,0.4,2.1,0.5,3.1,0.3c1.1-0.2,2.3-0.8,3.8-0.9
	c2.9-0.1,5.6,2,6,4.6c-1.3-2.2-3.8-3.3-5.9-2.9c-1,0.2-2.1,0.8-3.5,1.2c-0.7,0.2-1.5,0.3-2.2,0.2c-0.7-0.1-1.5-0.2-2.1-0.5
	c-1.3-0.5-2.5-1.4-3.4-2.6c-0.9-1.2-1.3-2.7-1.2-4.1c0.1-1.4,0.5-2.8,1.3-3.9C222.5,277.3,223.6,276.4,224.8,276z"/>
<path fill="#241F20" d="M254.2,293c0.5-1.1,1.5-2.1,2.7-2.7c1.2-0.6,2.6-0.9,3.9-0.7c0.7,0.1,1.4,0.3,2,0.6c0.6,0.3,1.1,0.6,1.6,0.9
	c0.5,0.2,0.9,0.3,1.3,0.4c0.4,0,0.9-0.1,1.4-0.3c0.9-0.4,1.8-1,2.7-1.8c0.8-0.8,1.5-1.6,1.9-2.6c0.5-1,0.7-2.1,0.5-3.2
	c-0.1-1.1-0.6-2.2-1.5-3.1c0.6,0.2,1.1,0.7,1.5,1.1c0.4,0.5,0.7,1.1,1,1.7c0.2,0.6,0.3,1.3,0.3,2c0,0.7-0.1,1.4-0.3,2
	c-0.4,1.3-1.2,2.5-2.1,3.4c-0.9,1-2,1.8-3.3,2.3c-0.7,0.2-1.4,0.4-2.2,0.4c-0.8,0-1.6-0.3-2.2-0.7c-0.6-0.4-1.1-0.7-1.5-1
	c-0.4-0.3-0.9-0.5-1.4-0.6c-1-0.3-2.2-0.3-3.3,0C256.2,291.5,255.1,292.1,254.2,293z"/>
<path fill="#241F20" d="M273.2,237.5c-1,0.3-2,0.5-3.1,0.3c-0.5-0.1-1.1-0.5-1.4-1.1c-0.3-0.6-0.3-1.3,0-1.9c0.3-0.6,0.7-1,1.2-1.4
	c0.5-0.4,1.1-0.5,1.6-0.7c0.5-0.2,1-0.3,1.5-0.4c0.5-0.1,0.9-0.3,1.3-0.5c0.8-0.4,1.6-1,2.5-1.5c0.4-0.3,0.9-0.5,1.4-0.8
	c0.5-0.2,1-0.4,1.5-0.6c2-0.7,4.2-1.1,6.3-1.1c2.1,0,4.3,0.3,6.3,1c2,0.7,3.9,1.7,5.6,3.1c1.6,1.4,2.9,2.9,4.4,4.2
	c0.8,0.6,1.6,1.1,2.5,1.5c0.9,0.4,1.9,0.5,2.9,0.4c-1,0.4-2.1,0.4-3.1,0.1c-1-0.2-2-0.7-2.9-1.2c-1.8-1.1-3.3-2.6-4.8-3.7
	c-1.6-1.1-3.3-2-5.2-2.5c-1.8-0.6-3.8-0.8-5.7-0.8c-1.9,0-3.8,0.3-5.7,0.9c-0.4,0.2-0.9,0.3-1.3,0.5c-0.4,0.2-0.9,0.4-1.3,0.6
	c-0.9,0.5-1.8,1-2.8,1.4c-0.5,0.2-1.1,0.3-1.6,0.4l-1.5,0.2c-0.5,0.1-0.9,0.2-1.3,0.4c-0.4,0.2-0.7,0.5-0.9,0.8
	c-0.2,0.3-0.3,0.7-0.2,1.1c0.1,0.4,0.4,0.7,0.8,0.9c0.4,0.2,0.9,0.3,1.4,0.3C272.2,237.6,272.7,237.6,273.2,237.5z"/>
<path fill="#241F20" d="M222.7,234.3c1-0.1,1.9-0.2,2.9-0.3c1-0.1,1.9-0.2,2.9-0.3l-0.4,0.2c0.3-0.6,0.1-1.4-0.3-2.1
	c-0.4-0.6-1.2-1.1-2-1.8c-0.4-0.3-0.8-0.7-1.1-1.1c-0.4-0.4-0.6-0.9-0.9-1.3c-0.2-0.4-0.4-0.8-0.7-1c-0.2-0.3-0.5-0.5-0.9-0.7
	c-0.7-0.4-1.6-0.6-2.5-0.8c-0.5-0.1-0.9-0.2-1.3-0.3l-1.4-0.3c-0.5-0.1-0.9-0.2-1.4-0.2c-0.5-0.1-0.9-0.1-1.4-0.2l-1.4-0.1
	c-0.5,0-0.9-0.1-1.4-0.1c-3.7-0.2-7.4,0.1-11.1,0.9c-1.8,0.4-3.6,0.9-5.4,1.5c-1.8,0.6-3.5,1.4-5.3,2.2c1.5-1.1,3.2-2.2,4.9-3
	c0.4-0.2,0.9-0.4,1.3-0.6c0.4-0.2,0.9-0.4,1.3-0.6l1.4-0.5c0.5-0.2,0.9-0.3,1.4-0.4c0.5-0.2,0.9-0.3,1.4-0.4
	c0.5-0.1,0.9-0.2,1.4-0.3c1-0.2,1.9-0.4,2.9-0.5c1-0.1,1.9-0.2,2.9-0.3c0.5,0,1,0,1.5,0c0.5,0,1,0,1.5,0c0.5,0,1,0,1.5,0.1l1.5,0.1
	c0.5,0,1,0.1,1.5,0.2c0.5,0.1,1,0.1,1.4,0.3l1.4,0.3c0.5,0.1,0.9,0.3,1.4,0.4c0.9,0.3,1.9,0.6,2.9,1.1c0.5,0.3,1,0.6,1.3,1.1
	c0.4,0.5,0.6,0.9,0.9,1.4c0.2,0.4,0.4,0.8,0.6,1.1c0.2,0.3,0.5,0.6,0.8,0.9c0.7,0.6,1.5,1.2,2.1,2.2c0.3,0.5,0.5,1,0.5,1.6
	c0.1,0.6-0.1,1.2-0.5,1.7l-0.2,0.2l-0.2,0c-1-0.1-1.9-0.1-2.9-0.2C224.6,234.4,223.7,234.4,222.7,234.3z"/>
<path fill="#241F20" d="M269.9,219.4l3.4-3.7l0.1,0.1l-4.9,5.9l-0.3-0.3c2.7-3.7,6.3-6.7,10.5-8.7l1.5-0.8l-1.1,1.4
	c-1.9,2.4-4.4,4.3-7.2,5.4l-1.8,0.7l1.2-1.5c2.1-2.7,5.1-4.8,8.4-6c3.3-1.2,6.9-1.5,10.3-0.8l1.3,0.3l-0.9,0.9
	c-1.2,1.2-2.7,2.1-4.2,2.8c-1.5,0.7-3,1.3-4.5,1.9c-1.5,0.6-3,1.2-4.3,1.9c-1.4,0.7-2.6,1.6-3.6,2.8l-1-1.3c5.2-3,10.5-5.9,15.8-8.9
	l1,1.6l-13.6,9.9l-1-1.7l21.3-9.5l1.1-0.5l0.3,1.2c0.1,0.5,0.1,1.1-0.1,1.5c-0.2,0.5-0.4,0.8-0.7,1.1c-0.5,0.6-1.1,1-1.7,1.4
	l-3.2,1.9l-6.3,3.8l-1-1.8c3-1.6,6.1-3.3,9.3-4.7c3.2-1.4,6.5-2.7,9.9-3.5l5.6-1.2l-4.8,3.1l-10.8,6.9l-1-1.7
	c2.7-1.6,5.5-3.1,8.5-4.3c1.5-0.6,3.1-1.1,4.7-1.4c1.6-0.3,3.3-0.4,4.9-0.3l1.5,0.1l-0.9,1.3c-0.6,0.9-1.5,1.5-2.4,1.8
	c-1,0.3-2,0.4-3,0l-3-1l3.1-0.6c2.7-0.5,5.5-0.3,8,0.6c2.5,0.9,4.9,2.5,6.6,4.6l2.1,2.6l-3-1.4c-1.9-0.9-3.7-2-5.3-3.2l0.8-1.1
	c3.5,2.7,5.7,6.8,6.2,11.2l0.3,2.3l-1.3-1.9c-1.3-1.8-2.5-3.6-3.9-5.2c-1.4-1.6-2.9-3.2-4.7-4.4c-1.7-1.2-3.8-2-5.9-2.4
	c-2.1-0.3-4.3-0.1-6.2,0.9l-0.1-0.5c3.1,0.5,6.2,1.4,9.2,2.5c3,1.1,5.8,2.6,8.5,4.2c-2.7-1.6-5.6-2.9-8.6-3.9c-3-1-6.1-1.8-9.2-2.3
	l-0.9-0.1l0.8-0.4c2-1.1,4.4-1.4,6.6-1.1c2.2,0.3,4.4,1.1,6.3,2.4c1.9,1.2,3.5,2.8,5,4.5c1.5,1.7,2.8,3.5,4.1,5.2l-1.1,0.4
	c-0.5-4-2.7-7.8-5.9-10.2l0.8-1.1c1.6,1.1,3.4,2.1,5.2,3l-0.9,1.1c-3.1-3.7-8.4-5.5-13.1-4.5l0.1-1.7c0.6,0.2,1.3,0.2,1.9-0.1
	c0.6-0.2,1.2-0.6,1.5-1.1l0.7,1.4c-3-0.2-6,0.5-8.8,1.7c-2.8,1.1-5.5,2.7-8.2,4.2l-1-1.7l10.8-6.9l0.8,1.8c-3.3,0.7-6.4,1.9-9.5,3.3
	c-3.1,1.4-6.1,3.1-9.1,4.7l-1-1.8l6.3-3.8l3.2-1.9c0.5-0.3,0.9-0.6,1.2-0.9c0.1-0.2,0.2-0.3,0.3-0.4c0-0.1,0-0.2,0-0.3l1.4,0.7
	l-21.3,9.5l-9,4l8.1-5.8l13.6-9.7l1,1.6c-5.3,2.9-10.6,5.8-15.9,8.7l-4.3,2.3l3.3-3.6c1.2-1.3,2.6-2.3,4.1-3c1.5-0.8,3-1.4,4.5-1.9
	c1.5-0.6,3-1.1,4.4-1.8c1.4-0.7,2.7-1.5,3.9-2.5l0.3,1.1c-3.2-0.7-6.5-0.4-9.6,0.6c-1.5,0.5-3,1.3-4.4,2.2c-1.4,0.9-2.6,2-3.6,3.3
	l-0.6-0.8c2.7-1,5.1-2.8,7-5l0.5,0.6c-4.1,1.9-7.7,4.7-10.5,8.3l-0.3-0.3l5.1-5.8l0.1,0.1L269.9,219.4z"/>
<path fill="#241F20" d="M231.6,215.1c-1.2-2.5-2.6-4.8-4.4-6.9l0.3-0.2c1.6,3.5,2.6,7.3,3.1,11.1l-0.6,0.1c-0.6-2.8-1.8-5.4-3.5-7.7
	c-1.7-2.3-3.9-4.1-6.3-5.5l0.7-0.7c2,3.8,4.3,7.5,7,10.9l-1,0.8c-3.5-4.7-7.9-8.8-13-11.8l1.1-1.1c1.3,2.1,2.7,4.1,4.2,6
	c1.5,1.9,3.1,3.7,4.8,5.5l-1.3,1.2c-3.6-4.2-8.2-7.6-13.3-9.7l1.2-1.5c2.7,3.8,5.9,7.3,9.4,10.3l-1.3,1.6c-3.2-2.3-6.4-4.5-9.8-6.5
	c-1.7-1-3.4-2-5.1-3c-0.9-0.5-1.7-0.9-2.5-1.2c-0.8-0.3-1.5-0.3-2.1,0l0.2-1.7c3.4,3,7.1,5.8,10.9,8.3l-1.3,1.6
	c-4-3.9-8.9-6.9-14.1-8.9l1-1.6c2.3,2.3,4.9,4.3,7.7,5.8l-0.9,1.7c-5.6-2.7-11.9-4.1-18.2-4.2l0.3-1.6c1.8,0.7,3.7,1,5.6,0.9l0,1.6
	c-4.4-0.4-9-0.1-13.3,0.9l-0.3-1.3c2.9-0.5,6-0.3,8.8,0.5l2.7,0.8l-2.8,0.4c-2.8,0.4-5.6,1.1-8.2,2c-2.7,1-5.2,2.2-7.6,3.7l-0.4-0.7
	c3.4-1.5,6.9-2.5,10.6-2.8l1.8-0.2l-1.6,0.7c-2.4,1-4.8,2.3-6.9,3.8c-1.1,0.7-2.1,1.6-3.1,2.4c-0.3,0.2-0.5,0.4-0.7,0.7
	c-0.2,0.2-0.5,0.4-0.7,0.7c-0.2,0.3-0.3,0.6-0.1,0.9c0.1,0.1,0.2,0.2,0.4,0.3c0.2,0.1,0.3,0,0.4-0.1c-0.1,0.1-0.3,0.2-0.4,0.2
	c-0.2,0-0.3-0.1-0.4-0.3c-0.2-0.3-0.1-0.7,0.1-1c0.2-0.3,0.4-0.5,0.7-0.7c0.2-0.2,0.5-0.5,0.7-0.7c1-0.9,2-1.8,3.1-2.6
	c2.1-1.6,4.5-2.9,6.9-4l0.1,0.5c-3.6,0.4-7.1,1.5-10.3,3l-0.4-0.7c2.4-1.6,5-3,7.7-4c2.7-1,5.6-1.8,8.4-2.2l-0.1,1.2
	c-2.7-0.7-5.5-0.9-8.3-0.4l-0.3-1.3c4.5-1.2,9.2-1.6,13.8-1.2l0,1.6c-2.1,0.2-4.3-0.1-6.3-0.9l-4.4-1.6l4.6-0.1
	c6.5-0.1,13.1,1.4,19,4.1l-0.9,1.7c-3-1.6-5.8-3.6-8.2-6.1l-3.2-3.2l4.2,1.6c5.5,2,10.6,5.2,14.8,9.2l-1.3,1.6
	c-3.9-2.5-7.7-5.3-11.2-8.4l-1.1-1l1.4-0.7c0.6-0.3,1.3-0.4,1.9-0.4c0.6,0,1.2,0.1,1.8,0.3c1.1,0.3,2,0.9,2.9,1.4c1.7,1,3.4,2,5.1,3
	c3.4,2.1,6.7,4.3,9.9,6.6l-1.3,1.6c-3.7-3.2-6.9-6.8-9.7-10.7l-1.9-2.8l3.1,1.3c5.4,2.3,10.2,5.8,13.9,10.3l-1.3,1.2
	c-1.7-1.8-3.4-3.7-4.9-5.7c-1.5-2-2.9-4.1-4.2-6.2l-1.8-2.9l2.9,1.8c5.2,3.2,9.7,7.4,13.2,12.4l-1,0.8c-2.6-3.5-4.9-7.3-6.9-11.2
	l-0.8-1.6l1.5,0.8c2.6,1.4,4.8,3.5,6.5,5.9c1.7,2.4,2.9,5.2,3.4,8.1l-0.6,0.1c-0.4-3.8-1.3-7.5-2.8-11.1l-0.4-1l0.7,0.9
	C229.1,210.2,230.5,212.6,231.6,215.1z"/>
<path fill="#241F20" d="M166.4,358.7c1.2,5.5,1.9,11,2.3,16.6c0.1,1.4,0.2,2.8,0.2,4.2l0.1,4.2c0,1.4,0,2.8,0,4.2l-0.1,4.2l-0.3,4.2
	l-0.4,4.2l-0.5,4.2c-0.2,1.4-0.4,2.8-0.7,4.1c-1,5.5-2.3,11-4,16.3c0.9-5.5,1.7-11,2.4-16.5c0.1-1.4,0.3-2.8,0.5-4.1l0.4-4.1
	l0.3-4.1l0.2-4.1l0.2-4.1c0-1.4,0.1-2.8,0.1-4.1l0.1-4.2c0-1.4,0-2.8,0-4.2C167,369.8,166.7,364.3,166.4,358.7z"/>
<path fill="#241F20" d="M308.3,364.2c-0.1,4.7-0.2,9.4,0.1,14.1c0.2,4.7,0.7,9.3,1.5,13.9c0.2,1.2,0.4,2.3,0.6,3.4
	c0.2,1.1,0.4,2.3,0.7,3.4c0.5,2.3,1.1,4.5,1.7,6.8c1.2,4.5,2.7,8.9,5.6,12.7c-1.8-1.6-3.2-3.5-4.4-5.6c-1.2-2.1-2.1-4.3-2.8-6.6
	c-1.5-4.5-2.7-9.1-3.5-13.8c-0.4-2.3-0.6-4.7-0.8-7.1c-0.1-2.4-0.3-4.7-0.2-7.1C306.8,373.5,307.3,368.8,308.3,364.2z"/>
<path fill="#241F20" d="M201.2,317.2c3.6,1,7.2,0.7,10.7-0.1c3.5-0.8,6.9-2.1,10.4-3.3c3.5-1.2,7.1-2.2,10.9-2.5
	c1.9-0.1,3.8,0,5.7,0.4c0.5,0.1,0.9,0.3,1.4,0.4c0.5,0.2,0.9,0.3,1.4,0.5c0.9,0.4,1.7,0.8,2.4,1.1c0.8,0.3,1.5,0.4,2.1,0.3
	c0.7-0.1,1.4-0.5,2.3-0.9c0.8-0.4,1.8-0.8,2.8-1c1-0.2,2-0.2,3-0.1c2,0.2,3.8,0.9,5.5,1.6c1.7,0.7,3.4,1.5,5,2.3
	c6.6,2.9,13.7,4.6,21,5.2c-7.3,0.3-14.7-1-21.7-3.7c-1.7-0.7-3.4-1.4-5.1-2.1c-1.7-0.6-3.4-1.2-5-1.3c-0.8-0.1-1.7,0-2.4,0.1
	l-0.6,0.1l-0.6,0.2c-0.4,0.1-0.7,0.3-1.1,0.5c-0.8,0.4-1.7,0.9-2.8,1.1c-1.1,0.2-2.3,0-3.2-0.3c-1-0.3-1.8-0.8-2.6-1.1
	c-0.4-0.2-0.8-0.3-1.2-0.5c-0.4-0.1-0.8-0.2-1.2-0.4c-1.7-0.4-3.4-0.5-5.2-0.4c-3.5,0.1-7,1.1-10.5,2.1c-3.5,1.1-7,2.2-10.7,2.8
	c-1.8,0.3-3.7,0.4-5.5,0.3C204.7,318.3,202.9,317.9,201.2,317.2z"/>
<path fill="#241F20" d="M220.1,319.8c1.7-0.7,3.5-1,5.3-1.1c1.8-0.1,3.6,0,5.4,0.1c3.6,0.3,7,0.8,10.4,0.8c3.4-0.1,6.8-0.8,10.4-1.3
	c1.8-0.2,3.6-0.3,5.4-0.1c1.8,0.2,3.6,0.7,5.2,1.6c-3.5-1-6.9-0.5-10.3,0.2c-3.4,0.7-6.9,1.7-10.6,1.7c-3.7,0.1-7.2-0.7-10.7-1.3
	C227.1,319.8,223.6,319.3,220.1,319.8z"/>
<path fill="#241F20" d="M203,320.9c1.9,3.3,4.4,6.3,7.2,8.9c2.8,2.6,6,4.7,9.3,6.4c3.4,1.7,6.9,3.2,10.5,4.2
	c3.6,1.1,7.3,1.9,11.1,2.3c3.7,0.5,7.5,0.7,11.2,0.1c3.7-0.5,7.2-1.9,10.6-3.6c6.7-3.5,12.9-8.2,17.6-14.3c-1.9,3.3-4.5,6.3-7.3,8.9
	c-2.9,2.6-6.1,4.9-9.5,6.8c-3.4,1.9-7.1,3.5-11,4.1c-3.9,0.6-7.9,0.5-11.8,0c-3.9-0.5-7.7-1.3-11.4-2.5c-3.7-1.2-7.3-2.7-10.7-4.7
	c-3.4-1.9-6.5-4.3-9.2-7.1C206.8,327.7,204.6,324.4,203,320.9z"/>
<path fill="#241F20" d="M212.5,323.3c4.3,2.2,8.8,3.9,13.4,5.2c1.2,0.3,2.3,0.5,3.5,0.8l3.5,0.6c1.2,0.1,2.3,0.3,3.5,0.5l3.5,0.2
	l3.5,0.1l3.5-0.1l3.5-0.3c1.2-0.2,2.3-0.3,3.5-0.5c4.7-0.8,9.3-2.1,13.8-3.9c-4.1,2.6-8.7,4.4-13.5,5.5c-1.2,0.3-2.4,0.5-3.6,0.7
	l-3.6,0.5l-3.7,0.2l-3.7,0l-3.7-0.3c-1.2-0.2-2.4-0.3-3.6-0.5l-3.6-0.8c-1.2-0.3-2.3-0.7-3.5-1.1
	C220.8,328.5,216.4,326.2,212.5,323.3z"/>
<path fill="#241F20" d="M271.8,227.3c3.4-0.8,6.8-1.4,10.2-1.9c1.7-0.3,3.4-0.5,5.1-0.7c1.7-0.2,3.4-0.4,5.2-0.4
	c0.9,0,1.8,0.1,2.7,0.2c0.5,0.1,0.9,0.2,1.4,0.3c0.4,0.1,0.9,0.2,1.3,0.4c1.7,0.6,3.3,1.5,4.8,2.6c2.9,2.1,5.2,4.8,7.3,7.5
	c-2.7-2.2-5.3-4.4-8.2-6.1c-1.4-0.8-2.9-1.6-4.5-2c-1.5-0.5-3.1-0.7-4.8-0.7c-1.6,0-3.3,0.2-5,0.3c-1.7,0.1-3.4,0.3-5.2,0.4
	C278.7,227.3,275.3,227.4,271.8,227.3z"/>
<path fill="#241F20" d="M227.6,225.5c-3.5-2.6-7.2-4.6-11.2-5.9c-4-1.3-8.1-1.8-12.3-1.4c-4.1,0.3-8.2,1.5-12,3.2l-1.4,0.7
	c-0.5,0.2-0.9,0.5-1.4,0.8c-0.9,0.5-1.8,1.1-2.6,1.7c-1.7,1.2-3.3,2.7-4.8,4.2c1.2-1.8,2.6-3.5,4.2-5c1.6-1.5,3.4-2.8,5.3-3.9
	c0.5-0.3,1-0.5,1.5-0.8c0.2-0.1,0.5-0.3,0.7-0.4l0.8-0.3c0.5-0.2,1-0.4,1.5-0.6l1.6-0.5c0.5-0.2,1.1-0.3,1.6-0.4l0.8-0.2l0.8-0.2
	c0.5-0.1,1.1-0.2,1.6-0.3l1.6-0.2c0.5-0.1,1.1,0,1.7-0.1l0.8,0c0.3,0,0.6,0,0.8,0c0.6,0,1.1,0,1.7,0.1c0.6,0.1,1.1,0.1,1.6,0.2
	c0.6,0.1,1.1,0.2,1.6,0.3c0.5,0.1,1.1,0.2,1.6,0.4c1.1,0.3,2.1,0.6,3.1,1.1C221,219.8,224.7,222.3,227.6,225.5z"/>
<path fill="#241F20" d="M284.7,229.3c-1.5,1.7-2,4-1.5,6c0.1,0.5,0.3,0.9,0.5,1.4c0.2,0.4,0.5,0.8,0.9,1.1c0.4,0.3,0.7,0.6,1.2,0.8
	c0.4,0.2,0.9,0.4,1.3,0.5c0.9,0.2,1.9,0.3,2.8,0.1c0.5-0.1,0.9-0.3,1.3-0.5c0.4-0.3,0.8-0.6,1.1-0.9c1.4-1.4,2.2-3.6,1.7-5.9
	c0.3,0.5,0.6,1,0.7,1.6c0.1,0.6,0.2,1.2,0.2,1.8c-0.1,0.6-0.2,1.2-0.4,1.8c-0.2,0.6-0.5,1.2-0.9,1.7c-0.4,0.5-0.9,1-1.4,1.4
	c-0.5,0.4-1.2,0.7-1.8,0.9c-0.6,0.2-1.3,0.3-2,0.3c-0.7,0-1.3-0.1-2-0.2c-0.6-0.2-1.2-0.4-1.8-0.8c-0.6-0.3-1.1-0.8-1.5-1.2
	c-0.4-0.5-0.8-1.1-1.1-1.7c-0.3-0.6-0.4-1.3-0.5-1.9c-0.1-0.6,0-1.3,0.1-1.9c0.1-0.6,0.3-1.2,0.6-1.8c0.3-0.5,0.6-1.1,1-1.5
	C283.7,230,284.2,229.6,284.7,229.3z"/>
<path fill="#241F20" d="M204.7,223.5c-0.2,1.2-0.4,2.3-0.5,3.5c-0.1,1.1,0,2.2,0.3,3.2c0.3,1,0.8,1.9,1.5,2.5
	c0.7,0.6,1.6,0.9,2.5,0.9c0.5,0,1-0.1,1.4-0.2c0.5-0.1,0.9-0.3,1.4-0.6c0.9-0.5,1.7-1.2,2.5-2c0.4-0.4,0.8-0.8,1.2-1.3
	c0.4-0.4,0.7-0.9,1.1-1.3c0.6-0.9,1.2-1.9,0.9-3.1c0.2,0.2,0.3,0.5,0.4,0.8c0.1,0.3,0.1,0.6,0.1,0.9c0,0.6-0.2,1.3-0.4,1.8
	c-0.5,1.2-1.1,2.2-1.9,3.2c-0.7,1-1.6,1.9-2.7,2.7c-1.1,0.7-2.5,1.2-3.9,1.2c-0.7,0-1.4-0.1-2.1-0.4c-0.7-0.3-1.3-0.7-1.8-1.2
	c-1-1-1.6-2.3-1.8-3.6c-0.2-1.3,0-2.6,0.3-3.8C203.6,225.6,204.1,224.5,204.7,223.5z"/>
<path fill="#241F20" d="M175.9,167.3c-2.2-4.1-3.4-8.7-3.7-13.4c0-0.6-0.1-1.2,0.1-1.9c0.2-0.7,0.6-1.4,1.2-1.8
	c0.6-0.4,1.3-0.6,2-0.7c0.7-0.1,1.4,0,2,0.3c1.3,0.5,2.2,1.3,3.1,2.1c0.9,0.8,1.7,1.5,2.6,2.2c1.8,1.3,3.8,2.2,5.9,2.5
	c2.1,0.3,4.3-0.1,6-1.2c0.9-0.5,1.6-1.2,2.2-2.1c0.3-0.4,0.5-0.8,0.7-1.3c0.1-0.5,0.3-0.9,0.3-1.4c0-0.5,0-1,0-1.5
	c-0.1-0.5-0.2-1-0.4-1.4c-0.4-0.9-1-1.7-1.8-2.2l1.5-1.3c0.6,1.4,1.9,2.6,3.4,3.2c1.5,0.6,3.2,0.8,4.9,0.5c1.7-0.3,3.2-1.2,4.6-2.2
	c1.4-1.1,2.6-2.4,3.6-3.9c1-1.5,1.7-3.1,1.6-4.8c0-0.9-0.2-1.7-0.5-2.6c-0.3-0.9-0.5-1.8-0.8-2.6c-1.2-3.5-2.7-6.9-4.6-10.1
	c2.2,3,4,6.3,5.4,9.8c0.4,0.9,0.7,1.7,1,2.6c0.3,0.9,0.6,1.8,0.7,2.8c0.1,1,0,2.1-0.3,3c-0.3,1-0.7,1.9-1.3,2.7
	c-1,1.6-2.3,3.2-3.8,4.4c-1.5,1.3-3.3,2.2-5.3,2.7c-2,0.5-4.1,0.3-6.1-0.5c-1.9-0.8-3.6-2.2-4.5-4.2l-1.4-3.1l2.9,1.9
	c1.2,0.8,2.1,1.9,2.6,3.1c0.5,1.2,0.7,2.6,0.6,3.9c-0.1,0.7-0.2,1.3-0.4,1.9c-0.2,0.6-0.5,1.2-0.9,1.8c-0.8,1.1-1.7,2-2.8,2.6
	c-2.2,1.3-4.9,1.8-7.4,1.3c-2.5-0.4-4.8-1.5-6.7-3c-1-0.7-1.8-1.6-2.6-2.4c-0.8-0.8-1.6-1.5-2.5-1.9c-0.9-0.4-2-0.4-2.7,0.1
	c-0.4,0.2-0.6,0.6-0.8,1c-0.1,0.5-0.2,1-0.2,1.5C173.4,158.4,174.3,162.9,175.9,167.3z"/>
<path fill="#241F20" d="M164.2,159.6c2,1.7,3.8,3.6,5.4,5.8c0.8,1.1,1.5,2.2,2.1,3.4c0.3,0.6,0.6,1.2,0.9,1.8
	c0.3,0.6,0.5,1.3,0.7,1.9c0.3,1.3,0.5,2.7,0.2,4.2c-0.2,0.7-0.5,1.4-1.1,2c-0.6,0.6-1.3,1-2.1,1.1c-0.7,0.1-1.4,0.1-2,0.2
	c-0.6,0-1.1,0.2-1.6,0.4c-1,0.5-1.7,1.4-2.2,2.5c-0.5,1.1-0.7,2.3-0.7,3.4c0,1.2,0.2,2.5,0.5,3.7c0.3,1.3,0.6,2.6,0.7,3.9
	c0.1,0.7,0.2,1.4,0.2,2.1c0,0.7-0.1,1.4-0.2,2.1c-0.3,1.4-0.8,2.8-1.9,4c-0.5,0.6-1.1,1.1-1.9,1.4c-0.7,0.4-1.5,0.5-2.2,0.6
	c-1.5,0.1-2.8-0.1-4.1-0.1c-1.2,0-2.3,0.1-3,0.7l0.2-1.3c1.5,2.7,2.8,5.5,3.9,8.3c1.1,2.9,2,5.8,2.8,8.8c0.8,3,1.3,6,1.6,9
	c0.4,3,0.5,6.1,0.4,9.2l0,0.8l-0.7-0.2c-2.8-0.8-5.4-2.4-7.4-4.4c-2-2.1-3.5-4.6-4.2-7.3c1,2.7,2.6,5,4.7,6.9
	c2.1,1.9,4.6,3.2,7.2,3.8l-0.7,0.6c-0.1-3-0.4-6-0.8-9c-0.4-3-1.1-5.9-1.9-8.8c-0.8-2.9-1.8-5.7-2.9-8.5c-1.1-2.8-2.4-5.5-3.9-8.1
	l-0.4-0.7l0.6-0.6c0.6-0.6,1.4-0.9,2.2-1.1c0.8-0.2,1.5-0.2,2.2-0.2c1.4,0,2.7,0.2,3.8,0.1c0.6-0.1,1.1-0.2,1.5-0.4
	c0.5-0.2,0.9-0.5,1.2-0.9c0.7-0.8,1.2-1.9,1.4-3c0.5-2.3-0.1-4.8-0.6-7.4c-0.2-1.3-0.4-2.7-0.4-4.1c0-1.4,0.3-2.9,1-4.2
	c0.6-1.3,1.6-2.5,3-3.2c0.7-0.3,1.5-0.5,2.2-0.5c0.7,0,1.3,0,1.9-0.1c0.5-0.1,1-0.3,1.4-0.7c0.4-0.3,0.6-0.8,0.8-1.4
	c0.3-1.1,0.3-2.4,0-3.6c-0.1-0.6-0.3-1.2-0.5-1.8c-0.2-0.6-0.5-1.2-0.7-1.8c-0.5-1.2-1.2-2.3-1.8-3.4
	C167.7,163.5,166,161.4,164.2,159.6z"/>
<path fill="#241F20" d="M306.6,153.4c-0.2-1.1,0.1-2.3,0.9-3.2l0.3-0.3l0,0.4c0.1,1.7,0.3,3.4,0.5,5.1c0.3,1.7,0.7,3.3,1.3,4.9
	c0.6,1.5,1.5,3,2.7,4c0.3,0.3,0.6,0.5,0.9,0.7l0.5,0.3l0.5,0.3c0.7,0.3,1.5,0.6,2.2,0.7c1.6,0.3,3.2,0.3,4.9,0.1
	c1.6-0.2,3.3-0.5,4.9-0.9c1.6-0.4,3.2-1,4.6-1.7c0.7-0.4,1.4-0.8,2.1-1.3c0.6-0.5,1.2-1,1.8-1.6l1,1.7c-1.7,0.4-3.1,1.7-3.9,3.3
	c-0.8,1.7-1,3.6-0.4,5.3c0.6,1.7,1.9,3.3,3.4,4.4c1.6,1.1,3.4,1.8,5.4,2c2,0.2,4,0,5.9-0.5c2-0.5,3.9-1.3,5.7-2.3
	c3.6-2,6.8-4.9,8.6-8.7c-0.7,2-1.8,3.9-3.2,5.5c-1.4,1.6-3,3-4.9,4.1c-1.8,1.1-3.7,2.1-5.8,2.7c-2.1,0.6-4.3,1-6.5,0.8
	c-2.2-0.1-4.4-0.9-6.3-2.1c-1.9-1.2-3.5-3-4.3-5.3c-0.4-1.1-0.6-2.3-0.5-3.5c0.1-1.2,0.4-2.3,0.9-3.4c0.5-1.1,1.2-2,2.1-2.8
	c0.9-0.8,2-1.4,3.2-1.6l3.3-0.7l-2.3,2.4c-0.6,0.7-1.3,1.3-2.1,1.8c-0.7,0.5-1.5,1-2.3,1.4c-1.6,0.8-3.3,1.4-5.1,1.8
	c-1.7,0.4-3.5,0.7-5.2,0.8c-1.8,0.1-3.6,0.1-5.4-0.3c-0.9-0.2-1.8-0.5-2.6-1l-0.6-0.4l-0.6-0.4c-0.4-0.3-0.7-0.6-1.1-0.9
	c-1.3-1.3-2.2-3-2.8-4.6c-0.6-1.7-0.8-3.4-1-5.2c-0.1-1.7-0.1-3.5-0.1-5.2l0.3,0.1C307,151.2,306.6,152.3,306.6,153.4z"/>
<path fill="#241F20" d="M288.7,300c-0.3,1.7-0.5,3.5,0,5.2c1.2,4.7,7,7.1,11.8,6c4.7-1,8.5-4.6,11.7-8.3c5.4-6.5,12.8-23.9-1.1-25.8
	C299.9,275.7,290.4,290.9,288.7,300z"/>
<path fill="#241F20" d="M172.5,291.5c-1.6,2.2-3,4.7-3.4,7.5s0.5,5.8,2.7,7.5c2.3,1.8,5.5,1.7,8.4,1.1c9.9-2.2,17.5-10.7,21.8-19.9
	c1.1-2.4,2.1-4.9,2-7.6c-0.1-2.6-1.5-5.4-3.9-6.4C191.3,270,176.8,285.6,172.5,291.5z"/>
</svg>
