<svg xmlns="http://www.w3.org/2000/svg" viewBox="0 0 112.052 103.545">
  <defs>
    <style>
      .cls-1 {
        fill: #171143;
      }
    </style>
  </defs>
  <g id="Groupe_124" data-name="Groupe 124" transform="translate(0 0.1)">
    <path id="Tracé_287" data-name="Tracé 287" class="cls-1" d="M94.541,103.445H18.412V46.6L.807,29.613A2.6,2.6,0,0,1,0,27.688a2.561,2.561,0,0,1,.838-1.894L22.882,5.52,41.139-.069l.186.31c.062.093,6.241,10.308,14.468,10.37h.093c4.844,0,9.5-3.508,13.816-10.4L69.92-.1,88.58,7.01l.062.031c.062.062,5.9,4.75,11.643,9.749,11.8,10.246,11.767,11.8,11.767,12.357,0,.466-.031,1.552-8.911,9.625-3.85,3.477-7.762,6.8-8.6,7.514Zm-75.2-.931H93.61V45.882l.155-.155c8.476-7.141,17.263-15.276,17.356-16.58.031-1.832-11.829-12.326-23.038-21.33L70.293,1.08c-4.44,6.955-9.283,10.494-14.375,10.494h-.124c-3.633-.031-7.42-1.925-10.991-5.464a30.484,30.484,0,0,1-4.1-5.061L23.317,6.358,1.49,26.477a1.774,1.774,0,0,0-.559,1.211,1.74,1.74,0,0,0,.528,1.242L19.343,46.193Z"/>
    <path id="Tracé_288" data-name="Tracé 288" class="cls-1" d="M59.766,114.38a.478.478,0,0,1-.466-.466V98.266a.466.466,0,1,1,.931,0v15.648A.478.478,0,0,1,59.766,114.38Z" transform="translate(-40.888 -67.504)"/>
    <path id="Tracé_289" data-name="Tracé 289" class="cls-1" d="M301.966,116.689a.477.477,0,0,1-.466-.466V102.066a.466.466,0,1,1,.931,0v14.158A.457.457,0,0,1,301.966,116.689Z" transform="translate(-207.89 -70.124)"/>
  </g>
</svg>
