<svg xmlns="http://www.w3.org/2000/svg" viewBox="0 0 84.511 81.537">
  <defs>
    <style>
      .cls-1 {
        fill: #171143;
      }
    </style>
  </defs>
  <g id="Groupe_116" data-name="Groupe 116" transform="translate(0 0)">
    <path id="Tracé_248" data-name="Tracé 248" class="cls-1" d="M40.768,81.536A40.768,40.768,0,1,1,81.536,40.768,40.814,40.814,0,0,1,40.768,81.536Zm0-80.393A39.625,39.625,0,1,0,80.393,40.768,39.693,39.693,0,0,0,40.768,1.143Z"/>
    <path id="Tracé_249" data-name="Tracé 249" class="cls-1" d="M20.621,66.9a15.712,15.712,0,0,1-5.487-1.029.58.58,0,0,1,.457-1.067c.038.038,5.715,2.248,9.754-.267,2.477-1.562,3.886-4.648,4.191-9.106a.616.616,0,0,1,.61-.533.585.585,0,0,1,.533.61c-.343,4.877-1.943,8.23-4.763,9.983A9.892,9.892,0,0,1,20.621,66.9Z" transform="translate(-9.152 -33.982)"/>
    <path id="Tracé_250" data-name="Tracé 250" class="cls-1" d="M164.609,59.285a7.546,7.546,0,0,1-3.81-.953c-4.458-2.438-5.067-8.763-5.106-9.03a.573.573,0,0,1,1.143-.076c0,.076.61,5.982,4.5,8.154,2.4,1.334,5.6.991,9.487-.991a.571.571,0,0,1,.5,1.029A15.449,15.449,0,0,1,164.609,59.285Z" transform="translate(-96.37 -30.138)"/>
    <path id="Tracé_251" data-name="Tracé 251" class="cls-1" d="M92.02,92.4,87.6,110.765h7.392Z" transform="translate(-54.223 -57.195)"/>
    <circle id="Ellipse_180" data-name="Ellipse 180" class="cls-1" cx="3.62" cy="3.62" r="3.62" transform="translate(59.933 33.224)"/>
    <circle id="Ellipse_181" data-name="Ellipse 181" class="cls-1" cx="3.62" cy="3.62" r="3.62" transform="translate(19.393 33.224)"/>
    <path id="Tracé_252" data-name="Tracé 252" class="cls-1" d="M93.414,166.889a.706.706,0,0,1-.267-.076c-5.791-3.124-15.24-5.677-27.623-.267a2.757,2.757,0,0,1-.953.343.586.586,0,0,1-.572-.572.577.577,0,0,1,.5-.572,5.74,5.74,0,0,1,.572-.229c12.8-5.6,22.632-2.934,28.652.3a.567.567,0,0,1,.229.762A.714.714,0,0,1,93.414,166.889Zm-28.881-1.143Z" transform="translate(-39.615 -100.44)"/>
    <path id="Tracé_253" data-name="Tracé 253" class="cls-1" d="M190,107c0,.5-8.954,15.888-2.4,24.994,0,0,5.22,6.477,10.364-.991C203.073,123.574,190,107,190,107Z" transform="translate(-114.64 -66.232)"/>
  </g>
</svg>
