<?xml version="1.0" encoding="utf-8"?>
<!-- Generator: Adobe Illustrator 22.1.0, SVG Export Plug-In . SVG Version: 6.00 Build 0)  -->
<svg version="1.1" id="Calque_1" xmlns="http://www.w3.org/2000/svg" xmlns:xlink="http://www.w3.org/1999/xlink" x="0px" y="0px"
	 viewBox="0 0 50 50" style="enable-background:new 0 0 50 50;" xml:space="preserve">
<style type="text/css">
	.st0{fill:url(#SVGID_1_);}
	.st1{fill:#FFFFFF;}
</style>
<g>
	<radialGradient id="SVGID_1_" cx="25.7389" cy="25.7691" r="21" gradientUnits="userSpaceOnUse">
		<stop  offset="0" style="stop-color:#FFFFFF"/>
		<stop  offset="5.108022e-02" style="stop-color:#FFF0F7;stop-opacity:0.9181"/>
		<stop  offset="0.2402" style="stop-color:#FFBCDA;stop-opacity:0.6149"/>
		<stop  offset="0.3828" style="stop-color:#FF9CC8;stop-opacity:0.3862"/>
		<stop  offset="0.4615" style="stop-color:#FF90C1;stop-opacity:0.26"/>
		<stop  offset="0.7972" style="stop-color:#EF91C3;stop-opacity:0"/>
	</radialGradient>
	<circle class="st0" cx="25.7" cy="25.8" r="21"/>
	<path class="st1" d="M28.9,21.1c2.6,1.8,3.3,5.3,1.5,7.9c-1.8,2.6-5.3,3.3-7.9,1.5c-2.6-1.8-3.3-5.3-1.5-7.9
		C22.8,20,26.3,19.3,28.9,21.1z"/>
</g>
</svg>
